{
    "Name": "C7_3",
    "Objects": [
        {
            "Length": 160,
            "Height": 240,
            "Stock": null,
            "Cost": 38400
        }
    ],
    "Items": [
        {
            "Length": 19,
            "Height": 15,
            "Demand": 1,
            "DemandMax": null,
            "Value": 285
        },
        {
            "Length": 4,
            "Height": 15,
            "Demand": 1,
            "DemandMax": null,
            "Value": 60
        },
        {
            "Length": 8,
            "Height": 5,
            "Demand": 2,
            "DemandMax": null,
            "Value": 40
        },
        {
            "Length": 26,
            "Height": 5,
            "Demand": 2,
            "DemandMax": null,
            "Value": 130
        },
        {
            "Length": 21,
            "Height": 10,
            "Demand": 1,
            "DemandMax": null,
            "Value": 210
        },
        {
            "Length": 5,
            "Height": 24,
            "Demand": 1,
            "DemandMax": null,
            "Value": 120
        },
        {
            "Length": 3,
            "Height": 7,
            "Demand": 6,
            "DemandMax": null,
            "Value": 21
        },
        {
            "Length": 32,
            "Height": 7,
            "Demand": 1,
            "DemandMax": null,
            "Value": 224
        },
        {
            "Length": 26,
            "Height": 92,
            "Demand": 1,
            "DemandMax": null,
            "Value": 2392
        },
        {
            "Length": 16,
            "Height": 92,
            "Demand": 1,
            "DemandMax": null,
            "Value": 1472
        },
        {
            "Length": 3,
            "Height": 17,
            "Demand": 1,
            "DemandMax": null,
            "Value": 51
        },
        {
            "Length": 32,
            "Height": 17,
            "Demand": 1,
            "DemandMax": null,
            "Value": 544
        },
        {
            "Length": 10,
            "Height": 5,
            "Demand": 1,
            "DemandMax": null,
            "Value": 50
        },
        {
            "Length": 24,
            "Height": 5,
            "Demand": 1,
            "DemandMax": null,
            "Value": 120
        },
        {
            "Length": 2,
            "Height": 8,
            "Demand": 1,
            "DemandMax": null,
            "Value": 16
        },
        {
            "Length": 19,
            "Height": 8,
            "Demand": 1,
            "DemandMax": null,
            "Value": 152
        },
        {
            "Length": 13,
            "Height": 10,
            "Demand": 1,
            "DemandMax": null,
            "Value": 130
        },
        {
            "Length": 4,
            "Height": 27,
            "Demand": 1,
            "DemandMax": null,
            "Value": 108
        },
        {
            "Length": 10,
            "Height": 14,
            "Demand": 1,
            "DemandMax": null,
            "Value": 140
        },
        {
            "Length": 24,
            "Height": 14,
            "Demand": 1,
            "DemandMax": null,
            "Value": 336
        },
        {
            "Length": 2,
            "Height": 11,
            "Demand": 1,
            "DemandMax": null,
            "Value": 22
        },
        {
            "Length": 19,
            "Height": 11,
            "Demand": 1,
            "DemandMax": null,
            "Value": 209
        },
        {
            "Length": 3,
            "Height": 3,
            "Demand": 3,
            "DemandMax": null,
            "Value": 9
        },
        {
            "Length": 5,
            "Height": 5,
            "Demand": 3,
            "DemandMax": null,
            "Value": 25
        },
        {
            "Length": 35,
            "Height": 5,
            "Demand": 2,
            "DemandMax": null,
            "Value": 175
        },
        {
            "Length": 6,
            "Height": 17,
            "Demand": 1,
            "DemandMax": null,
            "Value": 102
        },
        {
            "Length": 13,
            "Height": 17,
            "Demand": 1,
            "DemandMax": null,
            "Value": 221
        },
        {
            "Length": 24,
            "Height": 8,
            "Demand": 1,
            "DemandMax": null,
            "Value": 192
        },
        {
            "Length": 31,
            "Height": 8,
            "Demand": 1,
            "DemandMax": null,
            "Value": 248
        },
        {
            "Length": 5,
            "Height": 8,
            "Demand": 2,
            "DemandMax": null,
            "Value": 40
        },
        {
            "Length": 35,
            "Height": 8,
            "Demand": 1,
            "DemandMax": null,
            "Value": 280
        },
        {
            "Length": 14,
            "Height": 5,
            "Demand": 1,
            "DemandMax": null,
            "Value": 70
        },
        {
            "Length": 31,
            "Height": 5,
            "Demand": 1,
            "DemandMax": null,
            "Value": 155
        },
        {
            "Length": 11,
            "Height": 44,
            "Demand": 1,
            "DemandMax": null,
            "Value": 484
        },
        {
            "Length": 12,
            "Height": 44,
            "Demand": 1,
            "DemandMax": null,
            "Value": 528
        },
        {
            "Length": 38,
            "Height": 17,
            "Demand": 1,
            "DemandMax": null,
            "Value": 646
        },
        {
            "Length": 57,
            "Height": 17,
            "Demand": 1,
            "DemandMax": null,
            "Value": 969
        },
        {
            "Length": 13,
            "Height": 5,
            "Demand": 1,
            "DemandMax": null,
            "Value": 65
        },
        {
            "Length": 17,
            "Height": 5,
            "Demand": 1,
            "DemandMax": null,
            "Value": 85
        },
        {
            "Length": 8,
            "Height": 17,
            "Demand": 1,
            "DemandMax": null,
            "Value": 136
        },
        {
            "Length": 36,
            "Height": 20,
            "Demand": 1,
            "DemandMax": null,
            "Value": 720
        },
        {
            "Length": 21,
            "Height": 20,
            "Demand": 1,
            "DemandMax": null,
            "Value": 420
        },
        {
            "Length": 13,
            "Height": 12,
            "Demand": 1,
            "DemandMax": null,
            "Value": 156
        },
        {
            "Length": 17,
            "Height": 12,
            "Demand": 1,
            "DemandMax": null,
            "Value": 204
        },
        {
            "Length": 5,
            "Height": 15,
            "Demand": 2,
            "DemandMax": null,
            "Value": 75
        },
        {
            "Length": 10,
            "Height": 6,
            "Demand": 1,
            "DemandMax": null,
            "Value": 60
        },
        {
            "Length": 15,
            "Height": 6,
            "Demand": 1,
            "DemandMax": null,
            "Value": 90
        },
        {
            "Length": 8,
            "Height": 50,
            "Demand": 1,
            "DemandMax": null,
            "Value": 400
        },
        {
            "Length": 30,
            "Height": 16,
            "Demand": 1,
            "DemandMax": null,
            "Value": 480
        },
        {
            "Length": 6,
            "Height": 16,
            "Demand": 1,
            "DemandMax": null,
            "Value": 96
        },
        {
            "Length": 15,
            "Height": 10,
            "Demand": 1,
            "DemandMax": null,
            "Value": 150
        },
        {
            "Length": 6,
            "Height": 10,
            "Demand": 1,
            "DemandMax": null,
            "Value": 60
        },
        {
            "Length": 10,
            "Height": 9,
            "Demand": 1,
            "DemandMax": null,
            "Value": 90
        },
        {
            "Length": 15,
            "Height": 9,
            "Demand": 1,
            "DemandMax": null,
            "Value": 135
        },
        {
            "Length": 6,
            "Height": 8,
            "Demand": 2,
            "DemandMax": null,
            "Value": 48
        },
        {
            "Length": 12,
            "Height": 40,
            "Demand": 1,
            "DemandMax": null,
            "Value": 480
        },
        {
            "Length": 9,
            "Height": 33,
            "Demand": 1,
            "DemandMax": null,
            "Value": 297
        },
        {
            "Length": 6,
            "Height": 33,
            "Demand": 1,
            "DemandMax": null,
            "Value": 198
        },
        {
            "Length": 6,
            "Height": 37,
            "Demand": 2,
            "DemandMax": null,
            "Value": 222
        },
        {
            "Length": 5,
            "Height": 35,
            "Demand": 1,
            "DemandMax": null,
            "Value": 175
        },
        {
            "Length": 21,
            "Height": 13,
            "Demand": 1,
            "DemandMax": null,
            "Value": 273
        },
        {
            "Length": 4,
            "Height": 13,
            "Demand": 1,
            "DemandMax": null,
            "Value": 52
        },
        {
            "Length": 4,
            "Height": 17,
            "Demand": 2,
            "DemandMax": null,
            "Value": 68
        },
        {
            "Length": 22,
            "Height": 17,
            "Demand": 2,
            "DemandMax": null,
            "Value": 374
        },
        {
            "Length": 16,
            "Height": 34,
            "Demand": 1,
            "DemandMax": null,
            "Value": 544
        },
        {
            "Length": 6,
            "Height": 32,
            "Demand": 1,
            "DemandMax": null,
            "Value": 192
        },
        {
            "Length": 5,
            "Height": 32,
            "Demand": 2,
            "DemandMax": null,
            "Value": 160
        },
        {
            "Length": 14,
            "Height": 23,
            "Demand": 1,
            "DemandMax": null,
            "Value": 322
        },
        {
            "Length": 16,
            "Height": 23,
            "Demand": 1,
            "DemandMax": null,
            "Value": 368
        },
        {
            "Length": 6,
            "Height": 31,
            "Demand": 2,
            "DemandMax": null,
            "Value": 186
        },
        {
            "Length": 21,
            "Height": 22,
            "Demand": 1,
            "DemandMax": null,
            "Value": 462
        },
        {
            "Length": 4,
            "Height": 22,
            "Demand": 1,
            "DemandMax": null,
            "Value": 88
        },
        {
            "Length": 14,
            "Height": 8,
            "Demand": 1,
            "DemandMax": null,
            "Value": 112
        },
        {
            "Length": 16,
            "Height": 8,
            "Demand": 1,
            "DemandMax": null,
            "Value": 128
        },
        {
            "Length": 9,
            "Height": 4,
            "Demand": 1,
            "DemandMax": null,
            "Value": 36
        },
        {
            "Length": 6,
            "Height": 4,
            "Demand": 1,
            "DemandMax": null,
            "Value": 24
        },
        {
            "Length": 20,
            "Height": 4,
            "Demand": 1,
            "DemandMax": null,
            "Value": 80
        },
        {
            "Length": 22,
            "Height": 4,
            "Demand": 1,
            "DemandMax": null,
            "Value": 88
        },
        {
            "Length": 5,
            "Height": 29,
            "Demand": 1,
            "DemandMax": null,
            "Value": 145
        },
        {
            "Length": 38,
            "Height": 7,
            "Demand": 1,
            "DemandMax": null,
            "Value": 266
        },
        {
            "Length": 33,
            "Height": 7,
            "Demand": 1,
            "DemandMax": null,
            "Value": 231
        },
        {
            "Length": 7,
            "Height": 32,
            "Demand": 1,
            "DemandMax": null,
            "Value": 224
        },
        {
            "Length": 30,
            "Height": 49,
            "Demand": 1,
            "DemandMax": null,
            "Value": 1470
        },
        {
            "Length": 5,
            "Height": 22,
            "Demand": 1,
            "DemandMax": null,
            "Value": 110
        },
        {
            "Length": 9,
            "Height": 22,
            "Demand": 1,
            "DemandMax": null,
            "Value": 198
        },
        {
            "Length": 16,
            "Height": 31,
            "Demand": 1,
            "DemandMax": null,
            "Value": 496
        },
        {
            "Length": 2,
            "Height": 7,
            "Demand": 2,
            "DemandMax": null,
            "Value": 14
        },
        {
            "Length": 25,
            "Height": 7,
            "Demand": 1,
            "DemandMax": null,
            "Value": 175
        },
        {
            "Length": 11,
            "Height": 12,
            "Demand": 1,
            "DemandMax": null,
            "Value": 132
        },
        {
            "Length": 33,
            "Height": 22,
            "Demand": 1,
            "DemandMax": null,
            "Value": 726
        },
        {
            "Length": 2,
            "Height": 5,
            "Demand": 1,
            "DemandMax": null,
            "Value": 10
        },
        {
            "Length": 25,
            "Height": 5,
            "Demand": 1,
            "DemandMax": null,
            "Value": 125
        },
        {
            "Length": 27,
            "Height": 10,
            "Demand": 1,
            "DemandMax": null,
            "Value": 270
        },
        {
            "Length": 11,
            "Height": 10,
            "Demand": 1,
            "DemandMax": null,
            "Value": 110
        },
        {
            "Length": 9,
            "Height": 15,
            "Demand": 1,
            "DemandMax": null,
            "Value": 135
        },
        {
            "Length": 5,
            "Height": 30,
            "Demand": 1,
            "DemandMax": null,
            "Value": 150
        },
        {
            "Length": 11,
            "Height": 13,
            "Demand": 1,
            "DemandMax": null,
            "Value": 143
        },
        {
            "Length": 30,
            "Height": 13,
            "Demand": 1,
            "DemandMax": null,
            "Value": 390
        },
        {
            "Length": 30,
            "Height": 21,
            "Demand": 1,
            "DemandMax": null,
            "Value": 630
        },
        {
            "Length": 7,
            "Height": 17,
            "Demand": 1,
            "DemandMax": null,
            "Value": 119
        },
        {
            "Length": 5,
            "Height": 17,
            "Demand": 1,
            "DemandMax": null,
            "Value": 85
        },
        {
            "Length": 6,
            "Height": 24,
            "Demand": 1,
            "DemandMax": null,
            "Value": 144
        },
        {
            "Length": 6,
            "Height": 22,
            "Demand": 1,
            "DemandMax": null,
            "Value": 132
        },
        {
            "Length": 10,
            "Height": 22,
            "Demand": 1,
            "DemandMax": null,
            "Value": 220
        },
        {
            "Length": 3,
            "Height": 2,
            "Demand": 2,
            "DemandMax": null,
            "Value": 6
        },
        {
            "Length": 8,
            "Height": 10,
            "Demand": 2,
            "DemandMax": null,
            "Value": 80
        },
        {
            "Length": 6,
            "Height": 18,
            "Demand": 1,
            "DemandMax": null,
            "Value": 108
        },
        {
            "Length": 11,
            "Height": 8,
            "Demand": 1,
            "DemandMax": null,
            "Value": 88
        },
        {
            "Length": 30,
            "Height": 8,
            "Demand": 1,
            "DemandMax": null,
            "Value": 240
        },
        {
            "Length": 3,
            "Height": 8,
            "Demand": 3,
            "DemandMax": null,
            "Value": 24
        },
        {
            "Length": 12,
            "Height": 65,
            "Demand": 1,
            "DemandMax": null,
            "Value": 780
        },
        {
            "Length": 16,
            "Height": 5,
            "Demand": 1,
            "DemandMax": null,
            "Value": 80
        },
        {
            "Length": 6,
            "Height": 9,
            "Demand": 1,
            "DemandMax": null,
            "Value": 54
        },
        {
            "Length": 3,
            "Height": 9,
            "Demand": 1,
            "DemandMax": null,
            "Value": 27
        },
        {
            "Length": 41,
            "Height": 9,
            "Demand": 1,
            "DemandMax": null,
            "Value": 369
        },
        {
            "Length": 17,
            "Height": 3,
            "Demand": 1,
            "DemandMax": null,
            "Value": 51
        },
        {
            "Length": 13,
            "Height": 3,
            "Demand": 1,
            "DemandMax": null,
            "Value": 39
        },
        {
            "Length": 8,
            "Height": 8,
            "Demand": 1,
            "DemandMax": null,
            "Value": 64
        },
        {
            "Length": 17,
            "Height": 6,
            "Demand": 1,
            "DemandMax": null,
            "Value": 102
        },
        {
            "Length": 13,
            "Height": 6,
            "Demand": 1,
            "DemandMax": null,
            "Value": 78
        },
        {
            "Length": 5,
            "Height": 11,
            "Demand": 1,
            "DemandMax": null,
            "Value": 55
        },
        {
            "Length": 16,
            "Height": 11,
            "Demand": 1,
            "DemandMax": null,
            "Value": 176
        },
        {
            "Length": 6,
            "Height": 2,
            "Demand": 1,
            "DemandMax": null,
            "Value": 12
        },
        {
            "Length": 10,
            "Height": 2,
            "Demand": 1,
            "DemandMax": null,
            "Value": 20
        },
        {
            "Length": 6,
            "Height": 7,
            "Demand": 1,
            "DemandMax": null,
            "Value": 42
        },
        {
            "Length": 14,
            "Height": 3,
            "Demand": 1,
            "DemandMax": null,
            "Value": 42
        },
        {
            "Length": 12,
            "Height": 3,
            "Demand": 1,
            "DemandMax": null,
            "Value": 36
        },
        {
            "Length": 5,
            "Height": 3,
            "Demand": 1,
            "DemandMax": null,
            "Value": 15
        },
        {
            "Length": 10,
            "Height": 26,
            "Demand": 1,
            "DemandMax": null,
            "Value": 260
        },
        {
            "Length": 4,
            "Height": 10,
            "Demand": 1,
            "DemandMax": null,
            "Value": 40
        },
        {
            "Length": 47,
            "Height": 10,
            "Demand": 1,
            "DemandMax": null,
            "Value": 470
        },
        {
            "Length": 3,
            "Height": 11,
            "Demand": 1,
            "DemandMax": null,
            "Value": 33
        },
        {
            "Length": 12,
            "Height": 11,
            "Demand": 1,
            "DemandMax": null,
            "Value": 132
        },
        {
            "Length": 14,
            "Height": 7,
            "Demand": 1,
            "DemandMax": null,
            "Value": 98
        },
        {
            "Length": 12,
            "Height": 7,
            "Demand": 2,
            "DemandMax": null,
            "Value": 84
        },
        {
            "Length": 3,
            "Height": 18,
            "Demand": 1,
            "DemandMax": null,
            "Value": 54
        },
        {
            "Length": 5,
            "Height": 18,
            "Demand": 1,
            "DemandMax": null,
            "Value": 90
        },
        {
            "Length": 12,
            "Height": 10,
            "Demand": 1,
            "DemandMax": null,
            "Value": 120
        },
        {
            "Length": 9,
            "Height": 10,
            "Demand": 1,
            "DemandMax": null,
            "Value": 90
        },
        {
            "Length": 9,
            "Height": 49,
            "Demand": 1,
            "DemandMax": null,
            "Value": 441
        },
        {
            "Length": 5,
            "Height": 7,
            "Demand": 1,
            "DemandMax": null,
            "Value": 35
        },
        {
            "Length": 26,
            "Height": 11,
            "Demand": 1,
            "DemandMax": null,
            "Value": 286
        },
        {
            "Length": 4,
            "Height": 8,
            "Demand": 1,
            "DemandMax": null,
            "Value": 32
        },
        {
            "Length": 47,
            "Height": 8,
            "Demand": 1,
            "DemandMax": null,
            "Value": 376
        },
        {
            "Length": 12,
            "Height": 39,
            "Demand": 1,
            "DemandMax": null,
            "Value": 468
        },
        {
            "Length": 9,
            "Height": 39,
            "Demand": 1,
            "DemandMax": null,
            "Value": 351
        },
        {
            "Length": 5,
            "Height": 4,
            "Demand": 1,
            "DemandMax": null,
            "Value": 20
        },
        {
            "Length": 3,
            "Height": 4,
            "Demand": 1,
            "DemandMax": null,
            "Value": 12
        },
        {
            "Length": 51,
            "Height": 8,
            "Demand": 1,
            "DemandMax": null,
            "Value": 408
        },
        {
            "Length": 15,
            "Height": 8,
            "Demand": 1,
            "DemandMax": null,
            "Value": 120
        },
        {
            "Length": 7,
            "Height": 4,
            "Demand": 1,
            "DemandMax": null,
            "Value": 28
        },
        {
            "Length": 2,
            "Height": 4,
            "Demand": 1,
            "DemandMax": null,
            "Value": 8
        },
        {
            "Length": 25,
            "Height": 11,
            "Demand": 1,
            "DemandMax": null,
            "Value": 275
        },
        {
            "Length": 8,
            "Height": 34,
            "Demand": 1,
            "DemandMax": null,
            "Value": 272
        },
        {
            "Length": 7,
            "Height": 7,
            "Demand": 1,
            "DemandMax": null,
            "Value": 49
        },
        {
            "Length": 10,
            "Height": 29,
            "Demand": 1,
            "DemandMax": null,
            "Value": 290
        },
        {
            "Length": 2,
            "Height": 10,
            "Demand": 1,
            "DemandMax": null,
            "Value": 20
        },
        {
            "Length": 5,
            "Height": 10,
            "Demand": 1,
            "DemandMax": null,
            "Value": 50
        },
        {
            "Length": 59,
            "Height": 19,
            "Demand": 1,
            "DemandMax": null,
            "Value": 1121
        },
        {
            "Length": 9,
            "Height": 23,
            "Demand": 1,
            "DemandMax": null,
            "Value": 207
        },
        {
            "Length": 22,
            "Height": 15,
            "Demand": 1,
            "DemandMax": null,
            "Value": 330
        },
        {
            "Length": 3,
            "Height": 15,
            "Demand": 1,
            "DemandMax": null,
            "Value": 45
        },
        {
            "Length": 2,
            "Height": 9,
            "Demand": 1,
            "DemandMax": null,
            "Value": 18
        },
        {
            "Length": 4,
            "Height": 7,
            "Demand": 1,
            "DemandMax": null,
            "Value": 28
        },
        {
            "Length": 1,
            "Height": 7,
            "Demand": 1,
            "DemandMax": null,
            "Value": 7
        },
        {
            "Length": 4,
            "Height": 2,
            "Demand": 1,
            "DemandMax": null,
            "Value": 8
        },
        {
            "Length": 1,
            "Height": 2,
            "Demand": 1,
            "DemandMax": null,
            "Value": 2
        },
        {
            "Length": 7,
            "Height": 10,
            "Demand": 1,
            "DemandMax": null,
            "Value": 70
        },
        {
            "Length": 59,
            "Height": 10,
            "Demand": 1,
            "DemandMax": null,
            "Value": 590
        },
        {
            "Length": 22,
            "Height": 8,
            "Demand": 1,
            "DemandMax": null,
            "Value": 176
        }
    ]
}