200,,
1,34,70
2,21,53
3,26,101
4,29,74
5,90,26
6,34,48
7,15,59
8,41,24
9,8,35
10,33,73
11,9,17
12,12,34
13,43,17
14,51,27
15,12,41
16,23,38
17,37,60
18,18,14
19,44,46
20,42,22
21,9,14
22,21,8
23,41,24
24,78,77
25,122,53
