200,,
1,28,99
2,57,27
3,13,25
4,21,12
5,17,46
6,8,10
7,24,5
8,32,69
9,13,5
10,11,18
11,21,13
12,10,13
13,11,48
14,11,23
15,21,30
16,23,35
17,48,43
18,9,33
19,28,7
20,45,39
21,4,16
22,43,10
23,36,23
24,4,27
25,24,15
26,46,12
27,17,4
28,7,8
29,10,36
30,53,28
31,2,12
32,22,14
33,57,18
34,24,108
35,6,2
36,56,11
37,9,51
38,36,48
39,131,23
40,49,38
41,17,37
42,65,19
43,40,18
44,25,48
45,1,3
46,35,13
47,10,10
48,57,30
49,94,29
