200,,
1,25,105
2,57,24
3,27,18
4,13,25
5,20,15
6,58,20
7,14,10
8,6,28
9,14,59
10,13,25
11,17,57
12,41,82
13,32,81
14,25,102
15,27,18
16,46,34
17,77,25
18,8,15
19,25,18
20,64,13
21,7,19
22,14,74
23,57,21
24,58,11
25,6,6
26,4,9
27,4,3
28,29,6
29,13,5
30,105,22
31,10,45
32,39,74
33,6,31
34,26,21
35,13,10
36,13,29
37,51,52
38,54,23
39,19,19
40,44,8
41,11,11
42,9,9
43,46,24
44,36,21
45,8,8
46,7,2
47,2,7
48,18,5
49,28,13
