6000,,
1,365,185
2,378,200
3,410,165
4,425,148
5,425,296
6,439,116
7,464,1006
8,520,205
9,520,350
10,540,530
11,549,1413
12,549,1882
13,553,496
14,555,755
15,555,496
16,555,659
17,567,473
18,572,592
19,572,975
20,572,1175
21,572,1575
22,572,1390
23,572,1490
24,572,1590
25,572,1690
26,572,1890
27,610,625
28,660,490
29,690,447
30,949,445
31,949,478
32,970,463
33,4,1
34,65,37
35,5,2
36,8,5
37,36,11
38,2,1
39,1,1
40,2,1
41,1,3
42,38,1
43,23,6
44,3,4
45,1,20
46,1,34
47,1,5
48,22,1
49,20,1
50,1,21
51,20,1
52,22,2
53,3,5
54,1,12
55,6,2
56,32,8
57,120,26
58,1,1
59,8,2
60,11,20
61,31,5
62,3,23
63,4,14
64,7,1
65,3,1
66,42,47
67,45,1
68,11,5
69,11,16
70,1,10
71,10,4
72,61,51
73,127,49
74,7,63
75,1,8
76,2,18
77,7,22
78,49,50
79,57,25
80,2,6
81,29,5
82,2,29
83,1,2
84,1,1
85,43,7
86,69,38
87,24,3
88,8,7
89,4,28
90,20,34
91,1,29
92,2,4
93,6,2
94,1,8
95,49,3
96,64,1
97,2,2
98,3,82
99,1,6
100,4,1
101,15,6
102,156,1
103,8,1
104,35,1
105,5,4
106,3,20
107,1,11
108,11,17
109,10,1
110,76,1
111,11,64
112,14,2
113,1,5
114,9,4
115,1,13
116,5,14
117,47,2
118,25,5
119,52,1
120,10,1
121,2,5
122,3,25
123,6,2
124,2,1
125,8,40
126,16,1
127,17,9
128,2,66
129,3,2
130,1,4
131,100,9
132,35,3
133,1,38
134,4,6
135,2,20
136,4,21
137,25,69
138,9,5
139,9,40
140,11,8
141,1,12
142,2,12
143,21,3
144,7,63
145,2,5
146,6,31
147,65,2
148,12,44
149,1,40
150,1,21
151,1,13
152,5,26
153,13,7
154,2,10
155,16,86
156,8,29
157,1,32
158,7,10
159,28,5
160,138,28
161,1,5
162,2,71
163,1,9
164,2,12
165,30,1
166,17,1
167,1,65
168,94,2
169,48,12
170,1,4
171,1,6
172,1,10
173,33,20
174,50,50
175,16,16
176,7,56
177,13,34
178,22,16
179,3,15
180,11,3
181,2,1
182,36,3
183,18,51
184,15,23
185,1,15
186,11,6
187,28,34
188,38,6
189,3,27
190,1,21
191,2,1
192,13,24
193,44,33
194,218,5
195,11,105
196,38,6
197,1,63
198,1,57
199,9,14
200,36,7
201,60,72
202,6,25
203,29,41
204,2,2
205,1,19
206,3,116
207,3,25
208,16,102
209,76,1
210,5,4
211,8,15
212,3,19
213,18,22
214,42,11
215,7,5
216,7,30
217,4,22
218,3,59
219,2,47
220,7,2
221,15,1
222,48,8
223,9,11
224,1,28
225,1,10
226,17,12
227,3,78
228,55,13
229,74,55
230,12,24
231,2,21
232,2,7
233,6,2
234,4,1
235,24,42
236,7,31
237,2,1
238,6,25
239,6,10
240,19,52
241,3,40
242,1,73
243,5,12
244,2,1
245,4,1
246,14,53
247,55,29
248,46,73
249,2,4
250,1,97
251,6,3
252,22,11
253,18,80
254,15,56
255,71,51
256,15,53
257,14,43
258,4,7
259,9,106
260,3,8
261,2,125
262,3,2
263,1,16
264,12,12
265,18,5
266,3,1
267,11,3
268,158,14
269,2,32
270,3,11
271,57,1
272,10,1
273,9,43
274,108,1
275,32,2
276,16,14
277,3,63
278,1,2
279,12,2
280,7,7
281,23,24
282,6,2
283,6,1
284,20,5
285,13,48
286,1,13
287,3,9
288,10,209
289,47,57
290,3,88
291,6,32
292,15,89
293,171,29
294,15,8
295,43,6
296,1,46
297,10,1
298,27,7
299,19,71
300,11,5
301,90,62
302,10,53
303,11,56
304,12,81
305,1,3
306,5,9
307,2,30
308,159,1
309,3,22
310,9,83
311,10,15
312,1,1
313,3,11
314,22,2
315,41,2
316,24,12
317,3,9
318,1,44
319,2,48
320,4,21
321,9,1
322,202,2
323,44,100
324,15,3
325,2,4
326,49,22
327,3,35
328,47,2
329,74,5
330,23,38
331,9,17
332,1,3
333,8,1
334,68,47
335,164,1
336,12,25
337,5,70
338,4,3
339,6,5
340,19,191
341,31,23
342,2,23
343,2,55
344,9,69
345,71,5
346,39,40
347,4,12
348,7,3
349,36,63
350,59,5
351,15,31
352,7,2
353,14,44
354,14,40
355,4,21
356,12,13
357,2,26
358,54,7
359,7,10
360,32,86
361,12,29
362,1,32
363,5,10
364,10,5
365,43,28
366,2,5
367,1,71
368,2,12
369,49,1
370,13,1
371,9,65
372,34,2
373,6,12
374,2,4
375,5,10
376,15,20
377,73,50
378,4,16
379,4,56
380,25,34
381,4,16
382,1,15
383,2,3
384,1,1
385,6,3
386,13,51
387,9,23
388,1,15
389,2,6
390,43,34
391,136,6
392,7,27
393,20,33
394,10,5
395,6,105
396,34,6
397,2,63
398,2,14
399,34,7
400,28,72
401,92,25
402,2,41
403,11,2
404,1,19
405,4,116
406,3,25
407,35,102
408,147,1
409,4,15
410,8,19
411,136,11
412,42,5
413,52,30
414,4,22
415,1,59
416,1,47
417,8,2
418,4,1
419,7,8
420,20,11
421,10,10
422,33,12
423,5,78
424,44,13
425,1,55
426,7,24
427,1,7
428,1,2
429,6,1
430,52,42
431,22,31
432,5,1
433,1,25
434,1,10
435,100,52
436,63,40
437,1,12
438,2,1
439,20,53
440,25,29
441,2,73
442,9,4
443,6,11
444,25,80
445,6,56
446,1,51
447,11,53
448,1,43
449,1,7
450,4,106
451,4,7
452,65,88
453,8,11
454,36,1
455,2,4
456,38,1
457,23,8
458,3,22
459,1,12
460,1,52
461,1,6
462,1,22
463,3,36
464,1,21
465,6,2
466,32,6
467,120,37
468,1,1
469,11,17
470,31,2
471,3,1
472,4,22
473,7,1
474,42,39
475,11,32
476,1,3
477,10,5
478,61,158
479,127,8
480,7,25
481,1,6
482,2,9
483,7,10
484,49,39
485,57,4
486,2,2
487,29,1
488,2,17
489,1,7
490,69,33
491,24,2
492,8,55
493,4,25
494,20,22
495,1,52
496,2,5
497,6,1
498,1,1
499,49,27
500,2,20
501,3,1
502,1,9
503,15,5
504,156,1
505,8,1
506,35,11
507,5,5
508,3,24
509,1,37
510,11,4
511,76,1
512,11,36
513,14,1
514,1,12
515,1,9
516,5,21
517,52,37
518,10,16
519,2,14
520,3,19
521,6,1
522,8,7
523,17,16
524,2,4
525,3,1
526,1,1
527,100,182
528,35,20
529,1,4
530,4,17
531,2,7
532,4,34
533,4,1
534,65,37
535,5,2
536,8,5
537,36,11
538,2,1
539,1,1
540,2,1
541,1,3
542,38,1
543,23,6
544,3,4
545,1,20
546,1,34
547,1,5
548,22,1
549,20,1
550,1,21
551,20,1
552,22,2
553,3,5
554,1,12
555,6,2
556,32,8
557,120,26
558,1,1
559,8,2
560,11,20
561,31,5
562,3,23
563,4,14
564,7,1
565,3,1
566,42,47
567,45,1
568,11,5
569,11,16
570,1,10
571,10,4
572,61,51
573,127,49
574,7,63
575,1,8
576,2,18
577,7,22
578,49,50
579,57,25
580,2,6
581,29,5
582,2,29
583,1,2
584,1,1
585,43,7
586,69,38
587,24,3
588,8,7
589,4,28
590,20,34
591,1,29
592,2,4
593,6,2
594,1,8
595,49,3
596,64,1
597,2,2
598,3,82
599,1,6
600,4,1
601,15,6
602,156,1
603,8,1
604,35,1
605,5,4
606,3,20
607,1,11
608,11,17
609,10,1
610,76,1
611,11,64
612,14,2
613,1,5
614,9,4
615,1,13
616,5,14
617,47,2
618,25,5
619,52,1
620,10,1
621,2,5
622,3,25
623,6,2
624,2,1
625,8,40
626,16,1
627,17,9
628,2,66
629,3,2
630,1,4
631,100,9
632,35,3
633,1,38
634,4,6
635,2,20
636,4,21
637,25,69
638,9,5
639,9,40
640,11,8
641,1,12
642,2,12
643,21,3
644,7,63
645,2,5
646,6,31
647,65,2
648,12,44
649,1,40
650,1,21
651,1,13
652,5,26
653,13,7
654,2,10
655,16,86
656,8,29
657,1,32
658,7,10
659,28,5
660,138,28
661,1,5
662,2,71
663,1,9
664,2,12
665,30,1
666,17,1
667,1,65
668,94,2
669,48,12
670,1,4
671,1,6
672,1,10
673,33,20
674,50,50
675,16,16
676,7,56
677,13,34
678,22,16
679,3,15
680,11,3
681,2,1
682,36,3
683,18,51
684,15,23
685,1,15
686,11,6
687,28,34
688,38,6
689,3,27
690,1,21
691,2,1
692,13,24
693,44,33
694,218,5
695,11,105
696,38,6
697,1,63
698,1,57
699,9,14
700,36,7
701,60,72
702,6,25
703,29,41
704,2,2
705,1,19
706,3,116
707,3,25
708,16,102
709,76,1
710,5,4
711,8,15
712,3,19
713,18,22
714,42,11
715,7,5
716,7,30
717,4,22
718,3,59
719,2,47
720,7,2
721,15,1
722,48,8
723,9,11
724,1,28
725,1,10
726,17,12
727,3,78
728,55,13
729,74,55
730,12,24
731,2,21
732,2,7
733,6,2
734,4,1
735,24,42
736,7,31
737,2,1
738,6,25
739,6,10
740,19,52
741,3,40
742,1,73
743,5,12
744,2,1
745,4,1
746,14,53
747,55,29
748,46,73
749,2,4
750,1,97
751,6,3
752,22,11
753,18,80
754,15,56
755,71,51
756,15,53
757,14,43
758,4,7
759,9,106
760,3,8
761,2,125
762,3,2
763,1,16
764,12,12
765,18,5
766,3,1
767,11,3
768,158,14
769,2,32
770,3,11
771,57,1
772,10,1
773,9,43
774,108,1
775,32,2
776,16,14
777,3,63
778,1,2
779,12,2
780,7,7
781,23,24
782,6,2
783,6,1
784,20,5
785,13,48
786,1,13
787,3,9
788,10,209
789,47,57
790,3,88
791,6,32
792,15,89
793,171,29
794,15,8
795,43,6
796,1,46
797,10,1
798,27,7
799,19,71
800,11,5
801,90,62
802,10,53
803,11,56
804,12,81
805,1,3
806,5,9
807,2,30
808,159,1
809,3,22
810,9,83
811,10,15
812,1,1
813,3,11
814,22,2
815,41,2
816,24,12
817,3,9
818,1,44
819,2,48
820,4,21
821,9,1
822,202,2
823,44,100
824,15,3
825,2,4
826,49,22
827,3,35
828,47,2
829,74,5
830,23,38
831,9,17
832,1,3
833,8,1
834,68,47
835,164,1
836,12,25
837,5,70
838,4,3
839,6,5
840,19,191
841,31,23
842,2,23
843,2,55
844,9,69
845,71,5
846,39,40
847,4,12
848,7,3
849,36,63
850,59,5
851,15,31
852,7,2
853,14,44
854,14,40
855,4,21
856,12,13
857,2,26
858,54,7
859,7,10
860,32,86
861,12,29
862,1,32
863,5,10
864,10,5
865,43,28
866,2,5
867,1,71
868,2,12
869,49,1
870,13,1
871,9,65
872,34,2
873,6,12
874,2,4
875,5,10
876,15,20
877,73,50
878,4,16
879,4,56
880,25,34
881,4,16
882,1,15
883,2,3
884,1,1
885,6,3
886,13,51
887,9,23
888,1,15
889,2,6
890,43,34
891,136,6
892,7,27
893,20,33
894,10,5
895,6,105
896,34,6
897,2,63
898,2,14
899,34,7
900,28,72
901,92,25
902,2,41
903,11,2
904,1,19
905,4,116
906,3,25
907,35,102
908,147,1
909,4,15
910,8,19
911,136,11
912,42,5
913,52,30
914,4,22
915,1,59
916,1,47
917,8,2
918,4,1
919,7,8
920,20,11
921,10,10
922,33,12
923,5,78
924,44,13
925,1,55
926,7,24
927,1,7
928,1,2
929,6,1
930,52,42
931,22,31
932,5,1
933,1,25
934,1,10
935,100,52
936,63,40
937,1,12
938,2,1
939,20,53
940,25,29
941,2,73
942,9,4
943,6,11
944,25,80
945,6,56
946,1,51
947,11,53
948,1,43
949,1,7
950,4,106
951,4,7
952,65,88
953,8,11
954,36,1
955,2,4
956,38,1
957,23,8
958,3,22
959,1,12
960,1,52
961,1,6
962,1,22
963,3,36
964,1,21
965,6,2
966,32,6
967,120,37
968,1,1
969,11,17
970,31,2
971,3,1
972,4,22
973,7,1
974,42,39
975,11,32
976,1,3
977,10,5
978,61,158
979,127,8
980,7,25
981,1,6
982,2,9
983,7,10
984,49,39
985,57,4
986,2,2
987,29,1
988,2,17
989,1,7
990,69,33
991,24,2
992,8,55
993,4,25
994,20,22
995,1,52
996,2,5
997,6,1
998,1,1
999,49,27
1000,2,20
1001,3,1
1002,1,9
1003,15,5
1004,156,1
1005,8,1
1006,35,11
1007,5,5
1008,3,24
1009,1,37
1010,11,4
1011,76,1
1012,11,36
1013,14,1
1014,1,12
1015,1,9
1016,5,21
1017,52,37
1018,10,16
1019,2,14
1020,3,19
1021,6,1
1022,8,7
1023,17,16
1024,2,4
1025,3,1
1026,1,1
1027,100,182
1028,35,20
1029,1,4
1030,4,17
1031,2,7
1032,4,34
1033,4,1
1034,65,37
1035,5,2
1036,8,5
1037,36,11
1038,2,1
1039,1,1
1040,2,1
1041,1,3
1042,38,1
1043,23,6
1044,3,4
1045,1,20
1046,1,34
1047,1,5
1048,22,1
1049,20,1
1050,1,21
1051,20,1
1052,22,2
1053,3,5
1054,1,12
1055,6,2
1056,32,8
1057,120,26
1058,1,1
1059,8,2
1060,11,20
1061,31,5
1062,3,23
1063,4,14
1064,7,1
1065,3,1
1066,42,47
1067,45,1
1068,11,5
1069,11,16
1070,1,10
1071,10,4
1072,61,51
1073,127,49
1074,7,63
1075,1,8
1076,2,18
1077,7,22
1078,49,50
1079,57,25
1080,2,6
1081,29,5
1082,2,29
1083,1,2
1084,1,1
1085,43,7
1086,69,38
1087,24,3
1088,8,7
1089,4,28
1090,20,34
1091,1,29
1092,2,4
1093,6,2
1094,1,8
1095,49,3
1096,64,1
1097,2,2
1098,3,82
1099,1,6
1100,4,1
1101,15,6
1102,156,1
1103,8,1
1104,35,1
1105,5,4
1106,3,20
1107,1,11
1108,11,17
1109,10,1
1110,76,1
1111,11,64
1112,14,2
1113,1,5
1114,9,4
1115,1,13
1116,5,14
1117,47,2
1118,25,5
1119,52,1
1120,10,1
1121,2,5
1122,3,25
1123,6,2
1124,2,1
1125,8,40
1126,16,1
1127,17,9
1128,2,66
1129,3,2
1130,1,4
1131,100,9
1132,35,3
1133,1,38
1134,4,6
1135,2,20
1136,4,21
1137,25,69
1138,9,5
1139,9,40
1140,11,8
1141,1,12
1142,2,12
1143,21,3
1144,7,63
1145,2,5
1146,6,31
1147,65,2
1148,12,44
1149,1,40
1150,1,21
1151,1,13
1152,5,26
1153,13,7
1154,2,10
1155,16,86
1156,8,29
1157,1,32
1158,7,10
1159,28,5
1160,138,28
1161,1,5
1162,2,71
1163,1,9
1164,2,12
1165,30,1
1166,17,1
1167,1,65
1168,94,2
1169,48,12
1170,1,4
1171,1,6
1172,1,10
1173,33,20
1174,50,50
1175,16,16
1176,7,56
1177,13,34
1178,22,16
1179,3,15
1180,11,3
1181,2,1
1182,36,3
1183,18,51
1184,15,23
1185,1,15
1186,11,6
1187,28,34
1188,38,6
1189,3,27
1190,1,21
1191,2,1
1192,13,24
1193,44,33
1194,218,5
1195,11,105
1196,38,6
1197,1,63
1198,1,57
1199,9,14
1200,36,7
1201,60,72
1202,6,25
1203,29,41
1204,2,2
1205,1,19
1206,3,116
1207,3,25
1208,16,102
1209,76,1
1210,5,4
1211,8,15
1212,3,19
1213,18,22
1214,42,11
1215,7,5
1216,7,30
1217,4,22
1218,3,59
1219,2,47
1220,7,2
1221,15,1
1222,48,8
1223,9,11
1224,1,28
1225,1,10
1226,17,12
1227,3,78
1228,55,13
1229,74,55
1230,12,24
1231,2,21
1232,2,7
1233,6,2
1234,4,1
1235,24,42
1236,7,31
1237,2,1
1238,6,25
1239,6,10
1240,19,52
1241,3,40
1242,1,73
1243,5,12
1244,2,1
1245,4,1
1246,14,53
1247,55,29
1248,46,73
1249,2,4
1250,1,97
1251,6,3
1252,22,11
1253,18,80
1254,15,56
1255,71,51
1256,15,53
1257,14,43
1258,4,7
1259,9,106
1260,3,8
1261,2,125
1262,3,2
1263,1,16
1264,12,12
1265,18,5
1266,3,1
1267,11,3
1268,158,14
1269,2,32
1270,3,11
1271,57,1
1272,10,1
1273,9,43
1274,108,1
1275,32,2
1276,16,14
1277,3,63
1278,1,2
1279,12,2
1280,7,7
1281,23,24
1282,6,2
1283,6,1
1284,20,5
1285,13,48
1286,1,13
1287,3,9
1288,10,209
1289,47,57
1290,3,88
1291,6,32
1292,15,89
1293,171,29
1294,15,8
1295,43,6
1296,1,46
1297,10,1
1298,27,7
1299,19,71
1300,11,5
1301,90,62
1302,10,53
1303,11,56
1304,12,81
1305,1,3
1306,5,9
1307,2,30
1308,159,1
1309,3,22
1310,9,83
1311,10,15
1312,1,1
1313,3,11
1314,22,2
1315,41,2
1316,24,12
1317,3,9
1318,1,44
1319,2,48
1320,4,21
1321,9,1
1322,202,2
1323,44,100
1324,15,3
1325,2,4
1326,49,22
1327,3,35
1328,47,2
1329,74,5
1330,23,38
1331,9,17
1332,1,3
1333,8,1
1334,68,47
1335,164,1
1336,12,25
1337,5,70
1338,4,3
1339,6,5
1340,19,191
1341,31,23
1342,2,23
1343,2,55
1344,9,69
1345,71,5
1346,39,40
1347,4,12
1348,7,3
1349,36,63
1350,59,5
1351,15,31
1352,7,2
1353,14,44
1354,14,40
1355,4,21
1356,12,13
1357,2,26
1358,54,7
1359,7,10
1360,32,86
1361,12,29
1362,1,32
1363,5,10
1364,10,5
1365,43,28
1366,2,5
1367,1,71
1368,2,12
1369,49,1
1370,13,1
1371,9,65
1372,34,2
1373,6,12
1374,2,4
1375,5,10
1376,15,20
1377,73,50
1378,4,16
1379,4,56
1380,25,34
1381,4,16
1382,1,15
1383,2,3
1384,1,1
1385,6,3
1386,13,51
1387,9,23
1388,1,15
1389,2,6
1390,43,34
1391,136,6
1392,7,27
1393,20,33
1394,10,5
1395,6,105
1396,34,6
1397,2,63
1398,2,14
1399,34,7
1400,28,72
1401,92,25
1402,2,41
1403,11,2
1404,1,19
1405,4,116
1406,3,25
1407,35,102
1408,147,1
1409,4,15
1410,8,19
1411,136,11
1412,42,5
1413,52,30
1414,4,22
1415,1,59
1416,1,47
1417,8,2
1418,4,1
1419,7,8
1420,20,11
1421,10,10
1422,33,12
1423,5,78
1424,44,13
1425,1,55
1426,7,24
1427,1,7
1428,1,2
1429,6,1
1430,52,42
1431,22,31
1432,5,1
1433,1,25
1434,1,10
1435,100,52
1436,63,40
1437,1,12
1438,2,1
1439,20,53
1440,25,29
1441,2,73
1442,9,4
1443,6,11
1444,25,80
1445,6,56
1446,1,51
1447,11,53
1448,1,43
1449,1,7
1450,4,106
1451,4,7
1452,65,88
1453,8,11
1454,36,1
1455,2,4
1456,38,1
1457,23,8
1458,3,22
1459,1,12
1460,1,52
1461,1,6
1462,1,22
1463,3,36
1464,1,21
1465,6,2
1466,32,6
1467,120,37
1468,1,1
1469,11,17
1470,31,2
1471,3,1
1472,4,22
1473,7,1
1474,42,39
1475,11,32
1476,1,3
1477,10,5
1478,61,158
1479,127,8
1480,7,25
1481,1,6
1482,2,9
1483,7,10
1484,49,39
1485,57,4
1486,2,2
1487,29,1
1488,2,17
1489,1,7
1490,69,33
1491,24,2
1492,8,55
1493,4,25
1494,20,22
1495,1,52
1496,2,5
1497,6,1
1498,1,1
1499,49,27
1500,2,20
1501,3,1
1502,1,9
1503,15,5
1504,156,1
1505,8,1
1506,35,11
1507,5,5
1508,3,24
1509,1,37
1510,11,4
1511,76,1
1512,11,36
1513,14,1
1514,1,12
1515,1,9
1516,5,21
1517,52,37
1518,10,16
1519,2,14
1520,3,19
1521,6,1
1522,8,7
1523,17,16
1524,2,4
1525,3,1
1526,1,1
1527,100,182
1528,35,20
1529,1,4
1530,4,17
1531,2,7
1532,4,34
1533,4,1
1534,65,37
1535,5,2
1536,8,5
1537,36,11
1538,2,1
1539,1,1
1540,2,1
1541,1,3
1542,38,1
1543,23,6
1544,3,4
1545,1,20
1546,1,34
1547,1,5
1548,22,1
1549,20,1
1550,1,21
1551,20,1
1552,22,2
1553,3,5
1554,1,12
1555,6,2
1556,32,8
1557,120,26
1558,1,1
1559,8,2
1560,11,20
1561,31,5
1562,3,23
1563,4,14
1564,7,1
1565,3,1
1566,42,47
1567,45,1
1568,11,5
1569,11,16
1570,1,10
1571,10,4
1572,61,51
1573,127,49
1574,7,63
1575,1,8
1576,2,18
1577,7,22
1578,49,50
1579,57,25
1580,2,6
1581,29,5
1582,2,29
1583,1,2
1584,1,1
1585,43,7
1586,69,38
1587,24,3
1588,8,7
1589,4,28
1590,20,34
1591,1,29
1592,2,4
1593,6,2
1594,1,8
1595,49,3
1596,64,1
1597,2,2
1598,3,82
1599,1,6
1600,4,1
1601,15,6
1602,156,1
1603,8,1
1604,35,1
1605,5,4
1606,3,20
1607,1,11
1608,11,17
1609,10,1
1610,76,1
1611,11,64
1612,14,2
1613,1,5
1614,9,4
1615,1,13
1616,5,14
1617,47,2
1618,25,5
1619,52,1
1620,10,1
1621,2,5
1622,3,25
1623,6,2
1624,2,1
1625,8,40
1626,16,1
1627,17,9
1628,2,66
1629,3,2
1630,1,4
1631,100,9
1632,35,3
1633,1,38
1634,4,6
1635,2,20
1636,4,21
1637,25,69
1638,9,5
1639,9,40
1640,11,8
1641,1,12
1642,2,12
1643,21,3
1644,7,63
1645,2,5
1646,6,31
1647,65,2
1648,12,44
1649,1,40
1650,1,21
1651,1,13
1652,5,26
1653,13,7
1654,2,10
1655,16,86
1656,8,29
1657,1,32
1658,7,10
1659,28,5
1660,138,28
1661,1,5
1662,2,71
1663,1,9
1664,2,12
1665,30,1
1666,17,1
1667,1,65
1668,94,2
1669,48,12
1670,1,4
1671,1,6
1672,1,10
1673,33,20
1674,50,50
1675,16,16
1676,7,56
1677,13,34
1678,22,16
1679,3,15
1680,11,3
1681,2,1
1682,36,3
1683,18,51
1684,15,23
1685,1,15
1686,11,6
1687,28,34
1688,38,6
1689,3,27
1690,1,21
1691,2,1
1692,13,24
1693,44,33
1694,218,5
1695,11,105
1696,38,6
1697,1,63
1698,1,57
1699,9,14
1700,36,7
1701,60,72
1702,6,25
1703,29,41
1704,2,2
1705,1,19
1706,3,116
1707,3,25
1708,16,102
1709,76,1
1710,5,4
1711,8,15
1712,3,19
1713,18,22
1714,42,11
1715,7,5
1716,7,30
1717,4,22
1718,3,59
1719,2,47
1720,7,2
1721,15,1
1722,48,8
1723,9,11
1724,1,28
1725,1,10
1726,17,12
1727,3,78
1728,55,13
1729,74,55
1730,12,24
1731,2,21
1732,2,7
1733,6,2
1734,4,1
1735,24,42
1736,7,31
1737,2,1
1738,6,25
1739,6,10
1740,19,52
1741,3,40
1742,1,73
1743,5,12
1744,2,1
1745,4,1
1746,14,53
1747,55,29
1748,46,73
1749,2,4
1750,1,97
1751,6,3
1752,22,11
1753,18,80
1754,15,56
1755,71,51
1756,15,53
1757,14,43
1758,4,7
1759,9,106
1760,3,8
1761,2,125
1762,3,2
1763,1,16
1764,12,12
1765,18,5
1766,3,1
1767,11,3
1768,158,14
1769,2,32
1770,3,11
1771,57,1
1772,10,1
1773,9,43
1774,108,1
1775,32,2
1776,16,14
1777,3,63
1778,1,2
1779,12,2
1780,7,7
1781,23,24
1782,6,2
1783,6,1
1784,20,5
1785,13,48
1786,1,13
1787,3,9
1788,10,209
1789,47,57
1790,3,88
1791,6,32
1792,15,89
1793,171,29
1794,15,8
1795,43,6
1796,1,46
1797,10,1
1798,27,7
1799,19,71
1800,11,5
1801,90,62
1802,10,53
1803,11,56
1804,12,81
1805,1,3
1806,5,9
1807,2,30
1808,159,1
1809,3,22
1810,9,83
1811,10,15
1812,1,1
1813,3,11
1814,22,2
1815,41,2
1816,24,12
1817,3,9
1818,1,44
1819,2,48
1820,4,21
1821,9,1
1822,202,2
1823,44,100
1824,15,3
1825,2,4
1826,49,22
1827,3,35
1828,47,2
1829,74,5
1830,23,38
1831,9,17
1832,1,3
1833,8,1
1834,68,47
1835,164,1
1836,12,25
1837,5,70
1838,4,3
1839,6,5
1840,19,191
1841,31,23
1842,2,23
1843,2,55
1844,9,69
1845,71,5
1846,39,40
1847,4,12
1848,7,3
1849,36,63
1850,59,5
1851,15,31
1852,7,2
1853,14,44
1854,14,40
1855,4,21
1856,12,13
1857,2,26
1858,54,7
1859,7,10
1860,32,86
1861,12,29
1862,1,32
1863,5,10
1864,10,5
1865,43,28
1866,2,5
1867,1,71
1868,2,12
1869,49,1
1870,13,1
1871,9,65
1872,34,2
1873,6,12
1874,2,4
1875,5,10
1876,15,20
1877,73,50
1878,4,16
1879,4,56
1880,25,34
1881,4,16
1882,1,15
1883,2,3
1884,1,1
1885,6,3
1886,13,51
1887,9,23
1888,1,15
1889,2,6
1890,43,34
1891,136,6
1892,7,27
1893,20,33
1894,10,5
1895,6,105
1896,34,6
1897,2,63
1898,2,14
1899,34,7
1900,28,72
1901,92,25
1902,2,41
1903,11,2
1904,1,19
1905,4,116
1906,3,25
1907,35,102
1908,147,1
1909,4,15
1910,8,19
1911,136,11
1912,42,5
1913,52,30
1914,4,22
1915,1,59
1916,1,47
1917,8,2
1918,4,1
1919,7,8
1920,20,11
1921,10,10
1922,33,12
1923,5,78
1924,44,13
1925,1,55
1926,7,24
1927,1,7
1928,1,2
1929,6,1
1930,52,42
1931,22,31
1932,5,1
1933,1,25
1934,1,10
1935,100,52
1936,63,40
1937,1,12
1938,2,1
1939,20,53
1940,25,29
1941,2,73
1942,9,4
1943,6,11
1944,25,80
1945,6,56
1946,1,51
1947,11,53
1948,1,43
1949,1,7
1950,4,106
1951,4,7
1952,65,88
1953,8,11
1954,36,1
1955,2,4
1956,38,1
1957,23,8
1958,3,22
1959,1,12
1960,1,52
1961,1,6
1962,1,22
1963,3,36
1964,1,21
1965,6,2
1966,32,6
1967,120,37
1968,1,1
1969,11,17
1970,31,2
1971,3,1
1972,4,22
1973,7,1
1974,42,39
1975,11,32
1976,1,3
1977,10,5
1978,61,158
1979,127,8
1980,7,25
1981,1,6
1982,2,9
1983,7,10
1984,49,39
1985,57,4
1986,2,2
1987,29,1
1988,2,17
1989,1,7
1990,69,33
1991,24,2
1992,8,55
1993,4,25
1994,20,22
1995,1,52
1996,2,5
1997,6,1
1998,1,1
1999,49,27
2000,2,20
2001,3,1
2002,1,9
2003,15,5
2004,156,1
2005,8,1
2006,35,11
2007,5,5
2008,3,24
2009,1,37
2010,11,4
2011,76,1
2012,11,36
2013,14,1
2014,1,12
2015,1,9
2016,5,21
2017,52,37
2018,10,16
2019,2,14
2020,3,19
2021,6,1
2022,8,7
2023,17,16
2024,2,4
2025,3,1
2026,1,1
2027,100,182
2028,35,20
2029,1,4
2030,4,17
2031,2,7
2032,4,34
2033,4,1
2034,65,37
2035,5,2
2036,8,5
2037,36,11
2038,2,1
2039,1,1
2040,2,1
2041,1,3
2042,38,1
2043,23,6
2044,3,4
2045,1,20
2046,1,34
2047,1,5
2048,22,1
2049,20,1
2050,1,21
2051,20,1
2052,22,2
2053,3,5
2054,1,12
2055,6,2
2056,32,8
2057,120,26
2058,1,1
2059,8,2
2060,11,20
2061,31,5
2062,3,23
2063,4,14
2064,7,1
2065,3,1
2066,42,47
2067,45,1
2068,11,5
2069,11,16
2070,1,10
2071,10,4
2072,61,51
2073,127,49
2074,7,63
2075,1,8
2076,2,18
2077,7,22
2078,49,50
2079,57,25
2080,2,6
2081,29,5
2082,2,29
2083,1,2
2084,1,1
2085,43,7
2086,69,38
2087,24,3
2088,8,7
2089,4,28
2090,20,34
2091,1,29
2092,2,4
2093,6,2
2094,1,8
2095,49,3
2096,64,1
2097,2,2
2098,3,82
2099,1,6
2100,4,1
2101,15,6
2102,156,1
2103,8,1
2104,35,1
2105,5,4
2106,3,20
2107,1,11
2108,11,17
2109,10,1
2110,76,1
2111,11,64
2112,14,2
2113,1,5
2114,9,4
2115,1,13
2116,5,14
2117,47,2
2118,25,5
2119,52,1
2120,10,1
2121,2,5
2122,3,25
2123,6,2
2124,2,1
2125,8,40
2126,16,1
2127,17,9
2128,2,66
2129,3,2
2130,1,4
2131,100,9
2132,35,3
2133,1,38
2134,4,6
2135,2,20
2136,4,21
2137,25,69
2138,9,5
2139,9,40
2140,11,8
2141,1,12
2142,2,12
2143,21,3
2144,7,63
2145,2,5
2146,6,31
2147,65,2
2148,12,44
2149,1,40
2150,1,21
2151,1,13
2152,5,26
2153,13,7
2154,2,10
2155,16,86
2156,8,29
2157,1,32
2158,7,10
2159,28,5
2160,138,28
2161,1,5
2162,2,71
2163,1,9
2164,2,12
2165,30,1
2166,17,1
2167,1,65
2168,94,2
2169,48,12
2170,1,4
2171,1,6
2172,1,10
2173,33,20
2174,50,50
2175,16,16
2176,7,56
2177,13,34
2178,22,16
2179,3,15
2180,11,3
2181,2,1
2182,36,3
2183,18,51
2184,15,23
2185,1,15
2186,11,6
2187,28,34
2188,38,6
2189,3,27
2190,1,21
2191,2,1
2192,13,24
2193,44,33
2194,218,5
2195,11,105
2196,38,6
2197,1,63
2198,1,57
2199,9,14
2200,36,7
2201,60,72
2202,6,25
2203,29,41
2204,2,2
2205,1,19
2206,3,116
2207,3,25
2208,16,102
2209,76,1
2210,5,4
2211,8,15
2212,3,19
2213,18,22
2214,42,11
2215,7,5
2216,7,30
2217,4,22
2218,3,59
2219,2,47
2220,7,2
2221,15,1
2222,48,8
2223,9,11
2224,1,28
2225,1,10
2226,17,12
2227,3,78
2228,55,13
2229,74,55
2230,12,24
2231,2,21
2232,2,7
2233,6,2
2234,4,1
2235,24,42
2236,7,31
2237,2,1
2238,6,25
2239,6,10
2240,19,52
2241,3,40
2242,1,73
2243,5,12
2244,2,1
2245,4,1
2246,14,53
2247,55,29
2248,46,73
2249,2,4
2250,1,97
2251,6,3
2252,22,11
2253,18,80
2254,15,56
2255,71,51
2256,15,53
2257,14,43
2258,4,7
2259,9,106
2260,3,8
2261,2,125
2262,3,2
2263,1,16
2264,12,12
2265,18,5
2266,3,1
2267,11,3
2268,158,14
2269,2,32
2270,3,11
2271,57,1
2272,10,1
2273,9,43
2274,108,1
2275,32,2
2276,16,14
2277,3,63
2278,1,2
2279,12,2
2280,7,7
2281,23,24
2282,6,2
2283,6,1
2284,20,5
2285,13,48
2286,1,13
2287,3,9
2288,10,209
2289,47,57
2290,3,88
2291,6,32
2292,15,89
2293,171,29
2294,15,8
2295,43,6
2296,1,46
2297,10,1
2298,27,7
2299,19,71
2300,11,5
2301,90,62
2302,10,53
2303,11,56
2304,12,81
2305,1,3
2306,5,9
2307,2,30
2308,159,1
2309,3,22
2310,9,83
2311,10,15
2312,1,1
2313,3,11
2314,22,2
2315,41,2
2316,24,12
2317,3,9
2318,1,44
2319,2,48
2320,4,21
2321,9,1
2322,202,2
2323,44,100
2324,15,3
2325,2,4
2326,49,22
2327,3,35
2328,47,2
2329,74,5
2330,23,38
2331,9,17
2332,1,3
2333,8,1
2334,68,47
2335,164,1
2336,12,25
2337,5,70
2338,4,3
2339,6,5
2340,19,191
2341,31,23
2342,2,23
2343,2,55
2344,9,69
2345,71,5
2346,39,40
2347,4,12
2348,7,3
2349,36,63
2350,59,5
2351,15,31
2352,7,2
2353,14,44
2354,14,40
2355,4,21
2356,12,13
2357,2,26
2358,54,7
2359,7,10
2360,32,86
2361,12,29
2362,1,32
2363,5,10
2364,10,5
2365,43,28
2366,2,5
2367,1,71
2368,2,12
2369,49,1
2370,13,1
2371,9,65
2372,34,2
2373,6,12
2374,2,4
2375,5,10
2376,15,20
2377,73,50
2378,4,16
2379,4,56
2380,25,34
2381,4,16
2382,1,15
2383,2,3
2384,1,1
2385,6,3
2386,13,51
2387,9,23
2388,1,15
2389,2,6
2390,43,34
2391,136,6
2392,7,27
2393,20,33
2394,10,5
2395,6,105
2396,34,6
2397,2,63
2398,2,14
2399,34,7
2400,28,72
2401,92,25
2402,2,41
2403,11,2
2404,1,19
2405,4,116
2406,3,25
2407,35,102
2408,147,1
2409,4,15
2410,8,19
2411,136,11
2412,42,5
2413,52,30
2414,4,22
2415,1,59
2416,1,47
2417,8,2
2418,4,1
2419,7,8
2420,20,11
2421,10,10
2422,33,12
2423,5,78
2424,44,13
2425,1,55
2426,7,24
2427,1,7
2428,1,2
2429,6,1
2430,52,42
2431,22,31
2432,5,1
2433,1,25
2434,1,10
2435,100,52
2436,63,40
2437,1,12
2438,2,1
2439,20,53
2440,25,29
2441,2,73
2442,9,4
2443,6,11
2444,25,80
2445,6,56
2446,1,51
2447,11,53
2448,1,43
2449,1,7
2450,4,106
2451,4,7
2452,65,88
2453,8,11
2454,36,1
2455,2,4
2456,38,1
2457,23,8
2458,3,22
2459,1,12
2460,1,52
2461,1,6
2462,1,22
2463,3,36
2464,1,21
2465,6,2
2466,32,6
2467,120,37
2468,1,1
2469,11,17
2470,31,2
2471,3,1
2472,4,22
2473,7,1
2474,42,39
2475,11,32
2476,1,3
2477,10,5
2478,61,158
2479,127,8
2480,7,25
2481,1,6
2482,2,9
2483,7,10
2484,49,39
2485,57,4
2486,2,2
2487,29,1
2488,2,17
2489,1,7
2490,69,33
2491,24,2
2492,8,55
2493,4,25
2494,20,22
2495,1,52
2496,2,5
2497,6,1
2498,1,1
2499,49,27
2500,2,20
2501,3,1
2502,1,9
2503,15,5
2504,156,1
2505,8,1
2506,35,11
2507,5,5
2508,3,24
2509,1,37
2510,11,4
2511,76,1
2512,11,36
2513,14,1
2514,1,12
2515,1,9
2516,5,21
2517,52,37
2518,10,16
2519,2,14
2520,3,19
2521,6,1
2522,8,7
2523,17,16
2524,2,4
2525,3,1
2526,1,1
2527,100,182
2528,35,20
2529,1,4
2530,4,17
2531,2,7
2532,4,34
2533,365,185
2534,378,200
2535,410,165
2536,425,148
2537,425,296
2538,439,116
2539,464,1006
2540,520,205
2541,520,350
2542,540,530
2543,549,1413
2544,549,1882
2545,553,496
2546,555,755
2547,555,496
2548,555,659
2549,567,473
2550,572,592
2551,572,975
2552,572,1175
2553,572,1575
2554,572,1390
2555,572,1490
2556,572,1590
2557,572,1690
2558,572,1890
2559,610,625
2560,660,490
2561,690,447
2562,949,445
2563,949,478
2564,970,463
2565,4,1
2566,65,37
2567,5,2
2568,8,5
2569,36,11
2570,2,1
2571,1,1
2572,2,1
2573,1,3
2574,38,1
2575,23,6
2576,3,4
2577,1,20
2578,1,34
2579,1,5
2580,22,1
2581,20,1
2582,1,21
2583,20,1
2584,22,2
2585,3,5
2586,1,12
2587,6,2
2588,32,8
2589,120,26
2590,1,1
2591,8,2
2592,11,20
2593,31,5
2594,3,23
2595,4,14
2596,7,1
2597,3,1
2598,42,47
2599,45,1
2600,11,5
2601,11,16
2602,1,10
2603,10,4
2604,61,51
2605,127,49
2606,7,63
2607,1,8
2608,2,18
2609,7,22
2610,49,50
2611,57,25
2612,2,6
2613,29,5
2614,2,29
2615,1,2
2616,1,1
2617,43,7
2618,69,38
2619,24,3
2620,8,7
2621,4,28
2622,20,34
2623,1,29
2624,2,4
2625,6,2
2626,1,8
2627,49,3
2628,64,1
2629,2,2
2630,3,82
2631,1,6
2632,4,1
2633,15,6
2634,156,1
2635,8,1
2636,35,1
2637,5,4
2638,3,20
2639,1,11
2640,11,17
2641,10,1
2642,76,1
2643,11,64
2644,14,2
2645,1,5
2646,9,4
2647,1,13
2648,5,14
2649,47,2
2650,25,5
2651,52,1
2652,10,1
2653,2,5
2654,3,25
2655,6,2
2656,2,1
2657,8,40
2658,16,1
2659,17,9
2660,2,66
2661,3,2
2662,1,4
2663,100,9
2664,35,3
2665,1,38
2666,4,6
2667,2,20
2668,4,21
2669,25,69
2670,9,5
2671,9,40
2672,11,8
2673,1,12
2674,2,12
2675,21,3
2676,7,63
2677,2,5
2678,6,31
2679,65,2
2680,12,44
2681,1,40
2682,1,21
2683,1,13
2684,5,26
2685,13,7
2686,2,10
2687,16,86
2688,8,29
2689,1,32
2690,7,10
2691,28,5
2692,138,28
2693,1,5
2694,2,71
2695,1,9
2696,2,12
2697,30,1
2698,17,1
2699,1,65
2700,94,2
2701,48,12
2702,1,4
2703,1,6
2704,1,10
2705,33,20
2706,50,50
2707,16,16
2708,7,56
2709,13,34
2710,22,16
2711,3,15
2712,11,3
2713,2,1
2714,36,3
2715,18,51
2716,15,23
2717,1,15
2718,11,6
2719,28,34
2720,38,6
2721,3,27
2722,1,21
2723,2,1
2724,13,24
2725,44,33
2726,218,5
2727,11,105
2728,38,6
2729,1,63
2730,1,57
2731,9,14
2732,36,7
2733,60,72
2734,6,25
2735,29,41
2736,2,2
2737,1,19
2738,3,116
2739,3,25
2740,16,102
2741,76,1
2742,5,4
2743,8,15
2744,3,19
2745,18,22
2746,42,11
2747,7,5
2748,7,30
2749,4,22
2750,3,59
2751,2,47
2752,7,2
2753,15,1
2754,48,8
2755,9,11
2756,1,28
2757,1,10
2758,17,12
2759,3,78
2760,55,13
2761,74,55
2762,12,24
2763,2,21
2764,2,7
2765,6,2
2766,4,1
2767,24,42
2768,7,31
2769,2,1
2770,6,25
2771,6,10
2772,19,52
2773,3,40
2774,1,73
2775,5,12
2776,2,1
2777,4,1
2778,14,53
2779,55,29
2780,46,73
2781,2,4
2782,1,97
2783,6,3
2784,22,11
2785,18,80
2786,15,56
2787,71,51
2788,15,53
2789,14,43
2790,4,7
2791,9,106
2792,3,8
2793,2,125
2794,3,2
2795,1,16
2796,12,12
2797,18,5
2798,3,1
2799,11,3
2800,158,14
2801,2,32
2802,3,11
2803,57,1
2804,10,1
2805,9,43
2806,108,1
2807,32,2
2808,16,14
2809,3,63
2810,1,2
2811,12,2
2812,7,7
2813,23,24
2814,6,2
2815,6,1
2816,20,5
2817,13,48
2818,1,13
2819,3,9
2820,10,209
2821,47,57
2822,3,88
2823,6,32
2824,15,89
2825,171,29
2826,15,8
2827,43,6
2828,1,46
2829,10,1
2830,27,7
2831,19,71
2832,11,5
2833,90,62
2834,10,53
2835,11,56
2836,12,81
2837,1,3
2838,5,9
2839,2,30
2840,159,1
2841,3,22
2842,9,83
2843,10,15
2844,1,1
2845,3,11
2846,22,2
2847,41,2
2848,24,12
2849,3,9
2850,1,44
2851,2,48
2852,4,21
2853,9,1
2854,202,2
2855,44,100
2856,15,3
2857,2,4
2858,49,22
2859,3,35
2860,47,2
2861,74,5
2862,23,38
2863,9,17
2864,1,3
2865,8,1
2866,68,47
2867,164,1
2868,12,25
2869,5,70
2870,4,3
2871,6,5
2872,19,191
2873,31,23
2874,2,23
2875,2,55
2876,9,69
2877,71,5
2878,39,40
2879,4,12
2880,7,3
2881,36,63
2882,59,5
2883,15,31
2884,7,2
2885,14,44
2886,14,40
2887,4,21
2888,12,13
2889,2,26
2890,54,7
2891,7,10
2892,32,86
2893,12,29
2894,1,32
2895,5,10
2896,10,5
2897,43,28
2898,2,5
2899,1,71
2900,2,12
2901,49,1
2902,13,1
2903,9,65
2904,34,2
2905,6,12
2906,2,4
2907,5,10
2908,15,20
2909,73,50
2910,4,16
2911,4,56
2912,25,34
2913,4,16
2914,1,15
2915,2,3
2916,1,1
2917,6,3
2918,13,51
2919,9,23
2920,1,15
2921,2,6
2922,43,34
2923,136,6
2924,7,27
2925,20,33
2926,10,5
2927,6,105
2928,34,6
2929,2,63
2930,2,14
2931,34,7
2932,28,72
2933,92,25
2934,2,41
2935,11,2
2936,1,19
2937,4,116
2938,3,25
2939,35,102
2940,147,1
2941,4,15
2942,8,19
2943,136,11
2944,42,5
2945,52,30
2946,4,22
2947,1,59
2948,1,47
2949,8,2
2950,4,1
2951,7,8
2952,20,11
2953,10,10
2954,33,12
2955,5,78
2956,44,13
2957,1,55
2958,7,24
2959,1,7
2960,1,2
2961,6,1
2962,52,42
2963,22,31
2964,5,1
2965,1,25
2966,1,10
2967,100,52
2968,63,40
2969,1,12
2970,2,1
2971,20,53
2972,25,29
2973,2,73
2974,9,4
2975,6,11
2976,25,80
2977,6,56
2978,1,51
2979,11,53
2980,1,43
2981,1,7
2982,4,106
2983,4,7
2984,65,88
2985,8,11
2986,36,1
2987,2,4
2988,38,1
2989,23,8
2990,3,22
2991,1,12
2992,1,52
2993,1,6
2994,1,22
2995,3,36
2996,1,21
2997,6,2
2998,32,6
2999,120,37
3000,1,1
3001,11,17
3002,31,2
3003,3,1
3004,4,22
3005,7,1
3006,42,39
3007,11,32
3008,1,3
3009,10,5
3010,61,158
3011,127,8
3012,7,25
3013,1,6
3014,2,9
3015,7,10
3016,49,39
3017,57,4
3018,2,2
3019,29,1
3020,2,17
3021,1,7
3022,69,33
3023,24,2
3024,8,55
3025,4,25
3026,20,22
3027,1,52
3028,2,5
3029,6,1
3030,1,1
3031,49,27
3032,2,20
3033,3,1
3034,1,9
3035,15,5
3036,156,1
3037,8,1
3038,35,11
3039,5,5
3040,3,24
3041,1,37
3042,11,4
3043,76,1
3044,11,36
3045,14,1
3046,1,12
3047,1,9
3048,5,21
3049,52,37
3050,10,16
3051,2,14
3052,3,19
3053,6,1
3054,8,7
3055,17,16
3056,2,4
3057,3,1
3058,1,1
3059,100,182
3060,35,20
3061,1,4
3062,4,17
3063,2,7
3064,4,34
3065,4,1
3066,65,37
3067,5,2
3068,8,5
3069,36,11
3070,2,1
3071,1,1
3072,2,1
3073,1,3
3074,38,1
3075,23,6
3076,3,4
3077,1,20
3078,1,34
3079,1,5
3080,22,1
3081,20,1
3082,1,21
3083,20,1
3084,22,2
3085,3,5
3086,1,12
3087,6,2
3088,32,8
3089,120,26
3090,1,1
3091,8,2
3092,11,20
3093,31,5
3094,3,23
3095,4,14
3096,7,1
3097,3,1
3098,42,47
3099,45,1
3100,11,5
3101,11,16
3102,1,10
3103,10,4
3104,61,51
3105,127,49
3106,7,63
3107,1,8
3108,2,18
3109,7,22
3110,49,50
3111,57,25
3112,2,6
3113,29,5
3114,2,29
3115,1,2
3116,1,1
3117,43,7
3118,69,38
3119,24,3
3120,8,7
3121,4,28
3122,20,34
3123,1,29
3124,2,4
3125,6,2
3126,1,8
3127,49,3
3128,64,1
3129,2,2
3130,3,82
3131,1,6
3132,4,1
3133,15,6
3134,156,1
3135,8,1
3136,35,1
3137,5,4
3138,3,20
3139,1,11
3140,11,17
3141,10,1
3142,76,1
3143,11,64
3144,14,2
3145,1,5
3146,9,4
3147,1,13
3148,5,14
3149,47,2
3150,25,5
3151,52,1
3152,10,1
3153,2,5
3154,3,25
3155,6,2
3156,2,1
3157,8,40
3158,16,1
3159,17,9
3160,2,66
3161,3,2
3162,1,4
3163,100,9
3164,35,3
3165,1,38
3166,4,6
3167,2,20
3168,4,21
3169,25,69
3170,9,5
3171,9,40
3172,11,8
3173,1,12
3174,2,12
3175,21,3
3176,7,63
3177,2,5
3178,6,31
3179,65,2
3180,12,44
3181,1,40
3182,1,21
3183,1,13
3184,5,26
3185,13,7
3186,2,10
3187,16,86
3188,8,29
3189,1,32
3190,7,10
3191,28,5
3192,138,28
3193,1,5
3194,2,71
3195,1,9
3196,2,12
3197,30,1
3198,17,1
3199,1,65
3200,94,2
3201,48,12
3202,1,4
3203,1,6
3204,1,10
3205,33,20
3206,50,50
3207,16,16
3208,7,56
3209,13,34
3210,22,16
3211,3,15
3212,11,3
3213,2,1
3214,36,3
3215,18,51
3216,15,23
3217,1,15
3218,11,6
3219,28,34
3220,38,6
3221,3,27
3222,1,21
3223,2,1
3224,13,24
3225,44,33
3226,218,5
3227,11,105
3228,38,6
3229,1,63
3230,1,57
3231,9,14
3232,36,7
3233,60,72
3234,6,25
3235,29,41
3236,2,2
3237,1,19
3238,3,116
3239,3,25
3240,16,102
3241,76,1
3242,5,4
3243,8,15
3244,3,19
3245,18,22
3246,42,11
3247,7,5
3248,7,30
3249,4,22
3250,3,59
3251,2,47
3252,7,2
3253,15,1
3254,48,8
3255,9,11
3256,1,28
3257,1,10
3258,17,12
3259,3,78
3260,55,13
3261,74,55
3262,12,24
3263,2,21
3264,2,7
3265,6,2
3266,4,1
3267,24,42
3268,7,31
3269,2,1
3270,6,25
3271,6,10
3272,19,52
3273,3,40
3274,1,73
3275,5,12
3276,2,1
3277,4,1
3278,14,53
3279,55,29
3280,46,73
3281,2,4
3282,1,97
3283,6,3
3284,22,11
3285,18,80
3286,15,56
3287,71,51
3288,15,53
3289,14,43
3290,4,7
3291,9,106
3292,3,8
3293,2,125
3294,3,2
3295,1,16
3296,12,12
3297,18,5
3298,3,1
3299,11,3
3300,158,14
3301,2,32
3302,3,11
3303,57,1
3304,10,1
3305,9,43
3306,108,1
3307,32,2
3308,16,14
3309,3,63
3310,1,2
3311,12,2
3312,7,7
3313,23,24
3314,6,2
3315,6,1
3316,20,5
3317,13,48
3318,1,13
3319,3,9
3320,10,209
3321,47,57
3322,3,88
3323,6,32
3324,15,89
3325,171,29
3326,15,8
3327,43,6
3328,1,46
3329,10,1
3330,27,7
3331,19,71
3332,11,5
3333,90,62
3334,10,53
3335,11,56
3336,12,81
3337,1,3
3338,5,9
3339,2,30
3340,159,1
3341,3,22
3342,9,83
3343,10,15
3344,1,1
3345,3,11
3346,22,2
3347,41,2
3348,24,12
3349,3,9
3350,1,44
3351,2,48
3352,4,21
3353,9,1
3354,202,2
3355,44,100
3356,15,3
3357,2,4
3358,49,22
3359,3,35
3360,47,2
3361,74,5
3362,23,38
3363,9,17
3364,1,3
3365,8,1
3366,68,47
3367,164,1
3368,12,25
3369,5,70
3370,4,3
3371,6,5
3372,19,191
3373,31,23
3374,2,23
3375,2,55
3376,9,69
3377,71,5
3378,39,40
3379,4,12
3380,7,3
3381,36,63
3382,59,5
3383,15,31
3384,7,2
3385,14,44
3386,14,40
3387,4,21
3388,12,13
3389,2,26
3390,54,7
3391,7,10
3392,32,86
3393,12,29
3394,1,32
3395,5,10
3396,10,5
3397,43,28
3398,2,5
3399,1,71
3400,2,12
3401,49,1
3402,13,1
3403,9,65
3404,34,2
3405,6,12
3406,2,4
3407,5,10
3408,15,20
3409,73,50
3410,4,16
3411,4,56
3412,25,34
3413,4,16
3414,1,15
3415,2,3
3416,1,1
3417,6,3
3418,13,51
3419,9,23
3420,1,15
3421,2,6
3422,43,34
3423,136,6
3424,7,27
3425,20,33
3426,10,5
3427,6,105
3428,34,6
3429,2,63
3430,2,14
3431,34,7
3432,28,72
3433,92,25
3434,2,41
3435,11,2
3436,1,19
3437,4,116
3438,3,25
3439,35,102
3440,147,1
3441,4,15
3442,8,19
3443,136,11
3444,42,5
3445,52,30
3446,4,22
3447,1,59
3448,1,47
3449,8,2
3450,4,1
3451,7,8
3452,20,11
3453,10,10
3454,33,12
3455,5,78
3456,44,13
3457,1,55
3458,7,24
3459,1,7
3460,1,2
3461,6,1
3462,52,42
3463,22,31
3464,5,1
3465,1,25
3466,1,10
3467,100,52
3468,63,40
3469,1,12
3470,2,1
3471,20,53
3472,25,29
3473,2,73
3474,9,4
3475,6,11
3476,25,80
3477,6,56
3478,1,51
3479,11,53
3480,1,43
3481,1,7
3482,4,106
3483,4,7
3484,65,88
3485,8,11
3486,36,1
3487,2,4
3488,38,1
3489,23,8
3490,3,22
3491,1,12
3492,1,52
3493,1,6
3494,1,22
3495,3,36
3496,1,21
3497,6,2
3498,32,6
3499,120,37
3500,1,1
3501,11,17
3502,31,2
3503,3,1
3504,4,22
3505,7,1
3506,42,39
3507,11,32
3508,1,3
3509,10,5
3510,61,158
3511,127,8
3512,7,25
3513,1,6
3514,2,9
3515,7,10
3516,49,39
3517,57,4
3518,2,2
3519,29,1
3520,2,17
3521,1,7
3522,69,33
3523,24,2
3524,8,55
3525,4,25
3526,20,22
3527,1,52
3528,2,5
3529,6,1
3530,1,1
3531,49,27
3532,2,20
3533,3,1
3534,1,9
3535,15,5
3536,156,1
3537,8,1
3538,35,11
3539,5,5
3540,3,24
3541,1,37
3542,11,4
3543,76,1
3544,11,36
3545,14,1
3546,1,12
3547,1,9
3548,5,21
3549,52,37
3550,10,16
3551,2,14
3552,3,19
3553,6,1
3554,8,7
3555,17,16
3556,2,4
3557,3,1
3558,1,1
3559,100,182
3560,35,20
3561,1,4
3562,4,17
3563,2,7
3564,4,34
3565,4,1
3566,65,37
3567,5,2
3568,8,5
3569,36,11
3570,2,1
3571,1,1
3572,2,1
3573,1,3
3574,38,1
3575,23,6
3576,3,4
3577,1,20
3578,1,34
3579,1,5
3580,22,1
3581,20,1
3582,1,21
3583,20,1
3584,22,2
3585,3,5
3586,1,12
3587,6,2
3588,32,8
3589,120,26
3590,1,1
3591,8,2
3592,11,20
3593,31,5
3594,3,23
3595,4,14
3596,7,1
3597,3,1
3598,42,47
3599,45,1
3600,11,5
3601,11,16
3602,1,10
3603,10,4
3604,61,51
3605,127,49
3606,7,63
3607,1,8
3608,2,18
3609,7,22
3610,49,50
3611,57,25
3612,2,6
3613,29,5
3614,2,29
3615,1,2
3616,1,1
3617,43,7
3618,69,38
3619,24,3
3620,8,7
3621,4,28
3622,20,34
3623,1,29
3624,2,4
3625,6,2
3626,1,8
3627,49,3
3628,64,1
3629,2,2
3630,3,82
3631,1,6
3632,4,1
3633,15,6
3634,156,1
3635,8,1
3636,35,1
3637,5,4
3638,3,20
3639,1,11
3640,11,17
3641,10,1
3642,76,1
3643,11,64
3644,14,2
3645,1,5
3646,9,4
3647,1,13
3648,5,14
3649,47,2
3650,25,5
3651,52,1
3652,10,1
3653,2,5
3654,3,25
3655,6,2
3656,2,1
3657,8,40
3658,16,1
3659,17,9
3660,2,66
3661,3,2
3662,1,4
3663,100,9
3664,35,3
3665,1,38
3666,4,6
3667,2,20
3668,4,21
3669,25,69
3670,9,5
3671,9,40
3672,11,8
3673,1,12
3674,2,12
3675,21,3
3676,7,63
3677,2,5
3678,6,31
3679,65,2
3680,12,44
3681,1,40
3682,1,21
3683,1,13
3684,5,26
3685,13,7
3686,2,10
3687,16,86
3688,8,29
3689,1,32
3690,7,10
3691,28,5
3692,138,28
3693,1,5
3694,2,71
3695,1,9
3696,2,12
3697,30,1
3698,17,1
3699,1,65
3700,94,2
3701,48,12
3702,1,4
3703,1,6
3704,1,10
3705,33,20
3706,50,50
3707,16,16
3708,7,56
3709,13,34
3710,22,16
3711,3,15
3712,11,3
3713,2,1
3714,36,3
3715,18,51
3716,15,23
3717,1,15
3718,11,6
3719,28,34
3720,38,6
3721,3,27
3722,1,21
3723,2,1
3724,13,24
3725,44,33
3726,218,5
3727,11,105
3728,38,6
3729,1,63
3730,1,57
3731,9,14
3732,36,7
3733,60,72
3734,6,25
3735,29,41
3736,2,2
3737,1,19
3738,3,116
3739,3,25
3740,16,102
3741,76,1
3742,5,4
3743,8,15
3744,3,19
3745,18,22
3746,42,11
3747,7,5
3748,7,30
3749,4,22
3750,3,59
3751,2,47
3752,7,2
3753,15,1
3754,48,8
3755,9,11
3756,1,28
3757,1,10
3758,17,12
3759,3,78
3760,55,13
3761,74,55
3762,12,24
3763,2,21
3764,2,7
3765,6,2
3766,4,1
3767,24,42
3768,7,31
3769,2,1
3770,6,25
3771,6,10
3772,19,52
3773,3,40
3774,1,73
3775,5,12
3776,2,1
3777,4,1
3778,14,53
3779,55,29
3780,46,73
3781,2,4
3782,1,97
3783,6,3
3784,22,11
3785,18,80
3786,15,56
3787,71,51
3788,15,53
3789,14,43
3790,4,7
3791,9,106
3792,3,8
3793,2,125
3794,3,2
3795,1,16
3796,12,12
3797,18,5
3798,3,1
3799,11,3
3800,158,14
3801,2,32
3802,3,11
3803,57,1
3804,10,1
3805,9,43
3806,108,1
3807,32,2
3808,16,14
3809,3,63
3810,1,2
3811,12,2
3812,7,7
3813,23,24
3814,6,2
3815,6,1
3816,20,5
3817,13,48
3818,1,13
3819,3,9
3820,10,209
3821,47,57
3822,3,88
3823,6,32
3824,15,89
3825,171,29
3826,15,8
3827,43,6
3828,1,46
3829,10,1
3830,27,7
3831,19,71
3832,11,5
3833,90,62
3834,10,53
3835,11,56
3836,12,81
3837,1,3
3838,5,9
3839,2,30
3840,159,1
3841,3,22
3842,9,83
3843,10,15
3844,1,1
3845,3,11
3846,22,2
3847,41,2
3848,24,12
3849,3,9
3850,1,44
3851,2,48
3852,4,21
3853,9,1
3854,202,2
3855,44,100
3856,15,3
3857,2,4
3858,49,22
3859,3,35
3860,47,2
3861,74,5
3862,23,38
3863,9,17
3864,1,3
3865,8,1
3866,68,47
3867,164,1
3868,12,25
3869,5,70
3870,4,3
3871,6,5
3872,19,191
3873,31,23
3874,2,23
3875,2,55
3876,9,69
3877,71,5
3878,39,40
3879,4,12
3880,7,3
3881,36,63
3882,59,5
3883,15,31
3884,7,2
3885,14,44
3886,14,40
3887,4,21
3888,12,13
3889,2,26
3890,54,7
3891,7,10
3892,32,86
3893,12,29
3894,1,32
3895,5,10
3896,10,5
3897,43,28
3898,2,5
3899,1,71
3900,2,12
3901,49,1
3902,13,1
3903,9,65
3904,34,2
3905,6,12
3906,2,4
3907,5,10
3908,15,20
3909,73,50
3910,4,16
3911,4,56
3912,25,34
3913,4,16
3914,1,15
3915,2,3
3916,1,1
3917,6,3
3918,13,51
3919,9,23
3920,1,15
3921,2,6
3922,43,34
3923,136,6
3924,7,27
3925,20,33
3926,10,5
3927,6,105
3928,34,6
3929,2,63
3930,2,14
3931,34,7
3932,28,72
3933,92,25
3934,2,41
3935,11,2
3936,1,19
3937,4,116
3938,3,25
3939,35,102
3940,147,1
3941,4,15
3942,8,19
3943,136,11
3944,42,5
3945,52,30
3946,4,22
3947,1,59
3948,1,47
3949,8,2
3950,4,1
3951,7,8
3952,20,11
3953,10,10
3954,33,12
3955,5,78
3956,44,13
3957,1,55
3958,7,24
3959,1,7
3960,1,2
3961,6,1
3962,52,42
3963,22,31
3964,5,1
3965,1,25
3966,1,10
3967,100,52
3968,63,40
3969,1,12
3970,2,1
3971,20,53
3972,25,29
3973,2,73
3974,9,4
3975,6,11
3976,25,80
3977,6,56
3978,1,51
3979,11,53
3980,1,43
3981,1,7
3982,4,106
3983,4,7
3984,65,88
3985,8,11
3986,36,1
3987,2,4
3988,38,1
3989,23,8
3990,3,22
3991,1,12
3992,1,52
3993,1,6
3994,1,22
3995,3,36
3996,1,21
3997,6,2
3998,32,6
3999,120,37
4000,1,1
4001,11,17
4002,31,2
4003,3,1
4004,4,22
4005,7,1
4006,42,39
4007,11,32
4008,1,3
4009,10,5
4010,61,158
4011,127,8
4012,7,25
4013,1,6
4014,2,9
4015,7,10
4016,49,39
4017,57,4
4018,2,2
4019,29,1
4020,2,17
4021,1,7
4022,69,33
4023,24,2
4024,8,55
4025,4,25
4026,20,22
4027,1,52
4028,2,5
4029,6,1
4030,1,1
4031,49,27
4032,2,20
4033,3,1
4034,1,9
4035,15,5
4036,156,1
4037,8,1
4038,35,11
4039,5,5
4040,3,24
4041,1,37
4042,11,4
4043,76,1
4044,11,36
4045,14,1
4046,1,12
4047,1,9
4048,5,21
4049,52,37
4050,10,16
4051,2,14
4052,3,19
4053,6,1
4054,8,7
4055,17,16
4056,2,4
4057,3,1
4058,1,1
4059,100,182
4060,35,20
4061,1,4
4062,4,17
4063,2,7
4064,4,34
4065,4,1
4066,65,37
4067,5,2
4068,8,5
4069,36,11
4070,2,1
4071,1,1
4072,2,1
4073,1,3
4074,38,1
4075,23,6
4076,3,4
4077,1,20
4078,1,34
4079,1,5
4080,22,1
4081,20,1
4082,1,21
4083,20,1
4084,22,2
4085,3,5
4086,1,12
4087,6,2
4088,32,8
4089,120,26
4090,1,1
4091,8,2
4092,11,20
4093,31,5
4094,3,23
4095,4,14
4096,7,1
4097,3,1
4098,42,47
4099,45,1
4100,11,5
4101,11,16
4102,1,10
4103,10,4
4104,61,51
4105,127,49
4106,7,63
4107,1,8
4108,2,18
4109,7,22
4110,49,50
4111,57,25
4112,2,6
4113,29,5
4114,2,29
4115,1,2
4116,1,1
4117,43,7
4118,69,38
4119,24,3
4120,8,7
4121,4,28
4122,20,34
4123,1,29
4124,2,4
4125,6,2
4126,1,8
4127,49,3
4128,64,1
4129,2,2
4130,3,82
4131,1,6
4132,4,1
4133,15,6
4134,156,1
4135,8,1
4136,35,1
4137,5,4
4138,3,20
4139,1,11
4140,11,17
4141,10,1
4142,76,1
4143,11,64
4144,14,2
4145,1,5
4146,9,4
4147,1,13
4148,5,14
4149,47,2
4150,25,5
4151,52,1
4152,10,1
4153,2,5
4154,3,25
4155,6,2
4156,2,1
4157,8,40
4158,16,1
4159,17,9
4160,2,66
4161,3,2
4162,1,4
4163,100,9
4164,35,3
4165,1,38
4166,4,6
4167,2,20
4168,4,21
4169,25,69
4170,9,5
4171,9,40
4172,11,8
4173,1,12
4174,2,12
4175,21,3
4176,7,63
4177,2,5
4178,6,31
4179,65,2
4180,12,44
4181,1,40
4182,1,21
4183,1,13
4184,5,26
4185,13,7
4186,2,10
4187,16,86
4188,8,29
4189,1,32
4190,7,10
4191,28,5
4192,138,28
4193,1,5
4194,2,71
4195,1,9
4196,2,12
4197,30,1
4198,17,1
4199,1,65
4200,94,2
4201,48,12
4202,1,4
4203,1,6
4204,1,10
4205,33,20
4206,50,50
4207,16,16
4208,7,56
4209,13,34
4210,22,16
4211,3,15
4212,11,3
4213,2,1
4214,36,3
4215,18,51
4216,15,23
4217,1,15
4218,11,6
4219,28,34
4220,38,6
4221,3,27
4222,1,21
4223,2,1
4224,13,24
4225,44,33
4226,218,5
4227,11,105
4228,38,6
4229,1,63
4230,1,57
4231,9,14
4232,36,7
4233,60,72
4234,6,25
4235,29,41
4236,2,2
4237,1,19
4238,3,116
4239,3,25
4240,16,102
4241,76,1
4242,5,4
4243,8,15
4244,3,19
4245,18,22
4246,42,11
4247,7,5
4248,7,30
4249,4,22
4250,3,59
4251,2,47
4252,7,2
4253,15,1
4254,48,8
4255,9,11
4256,1,28
4257,1,10
4258,17,12
4259,3,78
4260,55,13
4261,74,55
4262,12,24
4263,2,21
4264,2,7
4265,6,2
4266,4,1
4267,24,42
4268,7,31
4269,2,1
4270,6,25
4271,6,10
4272,19,52
4273,3,40
4274,1,73
4275,5,12
4276,2,1
4277,4,1
4278,14,53
4279,55,29
4280,46,73
4281,2,4
4282,1,97
4283,6,3
4284,22,11
4285,18,80
4286,15,56
4287,71,51
4288,15,53
4289,14,43
4290,4,7
4291,9,106
4292,3,8
4293,2,125
4294,3,2
4295,1,16
4296,12,12
4297,18,5
4298,3,1
4299,11,3
4300,158,14
4301,2,32
4302,3,11
4303,57,1
4304,10,1
4305,9,43
4306,108,1
4307,32,2
4308,16,14
4309,3,63
4310,1,2
4311,12,2
4312,7,7
4313,23,24
4314,6,2
4315,6,1
4316,20,5
4317,13,48
4318,1,13
4319,3,9
4320,10,209
4321,47,57
4322,3,88
4323,6,32
4324,15,89
4325,171,29
4326,15,8
4327,43,6
4328,1,46
4329,10,1
4330,27,7
4331,19,71
4332,11,5
4333,90,62
4334,10,53
4335,11,56
4336,12,81
4337,1,3
4338,5,9
4339,2,30
4340,159,1
4341,3,22
4342,9,83
4343,10,15
4344,1,1
4345,3,11
4346,22,2
4347,41,2
4348,24,12
4349,3,9
4350,1,44
4351,2,48
4352,4,21
4353,9,1
4354,202,2
4355,44,100
4356,15,3
4357,2,4
4358,49,22
4359,3,35
4360,47,2
4361,74,5
4362,23,38
4363,9,17
4364,1,3
4365,8,1
4366,68,47
4367,164,1
4368,12,25
4369,5,70
4370,4,3
4371,6,5
4372,19,191
4373,31,23
4374,2,23
4375,2,55
4376,9,69
4377,71,5
4378,39,40
4379,4,12
4380,7,3
4381,36,63
4382,59,5
4383,15,31
4384,7,2
4385,14,44
4386,14,40
4387,4,21
4388,12,13
4389,2,26
4390,54,7
4391,7,10
4392,32,86
4393,12,29
4394,1,32
4395,5,10
4396,10,5
4397,43,28
4398,2,5
4399,1,71
4400,2,12
4401,49,1
4402,13,1
4403,9,65
4404,34,2
4405,6,12
4406,2,4
4407,5,10
4408,15,20
4409,73,50
4410,4,16
4411,4,56
4412,25,34
4413,4,16
4414,1,15
4415,2,3
4416,1,1
4417,6,3
4418,13,51
4419,9,23
4420,1,15
4421,2,6
4422,43,34
4423,136,6
4424,7,27
4425,20,33
4426,10,5
4427,6,105
4428,34,6
4429,2,63
4430,2,14
4431,34,7
4432,28,72
4433,92,25
4434,2,41
4435,11,2
4436,1,19
4437,4,116
4438,3,25
4439,35,102
4440,147,1
4441,4,15
4442,8,19
4443,136,11
4444,42,5
4445,52,30
4446,4,22
4447,1,59
4448,1,47
4449,8,2
4450,4,1
4451,7,8
4452,20,11
4453,10,10
4454,33,12
4455,5,78
4456,44,13
4457,1,55
4458,7,24
4459,1,7
4460,1,2
4461,6,1
4462,52,42
4463,22,31
4464,5,1
4465,1,25
4466,1,10
4467,100,52
4468,63,40
4469,1,12
4470,2,1
4471,20,53
4472,25,29
4473,2,73
4474,9,4
4475,6,11
4476,25,80
4477,6,56
4478,1,51
4479,11,53
4480,1,43
4481,1,7
4482,4,106
4483,4,7
4484,65,88
4485,8,11
4486,36,1
4487,2,4
4488,38,1
4489,23,8
4490,3,22
4491,1,12
4492,1,52
4493,1,6
4494,1,22
4495,3,36
4496,1,21
4497,6,2
4498,32,6
4499,120,37
4500,1,1
4501,11,17
4502,31,2
4503,3,1
4504,4,22
4505,7,1
4506,42,39
4507,11,32
4508,1,3
4509,10,5
4510,61,158
4511,127,8
4512,7,25
4513,1,6
4514,2,9
4515,7,10
4516,49,39
4517,57,4
4518,2,2
4519,29,1
4520,2,17
4521,1,7
4522,69,33
4523,24,2
4524,8,55
4525,4,25
4526,20,22
4527,1,52
4528,2,5
4529,6,1
4530,1,1
4531,49,27
4532,2,20
4533,3,1
4534,1,9
4535,15,5
4536,156,1
4537,8,1
4538,35,11
4539,5,5
4540,3,24
4541,1,37
4542,11,4
4543,76,1
4544,11,36
4545,14,1
4546,1,12
4547,1,9
4548,5,21
4549,52,37
4550,10,16
4551,2,14
4552,3,19
4553,6,1
4554,8,7
4555,17,16
4556,2,4
4557,3,1
4558,1,1
4559,100,182
4560,35,20
4561,1,4
4562,4,17
4563,2,7
4564,4,34
4565,4,1
4566,65,37
4567,5,2
4568,8,5
4569,36,11
4570,2,1
4571,1,1
4572,2,1
4573,1,3
4574,38,1
4575,23,6
4576,3,4
4577,1,20
4578,1,34
4579,1,5
4580,22,1
4581,20,1
4582,1,21
4583,20,1
4584,22,2
4585,3,5
4586,1,12
4587,6,2
4588,32,8
4589,120,26
4590,1,1
4591,8,2
4592,11,20
4593,31,5
4594,3,23
4595,4,14
4596,7,1
4597,3,1
4598,42,47
4599,45,1
4600,11,5
4601,11,16
4602,1,10
4603,10,4
4604,61,51
4605,127,49
4606,7,63
4607,1,8
4608,2,18
4609,7,22
4610,49,50
4611,57,25
4612,2,6
4613,29,5
4614,2,29
4615,1,2
4616,1,1
4617,43,7
4618,69,38
4619,24,3
4620,8,7
4621,4,28
4622,20,34
4623,1,29
4624,2,4
4625,6,2
4626,1,8
4627,49,3
4628,64,1
4629,2,2
4630,3,82
4631,1,6
4632,4,1
4633,15,6
4634,156,1
4635,8,1
4636,35,1
4637,5,4
4638,3,20
4639,1,11
4640,11,17
4641,10,1
4642,76,1
4643,11,64
4644,14,2
4645,1,5
4646,9,4
4647,1,13
4648,5,14
4649,47,2
4650,25,5
4651,52,1
4652,10,1
4653,2,5
4654,3,25
4655,6,2
4656,2,1
4657,8,40
4658,16,1
4659,17,9
4660,2,66
4661,3,2
4662,1,4
4663,100,9
4664,35,3
4665,1,38
4666,4,6
4667,2,20
4668,4,21
4669,25,69
4670,9,5
4671,9,40
4672,11,8
4673,1,12
4674,2,12
4675,21,3
4676,7,63
4677,2,5
4678,6,31
4679,65,2
4680,12,44
4681,1,40
4682,1,21
4683,1,13
4684,5,26
4685,13,7
4686,2,10
4687,16,86
4688,8,29
4689,1,32
4690,7,10
4691,28,5
4692,138,28
4693,1,5
4694,2,71
4695,1,9
4696,2,12
4697,30,1
4698,17,1
4699,1,65
4700,94,2
4701,48,12
4702,1,4
4703,1,6
4704,1,10
4705,33,20
4706,50,50
4707,16,16
4708,7,56
4709,13,34
4710,22,16
4711,3,15
4712,11,3
4713,2,1
4714,36,3
4715,18,51
4716,15,23
4717,1,15
4718,11,6
4719,28,34
4720,38,6
4721,3,27
4722,1,21
4723,2,1
4724,13,24
4725,44,33
4726,218,5
4727,11,105
4728,38,6
4729,1,63
4730,1,57
4731,9,14
4732,36,7
4733,60,72
4734,6,25
4735,29,41
4736,2,2
4737,1,19
4738,3,116
4739,3,25
4740,16,102
4741,76,1
4742,5,4
4743,8,15
4744,3,19
4745,18,22
4746,42,11
4747,7,5
4748,7,30
4749,4,22
4750,3,59
4751,2,47
4752,7,2
4753,15,1
4754,48,8
4755,9,11
4756,1,28
4757,1,10
4758,17,12
4759,3,78
4760,55,13
4761,74,55
4762,12,24
4763,2,21
4764,2,7
4765,6,2
4766,4,1
4767,24,42
4768,7,31
4769,2,1
4770,6,25
4771,6,10
4772,19,52
4773,3,40
4774,1,73
4775,5,12
4776,2,1
4777,4,1
4778,14,53
4779,55,29
4780,46,73
4781,2,4
4782,1,97
4783,6,3
4784,22,11
4785,18,80
4786,15,56
4787,71,51
4788,15,53
4789,14,43
4790,4,7
4791,9,106
4792,3,8
4793,2,125
4794,3,2
4795,1,16
4796,12,12
4797,18,5
4798,3,1
4799,11,3
4800,158,14
4801,2,32
4802,3,11
4803,57,1
4804,10,1
4805,9,43
4806,108,1
4807,32,2
4808,16,14
4809,3,63
4810,1,2
4811,12,2
4812,7,7
4813,23,24
4814,6,2
4815,6,1
4816,20,5
4817,13,48
4818,1,13
4819,3,9
4820,10,209
4821,47,57
4822,3,88
4823,6,32
4824,15,89
4825,171,29
4826,15,8
4827,43,6
4828,1,46
4829,10,1
4830,27,7
4831,19,71
4832,11,5
4833,90,62
4834,10,53
4835,11,56
4836,12,81
4837,1,3
4838,5,9
4839,2,30
4840,159,1
4841,3,22
4842,9,83
4843,10,15
4844,1,1
4845,3,11
4846,22,2
4847,41,2
4848,24,12
4849,3,9
4850,1,44
4851,2,48
4852,4,21
4853,9,1
4854,202,2
4855,44,100
4856,15,3
4857,2,4
4858,49,22
4859,3,35
4860,47,2
4861,74,5
4862,23,38
4863,9,17
4864,1,3
4865,8,1
4866,68,47
4867,164,1
4868,12,25
4869,5,70
4870,4,3
4871,6,5
4872,19,191
4873,31,23
4874,2,23
4875,2,55
4876,9,69
4877,71,5
4878,39,40
4879,4,12
4880,7,3
4881,36,63
4882,59,5
4883,15,31
4884,7,2
4885,14,44
4886,14,40
4887,4,21
4888,12,13
4889,2,26
4890,54,7
4891,7,10
4892,32,86
4893,12,29
4894,1,32
4895,5,10
4896,10,5
4897,43,28
4898,2,5
4899,1,71
4900,2,12
4901,49,1
4902,13,1
4903,9,65
4904,34,2
4905,6,12
4906,2,4
4907,5,10
4908,15,20
4909,73,50
4910,4,16
4911,4,56
4912,25,34
4913,4,16
4914,1,15
4915,2,3
4916,1,1
4917,6,3
4918,13,51
4919,9,23
4920,1,15
4921,2,6
4922,43,34
4923,136,6
4924,7,27
4925,20,33
4926,10,5
4927,6,105
4928,34,6
4929,2,63
4930,2,14
4931,34,7
4932,28,72
4933,92,25
4934,2,41
4935,11,2
4936,1,19
4937,4,116
4938,3,25
4939,35,102
4940,147,1
4941,4,15
4942,8,19
4943,136,11
4944,42,5
4945,52,30
4946,4,22
4947,1,59
4948,1,47
4949,8,2
4950,4,1
4951,7,8
4952,20,11
4953,10,10
4954,33,12
4955,5,78
4956,44,13
4957,1,55
4958,7,24
4959,1,7
4960,1,2
4961,6,1
4962,52,42
4963,22,31
4964,5,1
4965,1,25
4966,1,10
4967,100,52
4968,63,40
4969,1,12
4970,2,1
4971,20,53
4972,25,29
4973,2,73
4974,9,4
4975,6,11
4976,25,80
4977,6,56
4978,1,51
4979,11,53
4980,1,43
4981,1,7
4982,4,106
4983,4,7
4984,65,88
4985,8,11
4986,36,1
4987,2,4
4988,38,1
4989,23,8
4990,3,22
4991,1,12
4992,1,52
4993,1,6
4994,1,22
4995,3,36
4996,1,21
4997,6,2
4998,32,6
4999,120,37
5000,1,1
5001,11,17
5002,31,2
5003,3,1
5004,4,22
5005,7,1
5006,42,39
5007,11,32
5008,1,3
5009,10,5
5010,61,158
5011,127,8
5012,7,25
5013,1,6
5014,2,9
5015,7,10
5016,49,39
5017,57,4
5018,2,2
5019,29,1
5020,2,17
5021,1,7
5022,69,33
5023,24,2
5024,8,55
5025,4,25
5026,20,22
5027,1,52
5028,2,5
5029,6,1
5030,1,1
5031,49,27
5032,2,20
5033,3,1
5034,1,9
5035,15,5
5036,156,1
5037,8,1
5038,35,11
5039,5,5
5040,3,24
5041,1,37
5042,11,4
5043,76,1
5044,11,36
5045,14,1
5046,1,12
5047,1,9
5048,5,21
5049,52,37
5050,10,16
5051,2,14
5052,3,19
5053,6,1
5054,8,7
5055,17,16
5056,2,4
5057,3,1
5058,1,1
5059,100,182
5060,35,20
5061,1,4
5062,4,17
5063,2,7
5064,4,34
