6000,,
1,365,185
2,378,200
3,410,165
4,425,148
5,425,296
6,439,116
7,464,1006
8,520,205
9,520,350
10,540,530
11,549,1413
12,549,1882
13,553,496
14,555,755
15,555,496
16,555,659
17,567,473
18,572,592
19,572,975
20,572,1175
21,572,1575
22,572,1390
23,572,1490
24,572,1590
25,572,1690
26,572,1890
27,610,625
28,660,490
29,690,447
30,949,445
31,949,478
32,970,463
33,4,1
34,65,37
35,5,2
36,8,5
37,36,11
38,2,1
39,1,1
40,2,1
41,1,3
42,38,1
43,23,6
44,3,4
45,1,20
46,1,34
47,1,5
48,22,1
49,20,1
50,1,21
51,20,1
52,22,2
53,3,5
54,1,12
55,6,2
56,32,8
57,120,26
58,1,1
59,8,2
60,11,20
61,31,5
62,3,23
63,4,14
64,7,1
65,3,1
66,42,47
67,45,1
68,11,5
69,11,16
70,1,10
71,10,4
72,61,51
73,127,49
74,7,63
75,1,8
76,2,18
77,7,22
78,49,50
79,57,25
80,2,6
81,29,5
82,2,29
83,1,2
84,1,1
85,43,7
86,69,38
87,24,3
88,8,7
89,4,28
90,20,34
91,1,29
92,2,4
93,6,2
94,1,8
95,49,3
96,64,1
97,2,2
98,3,82
99,1,6
100,4,1
101,15,6
102,156,1
103,8,1
104,35,1
105,5,4
106,3,20
107,1,11
108,11,17
109,10,1
110,76,1
111,11,64
112,14,2
113,1,5
114,9,4
115,1,13
116,5,14
117,47,2
118,25,5
119,52,1
120,10,1
121,2,5
122,3,25
123,6,2
124,2,1
125,8,40
126,16,1
127,17,9
128,2,66
129,3,2
130,1,4
131,100,9
132,35,3
133,1,38
134,4,6
135,2,20
136,4,21
137,25,69
138,9,5
139,9,40
140,11,8
141,1,12
142,2,12
143,21,3
144,7,63
145,2,5
146,6,31
147,65,2
148,12,44
149,1,40
150,1,21
151,1,13
152,5,26
153,13,7
154,2,10
155,16,86
156,8,29
157,1,32
158,7,10
159,28,5
160,138,28
161,1,5
162,2,71
163,1,9
164,2,12
165,30,1
166,17,1
167,1,65
168,94,2
169,48,12
170,1,4
171,1,6
172,1,10
173,33,20
174,50,50
175,16,16
176,7,56
177,13,34
178,22,16
179,3,15
180,11,3
181,2,1
182,36,3
183,18,51
184,15,23
185,1,15
186,11,6
187,28,34
188,38,6
189,3,27
190,1,21
191,2,1
192,13,24
193,44,33
194,218,5
195,11,105
196,38,6
197,1,63
198,1,57
199,9,14
200,36,7
201,60,72
202,6,25
203,29,41
204,2,2
205,1,19
206,3,116
207,3,25
208,16,102
209,76,1
210,5,4
211,8,15
212,3,19
213,18,22
214,42,11
215,7,5
216,7,30
217,4,22
218,3,59
219,2,47
220,7,2
221,15,1
222,48,8
223,9,11
224,1,28
225,1,10
226,17,12
227,3,78
228,55,13
229,74,55
230,12,24
231,2,21
232,2,7
233,6,2
234,4,1
235,24,42
236,7,31
237,2,1
238,6,25
239,6,10
240,19,52
241,3,40
242,1,73
243,5,12
244,2,1
245,4,1
246,14,53
247,55,29
248,46,73
249,2,4
250,1,97
251,6,3
252,22,11
253,18,80
254,15,56
255,71,51
256,15,53
257,14,43
258,4,7
259,9,106
260,3,8
261,2,125
262,3,2
263,1,16
264,12,12
265,18,5
266,3,1
267,11,3
268,158,14
269,2,32
270,3,11
271,57,1
272,10,1
273,9,43
274,108,1
275,32,2
276,16,14
277,3,63
278,1,2
279,12,2
280,7,7
281,23,24
282,6,2
283,6,1
284,20,5
285,13,48
286,1,13
287,3,9
288,10,209
289,47,57
290,3,88
291,6,32
292,15,89
293,171,29
294,15,8
295,43,6
296,1,46
297,10,1
298,27,7
299,19,71
300,11,5
301,90,62
302,10,53
303,11,56
304,12,81
305,1,3
306,5,9
307,2,30
308,159,1
309,3,22
310,9,83
311,10,15
312,1,1
313,3,11
314,22,2
315,41,2
316,24,12
317,3,9
318,1,44
319,2,48
320,4,21
321,9,1
322,202,2
323,44,100
324,15,3
325,2,4
326,49,22
327,3,35
328,47,2
329,74,5
330,23,38
331,9,17
332,1,3
333,8,1
334,68,47
335,164,1
336,12,25
337,5,70
338,4,3
339,6,5
340,19,191
341,31,23
342,2,23
343,2,55
344,9,69
345,71,5
346,39,40
347,4,12
348,7,3
349,36,63
350,59,5
351,15,31
352,7,2
353,14,44
354,14,40
355,4,21
356,12,13
357,2,26
358,54,7
359,7,10
360,32,86
361,12,29
362,1,32
363,5,10
364,10,5
365,43,28
366,2,5
367,1,71
368,2,12
369,49,1
370,13,1
371,9,65
372,34,2
373,6,12
374,2,4
375,5,10
376,15,20
377,73,50
378,4,16
379,4,56
380,25,34
381,4,16
382,1,15
383,2,3
384,1,1
385,6,3
386,13,51
387,9,23
388,1,15
389,2,6
390,43,34
391,136,6
392,7,27
393,20,33
394,10,5
395,6,105
396,34,6
397,2,63
398,2,14
399,34,7
400,28,72
401,92,25
402,2,41
403,11,2
404,1,19
405,4,116
406,3,25
407,35,102
408,147,1
409,4,15
410,8,19
411,136,11
412,42,5
413,52,30
414,4,22
415,1,59
416,1,47
417,8,2
418,4,1
419,7,8
420,20,11
421,10,10
422,33,12
423,5,78
424,44,13
425,1,55
426,7,24
427,1,7
428,1,2
429,6,1
430,52,42
431,22,31
432,5,1
433,1,25
434,1,10
435,100,52
436,63,40
437,1,12
438,2,1
439,20,53
440,25,29
441,2,73
442,9,4
443,6,11
444,25,80
445,6,56
446,1,51
447,11,53
448,1,43
449,1,7
450,4,106
451,4,7
452,65,88
453,8,11
454,36,1
455,2,4
456,38,1
457,23,8
458,3,22
459,1,12
460,1,52
461,1,6
462,1,22
463,3,36
464,1,21
465,6,2
466,32,6
467,120,37
468,1,1
469,11,17
470,31,2
471,3,1
472,4,22
473,7,1
474,42,39
475,11,32
476,1,3
477,10,5
478,61,158
479,127,8
480,7,25
481,1,6
482,2,9
483,7,10
484,49,39
485,57,4
486,2,2
487,29,1
488,2,17
489,1,7
490,69,33
491,24,2
492,8,55
493,4,25
494,20,22
495,1,52
496,2,5
497,6,1
498,1,1
499,49,27
500,2,20
501,3,1
502,1,9
503,15,5
504,156,1
505,8,1
506,35,11
507,5,5
508,3,24
509,1,37
510,11,4
511,76,1
512,11,36
513,14,1
514,1,12
515,1,9
516,5,21
517,52,37
518,10,16
519,2,14
520,3,19
521,6,1
522,8,7
523,17,16
524,2,4
525,3,1
526,1,1
527,100,182
528,35,20
529,1,4
530,4,17
531,2,7
532,4,34
533,4,1
534,65,37
535,5,2
536,8,5
537,36,11
538,2,1
539,1,1
540,2,1
541,1,3
542,38,1
543,23,6
544,3,4
545,1,20
546,1,34
547,1,5
548,22,1
549,20,1
550,1,21
551,20,1
552,22,2
553,3,5
554,1,12
555,6,2
556,32,8
557,120,26
558,1,1
559,8,2
560,11,20
561,31,5
562,3,23
563,4,14
564,7,1
565,3,1
566,42,47
567,45,1
568,11,5
569,11,16
570,1,10
571,10,4
572,61,51
573,127,49
574,7,63
575,1,8
576,2,18
577,7,22
578,49,50
579,57,25
580,2,6
581,29,5
582,2,29
583,1,2
584,1,1
585,43,7
586,69,38
587,24,3
588,8,7
589,4,28
590,20,34
591,1,29
592,2,4
593,6,2
594,1,8
595,49,3
596,64,1
597,2,2
598,3,82
599,1,6
600,4,1
601,15,6
602,156,1
603,8,1
604,35,1
605,5,4
606,3,20
607,1,11
608,11,17
609,10,1
610,76,1
611,11,64
612,14,2
613,1,5
614,9,4
615,1,13
616,5,14
617,47,2
618,25,5
619,52,1
620,10,1
621,2,5
622,3,25
623,6,2
624,2,1
625,8,40
626,16,1
627,17,9
628,2,66
629,3,2
630,1,4
631,100,9
632,35,3
633,1,38
634,4,6
635,2,20
636,4,21
637,25,69
638,9,5
639,9,40
640,11,8
641,1,12
642,2,12
643,21,3
644,7,63
645,2,5
646,6,31
647,65,2
648,12,44
649,1,40
650,1,21
651,1,13
652,5,26
653,13,7
654,2,10
655,16,86
656,8,29
657,1,32
658,7,10
659,28,5
660,138,28
661,1,5
662,2,71
663,1,9
664,2,12
665,30,1
666,17,1
667,1,65
668,94,2
669,48,12
670,1,4
671,1,6
672,1,10
673,33,20
674,50,50
675,16,16
676,7,56
677,13,34
678,22,16
679,3,15
680,11,3
681,2,1
682,36,3
683,18,51
684,15,23
685,1,15
686,11,6
687,28,34
688,38,6
689,3,27
690,1,21
691,2,1
692,13,24
693,44,33
694,218,5
695,11,105
696,38,6
697,1,63
698,1,57
699,9,14
700,36,7
701,60,72
702,6,25
703,29,41
704,2,2
705,1,19
706,3,116
707,3,25
708,16,102
709,76,1
710,5,4
711,8,15
712,3,19
713,18,22
714,42,11
715,7,5
716,7,30
717,4,22
718,3,59
719,2,47
720,7,2
721,15,1
722,48,8
723,9,11
724,1,28
725,1,10
726,17,12
727,3,78
728,55,13
729,74,55
730,12,24
731,2,21
732,2,7
733,6,2
734,4,1
735,24,42
736,7,31
737,2,1
738,6,25
739,6,10
740,19,52
741,3,40
742,1,73
743,5,12
744,2,1
745,4,1
746,14,53
747,55,29
748,46,73
749,2,4
750,1,97
751,6,3
752,22,11
753,18,80
754,15,56
755,71,51
756,15,53
757,14,43
758,4,7
759,9,106
760,3,8
761,2,125
762,3,2
763,1,16
764,12,12
765,18,5
766,3,1
767,11,3
768,158,14
769,2,32
770,3,11
771,57,1
772,10,1
773,9,43
774,108,1
775,32,2
776,16,14
777,3,63
778,1,2
779,12,2
780,7,7
781,23,24
782,6,2
783,6,1
784,20,5
785,13,48
786,1,13
787,3,9
788,10,209
789,47,57
790,3,88
791,6,32
792,15,89
793,171,29
794,15,8
795,43,6
796,1,46
797,10,1
798,27,7
799,19,71
800,11,5
801,90,62
802,10,53
803,11,56
804,12,81
805,1,3
806,5,9
807,2,30
808,159,1
809,3,22
810,9,83
811,10,15
812,1,1
813,3,11
814,22,2
815,41,2
816,24,12
817,3,9
818,1,44
819,2,48
820,4,21
821,9,1
822,202,2
823,44,100
824,15,3
825,2,4
826,49,22
827,3,35
828,47,2
829,74,5
830,23,38
831,9,17
832,1,3
833,8,1
834,68,47
835,164,1
836,12,25
837,5,70
838,4,3
839,6,5
840,19,191
841,31,23
842,2,23
843,2,55
844,9,69
845,71,5
846,39,40
847,4,12
848,7,3
849,36,63
850,59,5
851,15,31
852,7,2
853,14,44
854,14,40
855,4,21
856,12,13
857,2,26
858,54,7
859,7,10
860,32,86
861,12,29
862,1,32
863,5,10
864,10,5
865,43,28
866,2,5
867,1,71
868,2,12
869,49,1
870,13,1
871,9,65
872,34,2
873,6,12
874,2,4
875,5,10
876,15,20
877,73,50
878,4,16
879,4,56
880,25,34
881,4,16
882,1,15
883,2,3
884,1,1
885,6,3
886,13,51
887,9,23
888,1,15
889,2,6
890,43,34
891,136,6
892,7,27
893,20,33
894,10,5
895,6,105
896,34,6
897,2,63
898,2,14
899,34,7
900,28,72
901,92,25
902,2,41
903,11,2
904,1,19
905,4,116
906,3,25
907,35,102
908,147,1
909,4,15
910,8,19
911,136,11
912,42,5
913,52,30
914,4,22
915,1,59
916,1,47
917,8,2
918,4,1
919,7,8
920,20,11
921,10,10
922,33,12
923,5,78
924,44,13
925,1,55
926,7,24
927,1,7
928,1,2
929,6,1
930,52,42
931,22,31
932,5,1
933,1,25
934,1,10
935,100,52
936,63,40
937,1,12
938,2,1
939,20,53
940,25,29
941,2,73
942,9,4
943,6,11
944,25,80
945,6,56
946,1,51
947,11,53
948,1,43
949,1,7
950,4,106
951,4,7
952,65,88
953,8,11
954,36,1
955,2,4
956,38,1
957,23,8
958,3,22
959,1,12
960,1,52
961,1,6
962,1,22
963,3,36
964,1,21
965,6,2
966,32,6
967,120,37
968,1,1
969,11,17
970,31,2
971,3,1
972,4,22
973,7,1
974,42,39
975,11,32
976,1,3
977,10,5
978,61,158
979,127,8
980,7,25
981,1,6
982,2,9
983,7,10
984,49,39
985,57,4
986,2,2
987,29,1
988,2,17
989,1,7
990,69,33
991,24,2
992,8,55
993,4,25
994,20,22
995,1,52
996,2,5
997,6,1
998,1,1
999,49,27
1000,2,20
1001,3,1
1002,1,9
1003,15,5
1004,156,1
1005,8,1
1006,35,11
1007,5,5
1008,3,24
1009,1,37
1010,11,4
1011,76,1
1012,11,36
1013,14,1
1014,1,12
1015,1,9
1016,5,21
1017,52,37
1018,10,16
1019,2,14
1020,3,19
1021,6,1
1022,8,7
1023,17,16
1024,2,4
1025,3,1
1026,1,1
1027,100,182
1028,35,20
1029,1,4
1030,4,17
1031,2,7
1032,4,34
1033,4,1
1034,65,37
1035,5,2
1036,8,5
1037,36,11
1038,2,1
1039,1,1
1040,2,1
1041,1,3
1042,38,1
1043,23,6
1044,3,4
1045,1,20
1046,1,34
1047,1,5
1048,22,1
1049,20,1
1050,1,21
1051,20,1
1052,22,2
1053,3,5
1054,1,12
1055,6,2
1056,32,8
1057,120,26
1058,1,1
1059,8,2
1060,11,20
1061,31,5
1062,3,23
1063,4,14
1064,7,1
1065,3,1
1066,42,47
1067,45,1
1068,11,5
1069,11,16
1070,1,10
1071,10,4
1072,61,51
1073,127,49
1074,7,63
1075,1,8
1076,2,18
1077,7,22
1078,49,50
1079,57,25
1080,2,6
1081,29,5
1082,2,29
1083,1,2
1084,1,1
1085,43,7
1086,69,38
1087,24,3
1088,8,7
1089,4,28
1090,20,34
1091,1,29
1092,2,4
1093,6,2
1094,1,8
1095,49,3
1096,64,1
1097,2,2
1098,3,82
1099,1,6
1100,4,1
1101,15,6
1102,156,1
1103,8,1
1104,35,1
1105,5,4
1106,3,20
1107,1,11
1108,11,17
1109,10,1
1110,76,1
1111,11,64
1112,14,2
1113,1,5
1114,9,4
1115,1,13
1116,5,14
1117,47,2
1118,25,5
1119,52,1
1120,10,1
1121,2,5
1122,3,25
1123,6,2
1124,2,1
1125,8,40
1126,16,1
1127,17,9
1128,2,66
1129,3,2
1130,1,4
1131,100,9
1132,35,3
1133,1,38
1134,4,6
1135,2,20
1136,4,21
1137,25,69
1138,9,5
1139,9,40
1140,11,8
1141,1,12
1142,2,12
1143,21,3
1144,7,63
1145,2,5
1146,6,31
1147,65,2
1148,12,44
1149,1,40
1150,1,21
1151,1,13
1152,5,26
1153,13,7
1154,2,10
1155,16,86
1156,8,29
1157,1,32
1158,7,10
1159,28,5
1160,138,28
1161,1,5
1162,2,71
1163,1,9
1164,2,12
1165,30,1
1166,17,1
1167,1,65
1168,94,2
1169,48,12
1170,1,4
1171,1,6
1172,1,10
1173,33,20
1174,50,50
1175,16,16
1176,7,56
1177,13,34
1178,22,16
1179,3,15
1180,11,3
1181,2,1
1182,36,3
1183,18,51
1184,15,23
1185,1,15
1186,11,6
1187,28,34
1188,38,6
1189,3,27
1190,1,21
1191,2,1
1192,13,24
1193,44,33
1194,218,5
1195,11,105
1196,38,6
1197,1,63
1198,1,57
1199,9,14
1200,36,7
1201,60,72
1202,6,25
1203,29,41
1204,2,2
1205,1,19
1206,3,116
1207,3,25
1208,16,102
1209,76,1
1210,5,4
1211,8,15
1212,3,19
1213,18,22
1214,42,11
1215,7,5
1216,7,30
1217,4,22
1218,3,59
1219,2,47
1220,7,2
1221,15,1
1222,48,8
1223,9,11
1224,1,28
1225,1,10
1226,17,12
1227,3,78
1228,55,13
1229,74,55
1230,12,24
1231,2,21
1232,2,7
1233,6,2
1234,4,1
1235,24,42
1236,7,31
1237,2,1
1238,6,25
1239,6,10
1240,19,52
1241,3,40
1242,1,73
1243,5,12
1244,2,1
1245,4,1
1246,14,53
1247,55,29
1248,46,73
1249,2,4
1250,1,97
1251,6,3
1252,22,11
1253,18,80
1254,15,56
1255,71,51
1256,15,53
1257,14,43
1258,4,7
1259,9,106
1260,3,8
1261,2,125
1262,3,2
1263,1,16
1264,12,12
1265,18,5
1266,3,1
1267,11,3
1268,158,14
1269,2,32
1270,3,11
1271,57,1
1272,10,1
1273,9,43
1274,108,1
1275,32,2
1276,16,14
1277,3,63
1278,1,2
1279,12,2
1280,7,7
1281,23,24
1282,6,2
1283,6,1
1284,20,5
1285,13,48
1286,1,13
1287,3,9
1288,10,209
1289,47,57
1290,3,88
1291,6,32
1292,15,89
1293,171,29
1294,15,8
1295,43,6
1296,1,46
1297,10,1
1298,27,7
1299,19,71
1300,11,5
1301,90,62
1302,10,53
1303,11,56
1304,12,81
1305,1,3
1306,5,9
1307,2,30
1308,159,1
1309,3,22
1310,9,83
1311,10,15
1312,1,1
1313,3,11
1314,22,2
1315,41,2
1316,24,12
1317,3,9
1318,1,44
1319,2,48
1320,4,21
1321,9,1
1322,202,2
1323,44,100
1324,15,3
1325,2,4
1326,49,22
1327,3,35
1328,47,2
1329,74,5
1330,23,38
1331,9,17
1332,1,3
1333,8,1
1334,68,47
1335,164,1
1336,12,25
1337,5,70
1338,4,3
1339,6,5
1340,19,191
1341,31,23
1342,2,23
1343,2,55
1344,9,69
1345,71,5
1346,39,40
1347,4,12
1348,7,3
1349,36,63
1350,59,5
1351,15,31
1352,7,2
1353,14,44
1354,14,40
1355,4,21
1356,12,13
1357,2,26
1358,54,7
1359,7,10
1360,32,86
1361,12,29
1362,1,32
1363,5,10
1364,10,5
1365,43,28
1366,2,5
1367,1,71
1368,2,12
1369,49,1
1370,13,1
1371,9,65
1372,34,2
1373,6,12
1374,2,4
1375,5,10
1376,15,20
1377,73,50
1378,4,16
1379,4,56
1380,25,34
1381,4,16
1382,1,15
1383,2,3
1384,1,1
1385,6,3
1386,13,51
1387,9,23
1388,1,15
1389,2,6
1390,43,34
1391,136,6
1392,7,27
1393,20,33
1394,10,5
1395,6,105
1396,34,6
1397,2,63
1398,2,14
1399,34,7
1400,28,72
1401,92,25
1402,2,41
1403,11,2
1404,1,19
1405,4,116
1406,3,25
1407,35,102
1408,147,1
1409,4,15
1410,8,19
1411,136,11
1412,42,5
1413,52,30
1414,4,22
1415,1,59
1416,1,47
1417,8,2
1418,4,1
1419,7,8
1420,20,11
1421,10,10
1422,33,12
1423,5,78
1424,44,13
1425,1,55
1426,7,24
1427,1,7
1428,1,2
1429,6,1
1430,52,42
1431,22,31
1432,5,1
1433,1,25
1434,1,10
1435,100,52
1436,63,40
1437,1,12
1438,2,1
1439,20,53
1440,25,29
1441,2,73
1442,9,4
1443,6,11
1444,25,80
1445,6,56
1446,1,51
1447,11,53
1448,1,43
1449,1,7
1450,4,106
1451,4,7
1452,65,88
1453,8,11
1454,36,1
1455,2,4
1456,38,1
1457,23,8
1458,3,22
1459,1,12
1460,1,52
1461,1,6
1462,1,22
1463,3,36
1464,1,21
1465,6,2
1466,32,6
1467,120,37
1468,1,1
1469,11,17
1470,31,2
1471,3,1
1472,4,22
1473,7,1
1474,42,39
1475,11,32
1476,1,3
1477,10,5
1478,61,158
1479,127,8
1480,7,25
1481,1,6
1482,2,9
1483,7,10
1484,49,39
1485,57,4
1486,2,2
1487,29,1
1488,2,17
1489,1,7
1490,69,33
1491,24,2
1492,8,55
1493,4,25
1494,20,22
1495,1,52
1496,2,5
1497,6,1
1498,1,1
1499,49,27
1500,2,20
1501,3,1
1502,1,9
1503,15,5
1504,156,1
1505,8,1
1506,35,11
1507,5,5
1508,3,24
1509,1,37
1510,11,4
1511,76,1
1512,11,36
1513,14,1
1514,1,12
1515,1,9
1516,5,21
1517,52,37
1518,10,16
1519,2,14
1520,3,19
1521,6,1
1522,8,7
1523,17,16
1524,2,4
1525,3,1
1526,1,1
1527,100,182
1528,35,20
1529,1,4
1530,4,17
1531,2,7
1532,4,34
1533,4,1
1534,65,37
1535,5,2
1536,8,5
1537,36,11
1538,2,1
1539,1,1
1540,2,1
1541,1,3
1542,38,1
1543,23,6
1544,3,4
1545,1,20
1546,1,34
1547,1,5
1548,22,1
1549,20,1
1550,1,21
1551,20,1
1552,22,2
1553,3,5
1554,1,12
1555,6,2
1556,32,8
1557,120,26
1558,1,1
1559,8,2
1560,11,20
1561,31,5
1562,3,23
1563,4,14
1564,7,1
1565,3,1
1566,42,47
1567,45,1
1568,11,5
1569,11,16
1570,1,10
1571,10,4
1572,61,51
1573,127,49
1574,7,63
1575,1,8
1576,2,18
1577,7,22
1578,49,50
1579,57,25
1580,2,6
1581,29,5
1582,2,29
1583,1,2
1584,1,1
1585,43,7
1586,69,38
1587,24,3
1588,8,7
1589,4,28
1590,20,34
1591,1,29
1592,2,4
1593,6,2
1594,1,8
1595,49,3
1596,64,1
1597,2,2
1598,3,82
1599,1,6
1600,4,1
1601,15,6
1602,156,1
1603,8,1
1604,35,1
1605,5,4
1606,3,20
1607,1,11
1608,11,17
1609,10,1
1610,76,1
1611,11,64
1612,14,2
1613,1,5
1614,9,4
1615,1,13
1616,5,14
1617,47,2
1618,25,5
1619,52,1
1620,10,1
1621,2,5
1622,3,25
1623,6,2
1624,2,1
1625,8,40
1626,16,1
1627,17,9
1628,2,66
1629,3,2
1630,1,4
1631,100,9
1632,35,3
1633,1,38
1634,4,6
1635,2,20
1636,4,21
1637,25,69
1638,9,5
1639,9,40
1640,11,8
1641,1,12
1642,2,12
1643,21,3
1644,7,63
1645,2,5
1646,6,31
1647,65,2
1648,12,44
1649,1,40
1650,1,21
1651,1,13
1652,5,26
1653,13,7
1654,2,10
1655,16,86
1656,8,29
1657,1,32
1658,7,10
1659,28,5
1660,138,28
1661,1,5
1662,2,71
1663,1,9
1664,2,12
1665,30,1
1666,17,1
1667,1,65
1668,94,2
1669,48,12
1670,1,4
1671,1,6
1672,1,10
1673,33,20
1674,50,50
1675,16,16
1676,7,56
1677,13,34
1678,22,16
1679,3,15
1680,11,3
1681,2,1
1682,36,3
1683,18,51
1684,15,23
1685,1,15
1686,11,6
1687,28,34
1688,38,6
1689,3,27
1690,1,21
1691,2,1
1692,13,24
1693,44,33
1694,218,5
1695,11,105
1696,38,6
1697,1,63
1698,1,57
1699,9,14
1700,36,7
1701,60,72
1702,6,25
1703,29,41
1704,2,2
1705,1,19
1706,3,116
1707,3,25
1708,16,102
1709,76,1
1710,5,4
1711,8,15
1712,3,19
1713,18,22
1714,42,11
1715,7,5
1716,7,30
1717,4,22
1718,3,59
1719,2,47
1720,7,2
1721,15,1
1722,48,8
1723,9,11
1724,1,28
1725,1,10
1726,17,12
1727,3,78
1728,55,13
1729,74,55
1730,12,24
1731,2,21
1732,2,7
1733,6,2
1734,4,1
1735,24,42
1736,7,31
1737,2,1
1738,6,25
1739,6,10
1740,19,52
1741,3,40
1742,1,73
1743,5,12
1744,2,1
1745,4,1
1746,14,53
1747,55,29
1748,46,73
1749,2,4
1750,1,97
1751,6,3
1752,22,11
1753,18,80
1754,15,56
1755,71,51
1756,15,53
1757,14,43
1758,4,7
1759,9,106
1760,3,8
1761,2,125
1762,3,2
1763,1,16
1764,12,12
1765,18,5
1766,3,1
1767,11,3
1768,158,14
1769,2,32
1770,3,11
1771,57,1
1772,10,1
1773,9,43
1774,108,1
1775,32,2
1776,16,14
1777,3,63
1778,1,2
1779,12,2
1780,7,7
1781,23,24
1782,6,2
1783,6,1
1784,20,5
1785,13,48
1786,1,13
1787,3,9
1788,10,209
1789,47,57
1790,3,88
1791,6,32
1792,15,89
1793,171,29
1794,15,8
1795,43,6
1796,1,46
1797,10,1
1798,27,7
1799,19,71
1800,11,5
1801,90,62
1802,10,53
1803,11,56
1804,12,81
1805,1,3
1806,5,9
1807,2,30
1808,159,1
1809,3,22
1810,9,83
1811,10,15
1812,1,1
1813,3,11
1814,22,2
1815,41,2
1816,24,12
1817,3,9
1818,1,44
1819,2,48
1820,4,21
1821,9,1
1822,202,2
1823,44,100
1824,15,3
1825,2,4
1826,49,22
1827,3,35
1828,47,2
1829,74,5
1830,23,38
1831,9,17
1832,1,3
1833,8,1
1834,68,47
1835,164,1
1836,12,25
1837,5,70
1838,4,3
1839,6,5
1840,19,191
1841,31,23
1842,2,23
1843,2,55
1844,9,69
1845,71,5
1846,39,40
1847,4,12
1848,7,3
1849,36,63
1850,59,5
1851,15,31
1852,7,2
1853,14,44
1854,14,40
1855,4,21
1856,12,13
1857,2,26
1858,54,7
1859,7,10
1860,32,86
1861,12,29
1862,1,32
1863,5,10
1864,10,5
1865,43,28
1866,2,5
1867,1,71
1868,2,12
1869,49,1
1870,13,1
1871,9,65
1872,34,2
1873,6,12
1874,2,4
1875,5,10
1876,15,20
1877,73,50
1878,4,16
1879,4,56
1880,25,34
1881,4,16
1882,1,15
1883,2,3
1884,1,1
1885,6,3
1886,13,51
1887,9,23
1888,1,15
1889,2,6
1890,43,34
1891,136,6
1892,7,27
1893,20,33
1894,10,5
1895,6,105
1896,34,6
1897,2,63
1898,2,14
1899,34,7
1900,28,72
1901,92,25
1902,2,41
1903,11,2
1904,1,19
1905,4,116
1906,3,25
1907,35,102
1908,147,1
1909,4,15
1910,8,19
1911,136,11
1912,42,5
1913,52,30
1914,4,22
1915,1,59
1916,1,47
1917,8,2
1918,4,1
1919,7,8
1920,20,11
1921,10,10
1922,33,12
1923,5,78
1924,44,13
1925,1,55
1926,7,24
1927,1,7
1928,1,2
1929,6,1
1930,52,42
1931,22,31
1932,5,1
1933,1,25
1934,1,10
1935,100,52
1936,63,40
1937,1,12
1938,2,1
1939,20,53
1940,25,29
1941,2,73
1942,9,4
1943,6,11
1944,25,80
1945,6,56
1946,1,51
1947,11,53
1948,1,43
1949,1,7
1950,4,106
1951,4,7
1952,65,88
1953,8,11
1954,36,1
1955,2,4
1956,38,1
1957,23,8
1958,3,22
1959,1,12
1960,1,52
1961,1,6
1962,1,22
1963,3,36
1964,1,21
1965,6,2
1966,32,6
1967,120,37
1968,1,1
1969,11,17
1970,31,2
1971,3,1
1972,4,22
1973,7,1
1974,42,39
1975,11,32
1976,1,3
1977,10,5
1978,61,158
1979,127,8
1980,7,25
1981,1,6
1982,2,9
1983,7,10
1984,49,39
1985,57,4
1986,2,2
1987,29,1
1988,2,17
1989,1,7
1990,69,33
1991,24,2
1992,8,55
1993,4,25
1994,20,22
1995,1,52
1996,2,5
1997,6,1
1998,1,1
1999,49,27
2000,2,20
2001,3,1
2002,1,9
2003,15,5
2004,156,1
2005,8,1
2006,35,11
2007,5,5
2008,3,24
2009,1,37
2010,11,4
2011,76,1
2012,11,36
2013,14,1
2014,1,12
2015,1,9
2016,5,21
2017,52,37
2018,10,16
2019,2,14
2020,3,19
2021,6,1
2022,8,7
2023,17,16
2024,2,4
2025,3,1
2026,1,1
2027,100,182
2028,35,20
2029,1,4
2030,4,17
2031,2,7
2032,4,34
2033,4,1
2034,65,37
2035,5,2
2036,8,5
2037,36,11
2038,2,1
2039,1,1
2040,2,1
2041,1,3
2042,38,1
2043,23,6
2044,3,4
2045,1,20
2046,1,34
2047,1,5
2048,22,1
2049,20,1
2050,1,21
2051,20,1
2052,22,2
2053,3,5
2054,1,12
2055,6,2
2056,32,8
2057,120,26
2058,1,1
2059,8,2
2060,11,20
2061,31,5
2062,3,23
2063,4,14
2064,7,1
2065,3,1
2066,42,47
2067,45,1
2068,11,5
2069,11,16
2070,1,10
2071,10,4
2072,61,51
2073,127,49
2074,7,63
2075,1,8
2076,2,18
2077,7,22
2078,49,50
2079,57,25
2080,2,6
2081,29,5
2082,2,29
2083,1,2
2084,1,1
2085,43,7
2086,69,38
2087,24,3
2088,8,7
2089,4,28
2090,20,34
2091,1,29
2092,2,4
2093,6,2
2094,1,8
2095,49,3
2096,64,1
2097,2,2
2098,3,82
2099,1,6
2100,4,1
2101,15,6
2102,156,1
2103,8,1
2104,35,1
2105,5,4
2106,3,20
2107,1,11
2108,11,17
2109,10,1
2110,76,1
2111,11,64
2112,14,2
2113,1,5
2114,9,4
2115,1,13
2116,5,14
2117,47,2
2118,25,5
2119,52,1
2120,10,1
2121,2,5
2122,3,25
2123,6,2
2124,2,1
2125,8,40
2126,16,1
2127,17,9
2128,2,66
2129,3,2
2130,1,4
2131,100,9
2132,35,3
2133,1,38
2134,4,6
2135,2,20
2136,4,21
2137,25,69
2138,9,5
2139,9,40
2140,11,8
2141,1,12
2142,2,12
2143,21,3
2144,7,63
2145,2,5
2146,6,31
2147,65,2
2148,12,44
2149,1,40
2150,1,21
2151,1,13
2152,5,26
2153,13,7
2154,2,10
2155,16,86
2156,8,29
2157,1,32
2158,7,10
2159,28,5
2160,138,28
2161,1,5
2162,2,71
2163,1,9
2164,2,12
2165,30,1
2166,17,1
2167,1,65
2168,94,2
2169,48,12
2170,1,4
2171,1,6
2172,1,10
2173,33,20
2174,50,50
2175,16,16
2176,7,56
2177,13,34
2178,22,16
2179,3,15
2180,11,3
2181,2,1
2182,36,3
2183,18,51
2184,15,23
2185,1,15
2186,11,6
2187,28,34
2188,38,6
2189,3,27
2190,1,21
2191,2,1
2192,13,24
2193,44,33
2194,218,5
2195,11,105
2196,38,6
2197,1,63
2198,1,57
2199,9,14
2200,36,7
2201,60,72
2202,6,25
2203,29,41
2204,2,2
2205,1,19
2206,3,116
2207,3,25
2208,16,102
2209,76,1
2210,5,4
2211,8,15
2212,3,19
2213,18,22
2214,42,11
2215,7,5
2216,7,30
2217,4,22
2218,3,59
2219,2,47
2220,7,2
2221,15,1
2222,48,8
2223,9,11
2224,1,28
2225,1,10
2226,17,12
2227,3,78
2228,55,13
2229,74,55
2230,12,24
2231,2,21
2232,2,7
2233,6,2
2234,4,1
2235,24,42
2236,7,31
2237,2,1
2238,6,25
2239,6,10
2240,19,52
2241,3,40
2242,1,73
2243,5,12
2244,2,1
2245,4,1
2246,14,53
2247,55,29
2248,46,73
2249,2,4
2250,1,97
2251,6,3
2252,22,11
2253,18,80
2254,15,56
2255,71,51
2256,15,53
2257,14,43
2258,4,7
2259,9,106
2260,3,8
2261,2,125
2262,3,2
2263,1,16
2264,12,12
2265,18,5
2266,3,1
2267,11,3
2268,158,14
2269,2,32
2270,3,11
2271,57,1
2272,10,1
2273,9,43
2274,108,1
2275,32,2
2276,16,14
2277,3,63
2278,1,2
2279,12,2
2280,7,7
2281,23,24
2282,6,2
2283,6,1
2284,20,5
2285,13,48
2286,1,13
2287,3,9
2288,10,209
2289,47,57
2290,3,88
2291,6,32
2292,15,89
2293,171,29
2294,15,8
2295,43,6
2296,1,46
2297,10,1
2298,27,7
2299,19,71
2300,11,5
2301,90,62
2302,10,53
2303,11,56
2304,12,81
2305,1,3
2306,5,9
2307,2,30
2308,159,1
2309,3,22
2310,9,83
2311,10,15
2312,1,1
2313,3,11
2314,22,2
2315,41,2
2316,24,12
2317,3,9
2318,1,44
2319,2,48
2320,4,21
2321,9,1
2322,202,2
2323,44,100
2324,15,3
2325,2,4
2326,49,22
2327,3,35
2328,47,2
2329,74,5
2330,23,38
2331,9,17
2332,1,3
2333,8,1
2334,68,47
2335,164,1
2336,12,25
2337,5,70
2338,4,3
2339,6,5
2340,19,191
2341,31,23
2342,2,23
2343,2,55
2344,9,69
2345,71,5
2346,39,40
2347,4,12
2348,7,3
2349,36,63
2350,59,5
2351,15,31
2352,7,2
2353,14,44
2354,14,40
2355,4,21
2356,12,13
2357,2,26
2358,54,7
2359,7,10
2360,32,86
2361,12,29
2362,1,32
2363,5,10
2364,10,5
2365,43,28
2366,2,5
2367,1,71
2368,2,12
2369,49,1
2370,13,1
2371,9,65
2372,34,2
2373,6,12
2374,2,4
2375,5,10
2376,15,20
2377,73,50
2378,4,16
2379,4,56
2380,25,34
2381,4,16
2382,1,15
2383,2,3
2384,1,1
2385,6,3
2386,13,51
2387,9,23
2388,1,15
2389,2,6
2390,43,34
2391,136,6
2392,7,27
2393,20,33
2394,10,5
2395,6,105
2396,34,6
2397,2,63
2398,2,14
2399,34,7
2400,28,72
2401,92,25
2402,2,41
2403,11,2
2404,1,19
2405,4,116
2406,3,25
2407,35,102
2408,147,1
2409,4,15
2410,8,19
2411,136,11
2412,42,5
2413,52,30
2414,4,22
2415,1,59
2416,1,47
2417,8,2
2418,4,1
2419,7,8
2420,20,11
2421,10,10
2422,33,12
2423,5,78
2424,44,13
2425,1,55
2426,7,24
2427,1,7
2428,1,2
2429,6,1
2430,52,42
2431,22,31
2432,5,1
2433,1,25
2434,1,10
2435,100,52
2436,63,40
2437,1,12
2438,2,1
2439,20,53
2440,25,29
2441,2,73
2442,9,4
2443,6,11
2444,25,80
2445,6,56
2446,1,51
2447,11,53
2448,1,43
2449,1,7
2450,4,106
2451,4,7
2452,65,88
2453,8,11
2454,36,1
2455,2,4
2456,38,1
2457,23,8
2458,3,22
2459,1,12
2460,1,52
2461,1,6
2462,1,22
2463,3,36
2464,1,21
2465,6,2
2466,32,6
2467,120,37
2468,1,1
2469,11,17
2470,31,2
2471,3,1
2472,4,22
2473,7,1
2474,42,39
2475,11,32
2476,1,3
2477,10,5
2478,61,158
2479,127,8
2480,7,25
2481,1,6
2482,2,9
2483,7,10
2484,49,39
2485,57,4
2486,2,2
2487,29,1
2488,2,17
2489,1,7
2490,69,33
2491,24,2
2492,8,55
2493,4,25
2494,20,22
2495,1,52
2496,2,5
2497,6,1
2498,1,1
2499,49,27
2500,2,20
2501,3,1
2502,1,9
2503,15,5
2504,156,1
2505,8,1
2506,35,11
2507,5,5
2508,3,24
2509,1,37
2510,11,4
2511,76,1
2512,11,36
2513,14,1
2514,1,12
2515,1,9
2516,5,21
2517,52,37
2518,10,16
2519,2,14
2520,3,19
2521,6,1
2522,8,7
2523,17,16
2524,2,4
2525,3,1
2526,1,1
2527,100,182
2528,35,20
2529,1,4
2530,4,17
2531,2,7
2532,4,34
2533,365,185
2534,378,200
2535,410,165
2536,425,148
2537,425,296
2538,439,116
2539,464,1006
2540,520,205
2541,520,350
2542,540,530
2543,549,1413
2544,549,1882
2545,553,496
2546,555,755
2547,555,496
2548,555,659
2549,567,473
2550,572,592
2551,572,975
2552,572,1175
2553,572,1575
2554,572,1390
2555,572,1490
2556,572,1590
2557,572,1690
2558,572,1890
2559,610,625
2560,660,490
2561,690,447
2562,949,445
2563,949,478
2564,970,463
2565,41,23
2566,2,2
2567,1,11
2568,1,23
2569,1,4
2570,8,2
2571,7,4
2572,3,1
2573,1,2
2574,1,16
2575,7,2
2576,1,1
2577,1,2
2578,1,20
2579,2,8
2580,15,92
2581,4,2
2582,1,1
2583,4,18
2584,112,5
2585,20,1
2586,77,3
2587,15,1
2588,27,2
2589,1,11
2590,3,9
2591,1,76
2592,15,3
2593,4,5
2594,27,71
2595,5,18
2596,1,112
2597,1,19
2598,3,7
2599,3,2
2600,1,4
2601,63,1
2602,1,15
2603,1,8
2604,1,1
2605,14,2
2606,33,97
2607,5,16
2608,2,1
2609,2,7
2610,9,4
2611,1,2
2612,2,7
2613,28,1
2614,4,9
2615,1,2
2616,2,3
2617,45,7
2618,4,5
2619,5,14
2620,1,41
2621,3,28
2622,1,2
2623,44,20
2624,1,4
2625,12,1
2626,6,1
2627,12,1
2628,3,2
2629,1,15
2630,23,2
2631,7,6
2632,3,1
2633,67,9
2634,25,47
2635,5,3
2636,10,19
2637,32,13
2638,6,1
2639,13,1
2640,32,1
2641,1,2
2642,1,19
2643,2,15
2644,47,130
2645,1,8
2646,1,7
2647,4,61
2648,43,14
2649,1,7
2650,6,7
2651,1,4
2652,14,5
2653,1,26
2654,2,4
2655,24,1
2656,2,35
2657,5,75
2658,44,6
2659,1,17
2660,32,5
2661,10,1
2662,5,1
2663,108,1
2664,1,2
2665,1,2
2666,1,1
2667,60,12
2668,11,3
2669,14,13
2670,32,52
2671,2,1
2672,2,5
2673,1,8
2674,6,8
2675,1,1
2676,6,18
2677,1,3
2678,1,1
2679,1,3
2680,1,2
2681,12,13
2682,66,2
2683,1,8
2684,2,55
2685,17,10
2686,16,3
2687,55,6
2688,1,3
2689,1,10
2690,3,44
2691,5,6
2692,3,21
2693,4,4
2694,1,32
2695,1,3
2696,12,1
2697,25,5
2698,1,2
2699,43,8
2700,1,3
2701,5,33
2702,1,1
2703,27,8
2704,4,14
2705,1,2
2706,1,2
2707,2,6
2708,3,1
2709,24,7
2710,1,3
2711,1,1
2712,2,1
2713,6,7
2714,1,7
2715,21,1
2716,10,12
2717,1,1
2718,11,13
2719,1,2
2720,11,1
2721,2,4
2722,10,1
2723,6,9
2724,1,1
2725,32,6
2726,6,5
2727,2,14
2728,13,4
2729,1,49
2730,1,7
2731,15,1
2732,2,9
2733,2,5
2734,1,1
2735,109,10
2736,1,2
2737,13,17
2738,1,83
2739,94,45
2740,1,2
2741,6,3
2742,6,3
2743,5,5
2744,1,110
2745,69,8
2746,16,11
2747,3,6
2748,24,1
2749,26,1
2750,6,5
2751,5,1
2752,66,5
2753,1,5
2754,1,7
2755,20,2
2756,22,2
2757,1,8
2758,13,16
2759,11,3
2760,1,1
2761,1,13
2762,1,6
2763,3,3
2764,4,1
2765,12,2
2766,1,15
2767,6,14
2768,33,9
2769,23,23
2770,30,24
2771,5,52
2772,2,1
2773,9,11
2774,1,7
2775,8,1
2776,52,2
2777,18,1
2778,8,13
2779,1,5
2780,10,2
2781,26,111
2782,7,33
2783,1,7
2784,4,1
2785,2,9
2786,1,5
2787,3,3
2788,1,23
2789,1,4
2790,6,3
2791,13,1
2792,6,16
2793,1,3
2794,1,2
2795,3,18
2796,4,2
2797,82,2
2798,9,1
2799,1,3
2800,1,8
2801,16,4
2802,1,16
2803,4,9
2804,38,13
2805,2,19
2806,9,5
2807,2,20
2808,66,1
2809,1,1
2810,28,1
2811,6,5
2812,3,14
2813,25,12
2814,4,4
2815,8,23
2816,40,7
2817,7,86
2818,4,3
2819,2,20
2820,26,19
2821,2,1
2822,11,3
2823,1,1
2824,4,1
2825,20,126
2826,18,6
2827,2,11
2828,1,20
2829,6,6
2830,3,14
2831,7,7
2832,1,2
2833,5,31
2834,3,6
2835,1,8
2836,11,186
2837,2,22
2838,4,4
2839,36,30
2840,17,6
2841,69,4
2842,3,1
2843,4,2
2844,2,1
2845,1,5
2846,8,1
2847,9,16
2848,12,22
2849,2,19
2850,2,2
2851,2,2
2852,4,2
2853,2,15
2854,1,4
2855,8,5
2856,1,2
2857,19,6
2858,3,2
2859,24,6
2860,8,14
2861,2,11
2862,79,5
2863,5,3
2864,2,5
2865,1,1
2866,2,86
2867,2,6
2868,9,73
2869,1,13
2870,1,1
2871,1,1
2872,1,2
2873,11,6
2874,1,112
2875,29,17
2876,1,21
2877,4,43
2878,2,2
2879,1,2
2880,2,10
2881,1,1
2882,17,11
2883,1,8
2884,1,6
2885,3,2
2886,4,1
2887,3,5
2888,21,52
2889,6,1
2890,14,10
2891,14,1
2892,2,5
2893,4,2
2894,5,3
2895,3,4
2896,10,4
2897,1,4
2898,1,14
2899,27,8
2900,3,54
2901,26,7
2902,16,1
2903,1,9
2904,1,3
2905,1,29
2906,3,15
2907,7,35
2908,24,52
2909,2,2
2910,2,6
2911,29,6
2912,1,64
2913,27,2
2914,37,8
2915,39,2
2916,31,5
2917,2,10
2918,14,1
2919,4,8
2920,2,1
2921,1,7
2922,5,1
2923,12,7
2924,10,7
2925,2,5
2926,39,19
2927,1,2
2928,1,14
2929,1,21
2930,1,4
2931,4,5
2932,3,2
2933,1,1
2934,3,21
2935,1,4
2936,1,2
2937,5,1
2938,27,26
2939,10,17
2940,4,93
2941,27,7
2942,100,16
2943,33,1
2944,74,20
2945,3,2
2946,3,2
2947,2,33
2948,2,1
2949,27,212
2950,3,31
2951,1,107
2952,1,7
2953,2,4
2954,1,18
2955,1,9
2956,76,2
2957,1,7
2958,1,22
2959,22,5
2960,3,1
2961,12,94
2962,3,6
2963,2,2
2964,9,19
2965,1,3
2966,31,1
2967,3,2
2968,1,1
2969,2,9
2970,9,14
2971,4,7
2972,1,12
2973,3,8
2974,1,3
2975,59,8
2976,1,1
2977,14,1
2978,2,1
2979,1,4
2980,1,6
2981,21,20
2982,4,24
2983,35,2
2984,20,54
2985,1,1
2986,2,4
2987,37,12
2988,24,3
2989,1,2
2990,1,2
2991,2,5
2992,104,32
2993,1,3
2994,9,54
2995,124,26
2996,1,4
2997,9,12
2998,4,4
2999,1,13
3000,16,2
3001,48,7
3002,1,153
3003,2,4
3004,44,1
3005,62,43
3006,30,1
3007,21,5
3008,28,1
3009,1,5
3010,11,3
3011,16,6
3012,12,12
3013,26,34
3014,18,10
3015,1,1
3016,2,18
3017,1,10
3018,3,9
3019,2,1
3020,9,2
3021,1,6
3022,2,7
3023,1,1
3024,9,19
3025,3,24
3026,13,4
3027,6,2
3028,45,1
3029,1,11
3030,2,3
3031,4,58
3032,38,1
3033,7,104
3034,1,55
3035,8,1
3036,1,6
3037,2,149
3038,9,16
3039,5,15
3040,5,51
3041,7,37
3042,25,16
3043,2,6
3044,2,10
3045,1,5
3046,23,4
3047,2,1
3048,29,13
3049,7,56
3050,8,7
3051,1,1
3052,19,4
3053,2,15
3054,3,1
3055,2,9
3056,5,4
3057,48,3
3058,6,4
3059,36,11
3060,18,31
3061,5,121
3062,2,9
3063,5,16
3064,2,1
3065,1,3
3066,125,39
3067,4,85
3068,99,72
3069,10,3
3070,11,4
3071,19,1
3072,3,63
3073,78,4
3074,17,15
3075,8,2
3076,43,1
3077,66,5
3078,21,19
3079,128,13
3080,1,7
3081,1,4
3082,21,1
3083,36,10
3084,1,6
3085,37,4
3086,57,39
3087,2,3
3088,1,12
3089,1,1
3090,13,1
3091,28,2
3092,1,2
3093,9,9
3094,36,12
3095,37,11
3096,38,85
3097,5,43
3098,18,14
3099,7,14
3100,52,2
3101,14,9
3102,4,104
3103,36,1
3104,29,172
3105,15,16
3106,1,19
3107,13,10
3108,27,11
3109,1,8
3110,5,7
3111,3,2
3112,15,190
3113,8,6
3114,1,5
3115,20,5
3116,12,3
3117,112,5
3118,25,1
3119,1,4
3120,72,3
3121,26,3
3122,6,12
3123,42,40
3124,41,17
3125,2,8
3126,69,1
3127,1,1
3128,11,1
3129,10,7
3130,108,10
3131,5,2
3132,13,2
3133,40,4
3134,20,15
3135,5,1
3136,7,3
3137,31,6
3138,24,1
3139,8,3
3140,68,36
3141,18,4
3142,12,104
3143,7,20
3144,12,5
3145,5,5
3146,7,1
3147,23,3
3148,7,8
3149,53,2
3150,2,57
3151,33,3
3152,115,30
3153,74,2
3154,2,1
3155,1,2
3156,11,3
3157,15,2
3158,16,25
3159,76,43
3160,10,15
3161,25,5
3162,1,5
3163,14,3
3164,28,7
3165,45,21
3166,12,65
3167,35,3
3168,16,4
3169,2,9
3170,1,12
3171,3,16
3172,2,1
3173,11,35
3174,1,45
3175,1,1
3176,1,4
3177,21,2
3178,2,70
3179,7,2
3180,8,22
3181,14,33
3182,67,12
3183,2,1
3184,8,9
3185,9,7
3186,6,9
3187,29,16
3188,45,10
3189,44,4
3190,5,14
3191,13,15
3192,6,1
3193,94,5
3194,11,5
3195,105,11
3196,31,27
3197,5,116
3198,33,9
3199,4,16
3200,1,1
3201,69,20
3202,3,2
3203,17,133
3204,41,65
3205,5,109
3206,92,10
3207,38,18
3208,111,1
3209,74,14
3210,5,10
3211,2,11
3212,1,4
3213,5,2
3214,46,5
3215,11,7
3216,6,15
3217,20,23
3218,1,2
3219,2,2
3220,1,4
3221,2,1
3222,5,2
3223,3,2
3224,2,2
3225,4,20
3226,38,8
3227,4,92
3228,10,2
3229,30,18
3230,14,5
3231,4,1
3232,29,3
3233,49,1
3234,88,2
3235,2,11
3236,2,76
3237,65,3
3238,9,71
3239,2,18
3240,42,1
3241,1,8
3242,22,1
3243,4,2
3244,3,97
3245,8,16
3246,1,7
3247,8,4
3248,2,7
3249,35,1
3250,1,9
3251,58,7
3252,5,5
3253,31,20
3254,7,1
3255,2,1
3256,4,1
3257,5,2
3258,11,2
3259,1,1
3260,34,9
3261,4,47
3262,18,19
3263,18,13
3264,1,1
3265,16,1
3266,1,19
3267,79,130
3268,5,61
3269,90,14
3270,1,7
3271,12,7
3272,3,4
3273,13,5
3274,27,4
3275,55,1
3276,1,75
3277,6,6
3278,61,17
3279,5,5
3280,11,1
3281,33,1
3282,11,1
3283,14,1
3284,7,12
3285,1,3
3286,13,13
3287,10,52
3288,5,8
3289,2,1
3290,3,18
3291,4,1
3292,1,2
3293,1,13
3294,5,2
3295,11,8
3296,5,55
3297,16,3
3298,58,6
3299,1,10
3300,1,44
3301,109,6
3302,1,21
3303,7,4
3304,3,1
3305,4,5
3306,47,8
3307,17,1
3308,17,8
3309,9,14
3310,1,2
3311,21,6
3312,7,1
3313,25,7
3314,2,3
3315,1,1
3316,21,7
3317,1,7
3318,16,1
3319,5,12
3320,3,1
3321,21,13
3322,33,1
3323,2,4
3324,21,1
3325,4,1
3326,16,6
3327,34,14
3328,5,4
3329,4,49
3330,1,7
3331,35,1
3332,3,9
3333,16,10
3334,3,17
3335,3,83
3336,5,45
3337,5,2
3338,4,3
3339,5,3
3340,14,5
3341,2,110
3342,9,8
3343,1,11
3344,5,6
3345,19,1
3346,40,1
3347,15,5
3348,3,1
3349,62,5
3350,1,2
3351,14,2
3352,24,16
3353,46,3
3354,1,1
3355,10,3
3356,1,1
3357,16,2
3358,3,14
3359,3,9
3360,14,23
3361,8,24
3362,9,11
3363,6,7
3364,17,1
3365,13,1
3366,6,13
3367,3,5
3368,26,2
3369,3,111
3370,8,33
3371,9,1
3372,25,9
3373,3,3
3374,4,23
3375,2,4
3376,24,3
3377,2,1
3378,2,16
3379,17,18
3380,8,2
3381,30,2
3382,16,1
3383,56,4
3384,25,16
3385,2,9
3386,4,13
3387,39,19
3388,3,1
3389,7,1
3390,5,5
3391,7,14
3392,83,12
3393,1,4
3394,5,23
3395,13,86
3396,1,3
3397,5,20
3398,5,19
3399,18,1
3400,13,3
3401,3,1
3402,4,1
3403,48,126
3404,10,11
3405,6,20
3406,6,6
3407,2,14
3408,22,2
3409,2,31
3410,90,8
3411,42,186
3412,29,4
3413,79,30
3414,9,6
3415,5,4
3416,2,1
3417,10,2
3418,3,1
3419,6,16
3420,4,22
3421,74,19
3422,1,2
3423,8,2
3424,3,2
3425,23,15
3426,6,5
3427,9,6
3428,3,2
3429,21,6
3430,4,14
3431,33,11
3432,22,5
3433,11,3
3434,1,86
3435,2,73
3436,10,6
3437,1,112
3438,1,17
3439,6,21
3440,4,43
3441,1,2
3442,12,10
3443,2,1
3444,50,11
3445,1,8
3446,5,2
3447,5,1
3448,3,5
3449,8,52
3450,31,10
3451,30,1
3452,3,5
3453,16,2
3454,8,3
3455,3,4
3456,84,4
3457,10,4
3458,104,14
3459,4,8
3460,2,54
3461,7,7
3462,15,1
3463,3,9
3464,68,29
3465,10,35
3466,17,52
3467,6,2
3468,11,6
3469,2,6
3470,4,64
3471,65,2
3472,1,8
3473,1,2
3474,80,5
3475,72,10
3476,21,1
3477,1,8
3478,34,7
3479,1,7
3480,4,5
3481,22,19
3482,2,2
3483,6,5
3484,3,2
3485,7,21
3486,2,2
3487,13,26
3488,9,17
3489,10,93
3490,7,7
3491,26,16
3492,73,1
3493,41,20
3494,1,33
3495,2,1
3496,9,212
3497,4,31
3498,1,4
3499,2,18
3500,29,2
3501,1,22
3502,1,5
3503,15,1
3504,24,94
3505,10,6
3506,8,19
3507,32,1
3508,2,2
3509,1,7
3510,16,8
3511,5,1
3512,6,1
3513,7,4
3514,13,20
3515,66,2
3516,9,54
3517,4,1
3518,26,4
3519,13,12
3520,5,3
3521,1,2
3522,22,32
3523,9,26
3524,1,4
3525,9,12
3526,13,2
3527,31,7
3528,1,153
3529,4,4
3530,6,1
3531,7,1
3532,91,1
3533,4,3
3534,51,6
3535,1,34
3536,24,10
3537,1,1
3538,8,9
3539,1,1
3540,3,7
3541,3,19
3542,4,24
3543,4,4
3544,26,2
3545,68,1
3546,76,1
3547,4,104
3548,7,1
3549,3,149
3550,9,16
3551,39,15
3552,8,51
3553,16,37
3554,24,16
3555,1,6
3556,1,5
3557,4,4
3558,8,13
3559,8,56
3560,24,7
3561,25,4
3562,2,15
3563,28,1
3564,4,9
3565,41,23
3566,2,2
3567,1,11
3568,1,23
3569,1,4
3570,8,2
3571,7,4
3572,3,1
3573,1,2
3574,1,16
3575,7,2
3576,1,1
3577,1,2
3578,1,20
3579,2,8
3580,15,92
3581,4,2
3582,1,1
3583,4,18
3584,112,5
3585,20,1
3586,77,3
3587,15,1
3588,27,2
3589,1,11
3590,3,9
3591,1,76
3592,15,3
3593,4,5
3594,27,71
3595,5,18
3596,1,112
3597,1,19
3598,3,7
3599,3,2
3600,1,4
3601,63,1
3602,1,15
3603,1,8
3604,1,1
3605,14,2
3606,33,97
3607,5,16
3608,2,1
3609,2,7
3610,9,4
3611,1,2
3612,2,7
3613,28,1
3614,4,9
3615,1,2
3616,2,3
3617,45,7
3618,4,5
3619,5,14
3620,1,41
3621,3,28
3622,1,2
3623,44,20
3624,1,4
3625,12,1
3626,6,1
3627,12,1
3628,3,2
3629,1,15
3630,23,2
3631,7,6
3632,3,1
3633,67,9
3634,25,47
3635,5,3
3636,10,19
3637,32,13
3638,6,1
3639,13,1
3640,32,1
3641,1,2
3642,1,19
3643,2,15
3644,47,130
3645,1,8
3646,1,7
3647,4,61
3648,43,14
3649,1,7
3650,6,7
3651,1,4
3652,14,5
3653,1,26
3654,2,4
3655,24,1
3656,2,35
3657,5,75
3658,44,6
3659,1,17
3660,32,5
3661,10,1
3662,5,1
3663,108,1
3664,1,2
3665,1,2
3666,1,1
3667,60,12
3668,11,3
3669,14,13
3670,32,52
3671,2,1
3672,2,5
3673,1,8
3674,6,8
3675,1,1
3676,6,18
3677,1,3
3678,1,1
3679,1,3
3680,1,2
3681,12,13
3682,66,2
3683,1,8
3684,2,55
3685,17,10
3686,16,3
3687,55,6
3688,1,3
3689,1,10
3690,3,44
3691,5,6
3692,3,21
3693,4,4
3694,1,32
3695,1,3
3696,12,1
3697,25,5
3698,1,2
3699,43,8
3700,1,3
3701,5,33
3702,1,1
3703,27,8
3704,4,14
3705,1,2
3706,1,2
3707,2,6
3708,3,1
3709,24,7
3710,1,3
3711,1,1
3712,2,1
3713,6,7
3714,1,7
3715,21,1
3716,10,12
3717,1,1
3718,11,13
3719,1,2
3720,11,1
3721,2,4
3722,10,1
3723,6,9
3724,1,1
3725,32,6
3726,6,5
3727,2,14
3728,13,4
3729,1,49
3730,1,7
3731,15,1
3732,2,9
3733,2,5
3734,1,1
3735,109,10
3736,1,2
3737,13,17
3738,1,83
3739,94,45
3740,1,2
3741,6,3
3742,6,3
3743,5,5
3744,1,110
3745,69,8
3746,16,11
3747,3,6
3748,24,1
3749,26,1
3750,6,5
3751,5,1
3752,66,5
3753,1,5
3754,1,7
3755,20,2
3756,22,2
3757,1,8
3758,13,16
3759,11,3
3760,1,1
3761,1,13
3762,1,6
3763,3,3
3764,4,1
3765,12,2
3766,1,15
3767,6,14
3768,33,9
3769,23,23
3770,30,24
3771,5,52
3772,2,1
3773,9,11
3774,1,7
3775,8,1
3776,52,2
3777,18,1
3778,8,13
3779,1,5
3780,10,2
3781,26,111
3782,7,33
3783,1,7
3784,4,1
3785,2,9
3786,1,5
3787,3,3
3788,1,23
3789,1,4
3790,6,3
3791,13,1
3792,6,16
3793,1,3
3794,1,2
3795,3,18
3796,4,2
3797,82,2
3798,9,1
3799,1,3
3800,1,8
3801,16,4
3802,1,16
3803,4,9
3804,38,13
3805,2,19
3806,9,5
3807,2,20
3808,66,1
3809,1,1
3810,28,1
3811,6,5
3812,3,14
3813,25,12
3814,4,4
3815,8,23
3816,40,7
3817,7,86
3818,4,3
3819,2,20
3820,26,19
3821,2,1
3822,11,3
3823,1,1
3824,4,1
3825,20,126
3826,18,6
3827,2,11
3828,1,20
3829,6,6
3830,3,14
3831,7,7
3832,1,2
3833,5,31
3834,3,6
3835,1,8
3836,11,186
3837,2,22
3838,4,4
3839,36,30
3840,17,6
3841,69,4
3842,3,1
3843,4,2
3844,2,1
3845,1,5
3846,8,1
3847,9,16
3848,12,22
3849,2,19
3850,2,2
3851,2,2
3852,4,2
3853,2,15
3854,1,4
3855,8,5
3856,1,2
3857,19,6
3858,3,2
3859,24,6
3860,8,14
3861,2,11
3862,79,5
3863,5,3
3864,2,5
3865,1,1
3866,2,86
3867,2,6
3868,9,73
3869,1,13
3870,1,1
3871,1,1
3872,1,2
3873,11,6
3874,1,112
3875,29,17
3876,1,21
3877,4,43
3878,2,2
3879,1,2
3880,2,10
3881,1,1
3882,17,11
3883,1,8
3884,1,6
3885,3,2
3886,4,1
3887,3,5
3888,21,52
3889,6,1
3890,14,10
3891,14,1
3892,2,5
3893,4,2
3894,5,3
3895,3,4
3896,10,4
3897,1,4
3898,1,14
3899,27,8
3900,3,54
3901,26,7
3902,16,1
3903,1,9
3904,1,3
3905,1,29
3906,3,15
3907,7,35
3908,24,52
3909,2,2
3910,2,6
3911,29,6
3912,1,64
3913,27,2
3914,37,8
3915,39,2
3916,31,5
3917,2,10
3918,14,1
3919,4,8
3920,2,1
3921,1,7
3922,5,1
3923,12,7
3924,10,7
3925,2,5
3926,39,19
3927,1,2
3928,1,14
3929,1,21
3930,1,4
3931,4,5
3932,3,2
3933,1,1
3934,3,21
3935,1,4
3936,1,2
3937,5,1
3938,27,26
3939,10,17
3940,4,93
3941,27,7
3942,100,16
3943,33,1
3944,74,20
3945,3,2
3946,3,2
3947,2,33
3948,2,1
3949,27,212
3950,3,31
3951,1,107
3952,1,7
3953,2,4
3954,1,18
3955,1,9
3956,76,2
3957,1,7
3958,1,22
3959,22,5
3960,3,1
3961,12,94
3962,3,6
3963,2,2
3964,9,19
3965,1,3
3966,31,1
3967,3,2
3968,1,1
3969,2,9
3970,9,14
3971,4,7
3972,1,12
3973,3,8
3974,1,3
3975,59,8
3976,1,1
3977,14,1
3978,2,1
3979,1,4
3980,1,6
3981,21,20
3982,4,24
3983,35,2
3984,20,54
3985,1,1
3986,2,4
3987,37,12
3988,24,3
3989,1,2
3990,1,2
3991,2,5
3992,104,32
3993,1,3
3994,9,54
3995,124,26
3996,1,4
3997,9,12
3998,4,4
3999,1,13
4000,16,2
4001,48,7
4002,1,153
4003,2,4
4004,44,1
4005,62,43
4006,30,1
4007,21,5
4008,28,1
4009,1,5
4010,11,3
4011,16,6
4012,12,12
4013,26,34
4014,18,10
4015,1,1
4016,2,18
4017,1,10
4018,3,9
4019,2,1
4020,9,2
4021,1,6
4022,2,7
4023,1,1
4024,9,19
4025,3,24
4026,13,4
4027,6,2
4028,45,1
4029,1,11
4030,2,3
4031,4,58
4032,38,1
4033,7,104
4034,1,55
4035,8,1
4036,1,6
4037,2,149
4038,9,16
4039,5,15
4040,5,51
4041,7,37
4042,25,16
4043,2,6
4044,2,10
4045,1,5
4046,23,4
4047,2,1
4048,29,13
4049,7,56
4050,8,7
4051,1,1
4052,19,4
4053,2,15
4054,3,1
4055,2,9
4056,5,4
4057,48,3
4058,6,4
4059,36,11
4060,18,31
4061,5,121
4062,2,9
4063,5,16
4064,2,1
4065,1,3
4066,125,39
4067,4,85
4068,99,72
4069,10,3
4070,11,4
4071,19,1
4072,3,63
4073,78,4
4074,17,15
4075,8,2
4076,43,1
4077,66,5
4078,21,19
4079,128,13
4080,1,7
4081,1,4
4082,21,1
4083,36,10
4084,1,6
4085,37,4
4086,57,39
4087,2,3
4088,1,12
4089,1,1
4090,13,1
4091,28,2
4092,1,2
4093,9,9
4094,36,12
4095,37,11
4096,38,85
4097,5,43
4098,18,14
4099,7,14
4100,52,2
4101,14,9
4102,4,104
4103,36,1
4104,29,172
4105,15,16
4106,1,19
4107,13,10
4108,27,11
4109,1,8
4110,5,7
4111,3,2
4112,15,190
4113,8,6
4114,1,5
4115,20,5
4116,12,3
4117,112,5
4118,25,1
4119,1,4
4120,72,3
4121,26,3
4122,6,12
4123,42,40
4124,41,17
4125,2,8
4126,69,1
4127,1,1
4128,11,1
4129,10,7
4130,108,10
4131,5,2
4132,13,2
4133,40,4
4134,20,15
4135,5,1
4136,7,3
4137,31,6
4138,24,1
4139,8,3
4140,68,36
4141,18,4
4142,12,104
4143,7,20
4144,12,5
4145,5,5
4146,7,1
4147,23,3
4148,7,8
4149,53,2
4150,2,57
4151,33,3
4152,115,30
4153,74,2
4154,2,1
4155,1,2
4156,11,3
4157,15,2
4158,16,25
4159,76,43
4160,10,15
4161,25,5
4162,1,5
4163,14,3
4164,28,7
4165,45,21
4166,12,65
4167,35,3
4168,16,4
4169,2,9
4170,1,12
4171,3,16
4172,2,1
4173,11,35
4174,1,45
4175,1,1
4176,1,4
4177,21,2
4178,2,70
4179,7,2
4180,8,22
4181,14,33
4182,67,12
4183,2,1
4184,8,9
4185,9,7
4186,6,9
4187,29,16
4188,45,10
4189,44,4
4190,5,14
4191,13,15
4192,6,1
4193,94,5
4194,11,5
4195,105,11
4196,31,27
4197,5,116
4198,33,9
4199,4,16
4200,1,1
4201,69,20
4202,3,2
4203,17,133
4204,41,65
4205,5,109
4206,92,10
4207,38,18
4208,111,1
4209,74,14
4210,5,10
4211,2,11
4212,1,4
4213,5,2
4214,46,5
4215,11,7
4216,6,15
4217,20,23
4218,1,2
4219,2,2
4220,1,4
4221,2,1
4222,5,2
4223,3,2
4224,2,2
4225,4,20
4226,38,8
4227,4,92
4228,10,2
4229,30,18
4230,14,5
4231,4,1
4232,29,3
4233,49,1
4234,88,2
4235,2,11
4236,2,76
4237,65,3
4238,9,71
4239,2,18
4240,42,1
4241,1,8
4242,22,1
4243,4,2
4244,3,97
4245,8,16
4246,1,7
4247,8,4
4248,2,7
4249,35,1
4250,1,9
4251,58,7
4252,5,5
4253,31,20
4254,7,1
4255,2,1
4256,4,1
4257,5,2
4258,11,2
4259,1,1
4260,34,9
4261,4,47
4262,18,19
4263,18,13
4264,1,1
4265,16,1
4266,1,19
4267,79,130
4268,5,61
4269,90,14
4270,1,7
4271,12,7
4272,3,4
4273,13,5
4274,27,4
4275,55,1
4276,1,75
4277,6,6
4278,61,17
4279,5,5
4280,11,1
4281,33,1
4282,11,1
4283,14,1
4284,7,12
4285,1,3
4286,13,13
4287,10,52
4288,5,8
4289,2,1
4290,3,18
4291,4,1
4292,1,2
4293,1,13
4294,5,2
4295,11,8
4296,5,55
4297,16,3
4298,58,6
4299,1,10
4300,1,44
4301,109,6
4302,1,21
4303,7,4
4304,3,1
4305,4,5
4306,47,8
4307,17,1
4308,17,8
4309,9,14
4310,1,2
4311,21,6
4312,7,1
4313,25,7
4314,2,3
4315,1,1
4316,21,7
4317,1,7
4318,16,1
4319,5,12
4320,3,1
4321,21,13
4322,33,1
4323,2,4
4324,21,1
4325,4,1
4326,16,6
4327,34,14
4328,5,4
4329,4,49
4330,1,7
4331,35,1
4332,3,9
4333,16,10
4334,3,17
4335,3,83
4336,5,45
4337,5,2
4338,4,3
4339,5,3
4340,14,5
4341,2,110
4342,9,8
4343,1,11
4344,5,6
4345,19,1
4346,40,1
4347,15,5
4348,3,1
4349,62,5
4350,1,2
4351,14,2
4352,24,16
4353,46,3
4354,1,1
4355,10,3
4356,1,1
4357,16,2
4358,3,14
4359,3,9
4360,14,23
4361,8,24
4362,9,11
4363,6,7
4364,17,1
4365,13,1
4366,6,13
4367,3,5
4368,26,2
4369,3,111
4370,8,33
4371,9,1
4372,25,9
4373,3,3
4374,4,23
4375,2,4
4376,24,3
4377,2,1
4378,2,16
4379,17,18
4380,8,2
4381,30,2
4382,16,1
4383,56,4
4384,25,16
4385,2,9
4386,4,13
4387,39,19
4388,3,1
4389,7,1
4390,5,5
4391,7,14
4392,83,12
4393,1,4
4394,5,23
4395,13,86
4396,1,3
4397,5,20
4398,5,19
4399,18,1
4400,13,3
4401,3,1
4402,4,1
4403,48,126
4404,10,11
4405,6,20
4406,6,6
4407,2,14
4408,22,2
4409,2,31
4410,90,8
4411,42,186
4412,29,4
4413,79,30
4414,9,6
4415,5,4
4416,2,1
4417,10,2
4418,3,1
4419,6,16
4420,4,22
4421,74,19
4422,1,2
4423,8,2
4424,3,2
4425,23,15
4426,6,5
4427,9,6
4428,3,2
4429,21,6
4430,4,14
4431,33,11
4432,22,5
4433,11,3
4434,1,86
4435,2,73
4436,10,6
4437,1,112
4438,1,17
4439,6,21
4440,4,43
4441,1,2
4442,12,10
4443,2,1
4444,50,11
4445,1,8
4446,5,2
4447,5,1
4448,3,5
4449,8,52
4450,31,10
4451,30,1
4452,3,5
4453,16,2
4454,8,3
4455,3,4
4456,84,4
4457,10,4
4458,104,14
4459,4,8
4460,2,54
4461,7,7
4462,15,1
4463,3,9
4464,68,29
4465,10,35
4466,17,52
4467,6,2
4468,11,6
4469,2,6
4470,4,64
4471,65,2
4472,1,8
4473,1,2
4474,80,5
4475,72,10
4476,21,1
4477,1,8
4478,34,7
4479,1,7
4480,4,5
4481,22,19
4482,2,2
4483,6,5
4484,3,2
4485,7,21
4486,2,2
4487,13,26
4488,9,17
4489,10,93
4490,7,7
4491,26,16
4492,73,1
4493,41,20
4494,1,33
4495,2,1
4496,9,212
4497,4,31
4498,1,4
4499,2,18
4500,29,2
4501,1,22
4502,1,5
4503,15,1
4504,24,94
4505,10,6
4506,8,19
4507,32,1
4508,2,2
4509,1,7
4510,16,8
4511,5,1
4512,6,1
4513,7,4
4514,13,20
4515,66,2
4516,9,54
4517,4,1
4518,26,4
4519,13,12
4520,5,3
4521,1,2
4522,22,32
4523,9,26
4524,1,4
4525,9,12
4526,13,2
4527,31,7
4528,1,153
4529,4,4
4530,6,1
4531,7,1
4532,91,1
4533,4,3
4534,51,6
4535,1,34
4536,24,10
4537,1,1
4538,8,9
4539,1,1
4540,3,7
4541,3,19
4542,4,24
4543,4,4
4544,26,2
4545,68,1
4546,76,1
4547,4,104
4548,7,1
4549,3,149
4550,9,16
4551,39,15
4552,8,51
4553,16,37
4554,24,16
4555,1,6
4556,1,5
4557,4,4
4558,8,13
4559,8,56
4560,24,7
4561,25,4
4562,2,15
4563,28,1
4564,4,9
4565,41,23
4566,2,2
4567,1,11
4568,1,23
4569,1,4
4570,8,2
4571,7,4
4572,3,1
4573,1,2
4574,1,16
4575,7,2
4576,1,1
4577,1,2
4578,1,20
4579,2,8
4580,15,92
4581,4,2
4582,1,1
4583,4,18
4584,112,5
4585,20,1
4586,77,3
4587,15,1
4588,27,2
4589,1,11
4590,3,9
4591,1,76
4592,15,3
4593,4,5
4594,27,71
4595,5,18
4596,1,112
4597,1,19
4598,3,7
4599,3,2
4600,1,4
4601,63,1
4602,1,15
4603,1,8
4604,1,1
4605,14,2
4606,33,97
4607,5,16
4608,2,1
4609,2,7
4610,9,4
4611,1,2
4612,2,7
4613,28,1
4614,4,9
4615,1,2
4616,2,3
4617,45,7
4618,4,5
4619,5,14
4620,1,41
4621,3,28
4622,1,2
4623,44,20
4624,1,4
4625,12,1
4626,6,1
4627,12,1
4628,3,2
4629,1,15
4630,23,2
4631,7,6
4632,3,1
4633,67,9
4634,25,47
4635,5,3
4636,10,19
4637,32,13
4638,6,1
4639,13,1
4640,32,1
4641,1,2
4642,1,19
4643,2,15
4644,47,130
4645,1,8
4646,1,7
4647,4,61
4648,43,14
4649,1,7
4650,6,7
4651,1,4
4652,14,5
4653,1,26
4654,2,4
4655,24,1
4656,2,35
4657,5,75
4658,44,6
4659,1,17
4660,32,5
4661,10,1
4662,5,1
4663,108,1
4664,1,2
4665,1,2
4666,1,1
4667,60,12
4668,11,3
4669,14,13
4670,32,52
4671,2,1
4672,2,5
4673,1,8
4674,6,8
4675,1,1
4676,6,18
4677,1,3
4678,1,1
4679,1,3
4680,1,2
4681,12,13
4682,66,2
4683,1,8
4684,2,55
4685,17,10
4686,16,3
4687,55,6
4688,1,3
4689,1,10
4690,3,44
4691,5,6
4692,3,21
4693,4,4
4694,1,32
4695,1,3
4696,12,1
4697,25,5
4698,1,2
4699,43,8
4700,1,3
4701,5,33
4702,1,1
4703,27,8
4704,4,14
4705,1,2
4706,1,2
4707,2,6
4708,3,1
4709,24,7
4710,1,3
4711,1,1
4712,2,1
4713,6,7
4714,1,7
4715,21,1
4716,10,12
4717,1,1
4718,11,13
4719,1,2
4720,11,1
4721,2,4
4722,10,1
4723,6,9
4724,1,1
4725,32,6
4726,6,5
4727,2,14
4728,13,4
4729,1,49
4730,1,7
4731,15,1
4732,2,9
4733,2,5
4734,1,1
4735,109,10
4736,1,2
4737,13,17
4738,1,83
4739,94,45
4740,1,2
4741,6,3
4742,6,3
4743,5,5
4744,1,110
4745,69,8
4746,16,11
4747,3,6
4748,24,1
4749,26,1
4750,6,5
4751,5,1
4752,66,5
4753,1,5
4754,1,7
4755,20,2
4756,22,2
4757,1,8
4758,13,16
4759,11,3
4760,1,1
4761,1,13
4762,1,6
4763,3,3
4764,4,1
4765,12,2
4766,1,15
4767,6,14
4768,33,9
4769,23,23
4770,30,24
4771,5,52
4772,2,1
4773,9,11
4774,1,7
4775,8,1
4776,52,2
4777,18,1
4778,8,13
4779,1,5
4780,10,2
4781,26,111
4782,7,33
4783,1,7
4784,4,1
4785,2,9
4786,1,5
4787,3,3
4788,1,23
4789,1,4
4790,6,3
4791,13,1
4792,6,16
4793,1,3
4794,1,2
4795,3,18
4796,4,2
4797,82,2
4798,9,1
4799,1,3
4800,1,8
4801,16,4
4802,1,16
4803,4,9
4804,38,13
4805,2,19
4806,9,5
4807,2,20
4808,66,1
4809,1,1
4810,28,1
4811,6,5
4812,3,14
4813,25,12
4814,4,4
4815,8,23
4816,40,7
4817,7,86
4818,4,3
4819,2,20
4820,26,19
4821,2,1
4822,11,3
4823,1,1
4824,4,1
4825,20,126
4826,18,6
4827,2,11
4828,1,20
4829,6,6
4830,3,14
4831,7,7
4832,1,2
4833,5,31
4834,3,6
4835,1,8
4836,11,186
4837,2,22
4838,4,4
4839,36,30
4840,17,6
4841,69,4
4842,3,1
4843,4,2
4844,2,1
4845,1,5
4846,8,1
4847,9,16
4848,12,22
4849,2,19
4850,2,2
4851,2,2
4852,4,2
4853,2,15
4854,1,4
4855,8,5
4856,1,2
4857,19,6
4858,3,2
4859,24,6
4860,8,14
4861,2,11
4862,79,5
4863,5,3
4864,2,5
4865,1,1
4866,2,86
4867,2,6
4868,9,73
4869,1,13
4870,1,1
4871,1,1
4872,1,2
4873,11,6
4874,1,112
4875,29,17
4876,1,21
4877,4,43
4878,2,2
4879,1,2
4880,2,10
4881,1,1
4882,17,11
4883,1,8
4884,1,6
4885,3,2
4886,4,1
4887,3,5
4888,21,52
4889,6,1
4890,14,10
4891,14,1
4892,2,5
4893,4,2
4894,5,3
4895,3,4
4896,10,4
4897,1,4
4898,1,14
4899,27,8
4900,3,54
4901,26,7
4902,16,1
4903,1,9
4904,1,3
4905,1,29
4906,3,15
4907,7,35
4908,24,52
4909,2,2
4910,2,6
4911,29,6
4912,1,64
4913,27,2
4914,37,8
4915,39,2
4916,31,5
4917,2,10
4918,14,1
4919,4,8
4920,2,1
4921,1,7
4922,5,1
4923,12,7
4924,10,7
4925,2,5
4926,39,19
4927,1,2
4928,1,14
4929,1,21
4930,1,4
4931,4,5
4932,3,2
4933,1,1
4934,3,21
4935,1,4
4936,1,2
4937,5,1
4938,27,26
4939,10,17
4940,4,93
4941,27,7
4942,100,16
4943,33,1
4944,74,20
4945,3,2
4946,3,2
4947,2,33
4948,2,1
4949,27,212
4950,3,31
4951,1,107
4952,1,7
4953,2,4
4954,1,18
4955,1,9
4956,76,2
4957,1,7
4958,1,22
4959,22,5
4960,3,1
4961,12,94
4962,3,6
4963,2,2
4964,9,19
4965,1,3
4966,31,1
4967,3,2
4968,1,1
4969,2,9
4970,9,14
4971,4,7
4972,1,12
4973,3,8
4974,1,3
4975,59,8
4976,1,1
4977,14,1
4978,2,1
4979,1,4
4980,1,6
4981,21,20
4982,4,24
4983,35,2
4984,20,54
4985,1,1
4986,2,4
4987,37,12
4988,24,3
4989,1,2
4990,1,2
4991,2,5
4992,104,32
4993,1,3
4994,9,54
4995,124,26
4996,1,4
4997,9,12
4998,4,4
4999,1,13
5000,16,2
5001,48,7
5002,1,153
5003,2,4
5004,44,1
5005,62,43
5006,30,1
5007,21,5
5008,28,1
5009,1,5
5010,11,3
5011,16,6
5012,12,12
5013,26,34
5014,18,10
5015,1,1
5016,2,18
5017,1,10
5018,3,9
5019,2,1
5020,9,2
5021,1,6
5022,2,7
5023,1,1
5024,9,19
5025,3,24
5026,13,4
5027,6,2
5028,45,1
5029,1,11
5030,2,3
5031,4,58
5032,38,1
5033,7,104
5034,1,55
5035,8,1
5036,1,6
5037,2,149
5038,9,16
5039,5,15
5040,5,51
5041,7,37
5042,25,16
5043,2,6
5044,2,10
5045,1,5
5046,23,4
5047,2,1
5048,29,13
5049,7,56
5050,8,7
5051,1,1
5052,19,4
5053,2,15
5054,3,1
5055,2,9
5056,5,4
5057,48,3
5058,6,4
5059,36,11
5060,18,31
5061,5,121
5062,2,9
5063,5,16
5064,2,1
5065,1,3
5066,125,39
5067,4,85
5068,99,72
5069,10,3
5070,11,4
5071,19,1
5072,3,63
5073,78,4
5074,17,15
5075,8,2
5076,43,1
5077,66,5
5078,21,19
5079,128,13
5080,1,7
5081,1,4
5082,21,1
5083,36,10
5084,1,6
5085,37,4
5086,57,39
5087,2,3
5088,1,12
5089,1,1
5090,13,1
5091,28,2
5092,1,2
5093,9,9
5094,36,12
5095,37,11
5096,38,85
5097,5,43
5098,18,14
5099,7,14
5100,52,2
5101,14,9
5102,4,104
5103,36,1
5104,29,172
5105,15,16
5106,1,19
5107,13,10
5108,27,11
5109,1,8
5110,5,7
5111,3,2
5112,15,190
5113,8,6
5114,1,5
5115,20,5
5116,12,3
5117,112,5
5118,25,1
5119,1,4
5120,72,3
5121,26,3
5122,6,12
5123,42,40
5124,41,17
5125,2,8
5126,69,1
5127,1,1
5128,11,1
5129,10,7
5130,108,10
5131,5,2
5132,13,2
5133,40,4
5134,20,15
5135,5,1
5136,7,3
5137,31,6
5138,24,1
5139,8,3
5140,68,36
5141,18,4
5142,12,104
5143,7,20
5144,12,5
5145,5,5
5146,7,1
5147,23,3
5148,7,8
5149,53,2
5150,2,57
5151,33,3
5152,115,30
5153,74,2
5154,2,1
5155,1,2
5156,11,3
5157,15,2
5158,16,25
5159,76,43
5160,10,15
5161,25,5
5162,1,5
5163,14,3
5164,28,7
5165,45,21
5166,12,65
5167,35,3
5168,16,4
5169,2,9
5170,1,12
5171,3,16
5172,2,1
5173,11,35
5174,1,45
5175,1,1
5176,1,4
5177,21,2
5178,2,70
5179,7,2
5180,8,22
5181,14,33
5182,67,12
5183,2,1
5184,8,9
5185,9,7
5186,6,9
5187,29,16
5188,45,10
5189,44,4
5190,5,14
5191,13,15
5192,6,1
5193,94,5
5194,11,5
5195,105,11
5196,31,27
5197,5,116
5198,33,9
5199,4,16
5200,1,1
5201,69,20
5202,3,2
5203,17,133
5204,41,65
5205,5,109
5206,92,10
5207,38,18
5208,111,1
5209,74,14
5210,5,10
5211,2,11
5212,1,4
5213,5,2
5214,46,5
5215,11,7
5216,6,15
5217,20,23
5218,1,2
5219,2,2
5220,1,4
5221,2,1
5222,5,2
5223,3,2
5224,2,2
5225,4,20
5226,38,8
5227,4,92
5228,10,2
5229,30,18
5230,14,5
5231,4,1
5232,29,3
5233,49,1
5234,88,2
5235,2,11
5236,2,76
5237,65,3
5238,9,71
5239,2,18
5240,42,1
5241,1,8
5242,22,1
5243,4,2
5244,3,97
5245,8,16
5246,1,7
5247,8,4
5248,2,7
5249,35,1
5250,1,9
5251,58,7
5252,5,5
5253,31,20
5254,7,1
5255,2,1
5256,4,1
5257,5,2
5258,11,2
5259,1,1
5260,34,9
5261,4,47
5262,18,19
5263,18,13
5264,1,1
5265,16,1
5266,1,19
5267,79,130
5268,5,61
5269,90,14
5270,1,7
5271,12,7
5272,3,4
5273,13,5
5274,27,4
5275,55,1
5276,1,75
5277,6,6
5278,61,17
5279,5,5
5280,11,1
5281,33,1
5282,11,1
5283,14,1
5284,7,12
5285,1,3
5286,13,13
5287,10,52
5288,5,8
5289,2,1
5290,3,18
5291,4,1
5292,1,2
5293,1,13
5294,5,2
5295,11,8
5296,5,55
5297,16,3
5298,58,6
5299,1,10
5300,1,44
5301,109,6
5302,1,21
5303,7,4
5304,3,1
5305,4,5
5306,47,8
5307,17,1
5308,17,8
5309,9,14
5310,1,2
5311,21,6
5312,7,1
5313,25,7
5314,2,3
5315,1,1
5316,21,7
5317,1,7
5318,16,1
5319,5,12
5320,3,1
5321,21,13
5322,33,1
5323,2,4
5324,21,1
5325,4,1
5326,16,6
5327,34,14
5328,5,4
5329,4,49
5330,1,7
5331,35,1
5332,3,9
5333,16,10
5334,3,17
5335,3,83
5336,5,45
5337,5,2
5338,4,3
5339,5,3
5340,14,5
5341,2,110
5342,9,8
5343,1,11
5344,5,6
5345,19,1
5346,40,1
5347,15,5
5348,3,1
5349,62,5
5350,1,2
5351,14,2
5352,24,16
5353,46,3
5354,1,1
5355,10,3
5356,1,1
5357,16,2
5358,3,14
5359,3,9
5360,14,23
5361,8,24
5362,9,11
5363,6,7
5364,17,1
5365,13,1
5366,6,13
5367,3,5
5368,26,2
5369,3,111
5370,8,33
5371,9,1
5372,25,9
5373,3,3
5374,4,23
5375,2,4
5376,24,3
5377,2,1
5378,2,16
5379,17,18
5380,8,2
5381,30,2
5382,16,1
5383,56,4
5384,25,16
5385,2,9
5386,4,13
5387,39,19
5388,3,1
5389,7,1
5390,5,5
5391,7,14
5392,83,12
5393,1,4
5394,5,23
5395,13,86
5396,1,3
5397,5,20
5398,5,19
5399,18,1
5400,13,3
5401,3,1
5402,4,1
5403,48,126
5404,10,11
5405,6,20
5406,6,6
5407,2,14
5408,22,2
5409,2,31
5410,90,8
5411,42,186
5412,29,4
5413,79,30
5414,9,6
5415,5,4
5416,2,1
5417,10,2
5418,3,1
5419,6,16
5420,4,22
5421,74,19
5422,1,2
5423,8,2
5424,3,2
5425,23,15
5426,6,5
5427,9,6
5428,3,2
5429,21,6
5430,4,14
5431,33,11
5432,22,5
5433,11,3
5434,1,86
5435,2,73
5436,10,6
5437,1,112
5438,1,17
5439,6,21
5440,4,43
5441,1,2
5442,12,10
5443,2,1
5444,50,11
5445,1,8
5446,5,2
5447,5,1
5448,3,5
5449,8,52
5450,31,10
5451,30,1
5452,3,5
5453,16,2
5454,8,3
5455,3,4
5456,84,4
5457,10,4
5458,104,14
5459,4,8
5460,2,54
5461,7,7
5462,15,1
5463,3,9
5464,68,29
5465,10,35
5466,17,52
5467,6,2
5468,11,6
5469,2,6
5470,4,64
5471,65,2
5472,1,8
5473,1,2
5474,80,5
5475,72,10
5476,21,1
5477,1,8
5478,34,7
5479,1,7
5480,4,5
5481,22,19
5482,2,2
5483,6,5
5484,3,2
5485,7,21
5486,2,2
5487,13,26
5488,9,17
5489,10,93
5490,7,7
5491,26,16
5492,73,1
5493,41,20
5494,1,33
5495,2,1
5496,9,212
5497,4,31
5498,1,4
5499,2,18
5500,29,2
5501,1,22
5502,1,5
5503,15,1
5504,24,94
5505,10,6
5506,8,19
5507,32,1
5508,2,2
5509,1,7
5510,16,8
5511,5,1
5512,6,1
5513,7,4
5514,13,20
5515,66,2
5516,9,54
5517,4,1
5518,26,4
5519,13,12
5520,5,3
5521,1,2
5522,22,32
5523,9,26
5524,1,4
5525,9,12
5526,13,2
5527,31,7
5528,1,153
5529,4,4
5530,6,1
5531,7,1
5532,91,1
5533,4,3
5534,51,6
5535,1,34
5536,24,10
5537,1,1
5538,8,9
5539,1,1
5540,3,7
5541,3,19
5542,4,24
5543,4,4
5544,26,2
5545,68,1
5546,76,1
5547,4,104
5548,7,1
5549,3,149
5550,9,16
5551,39,15
5552,8,51
5553,16,37
5554,24,16
5555,1,6
5556,1,5
5557,4,4
5558,8,13
5559,8,56
5560,24,7
5561,25,4
5562,2,15
5563,28,1
5564,4,9
5565,41,23
5566,2,2
5567,1,11
5568,1,23
5569,1,4
5570,8,2
5571,7,4
5572,3,1
5573,1,2
5574,1,16
5575,7,2
5576,1,1
5577,1,2
5578,1,20
5579,2,8
5580,15,92
5581,4,2
5582,1,1
5583,4,18
5584,112,5
5585,20,1
5586,77,3
5587,15,1
5588,27,2
5589,1,11
5590,3,9
5591,1,76
5592,15,3
5593,4,5
5594,27,71
5595,5,18
5596,1,112
5597,1,19
5598,3,7
5599,3,2
5600,1,4
5601,63,1
5602,1,15
5603,1,8
5604,1,1
5605,14,2
5606,33,97
5607,5,16
5608,2,1
5609,2,7
5610,9,4
5611,1,2
5612,2,7
5613,28,1
5614,4,9
5615,1,2
5616,2,3
5617,45,7
5618,4,5
5619,5,14
5620,1,41
5621,3,28
5622,1,2
5623,44,20
5624,1,4
5625,12,1
5626,6,1
5627,12,1
5628,3,2
5629,1,15
5630,23,2
5631,7,6
5632,3,1
5633,67,9
5634,25,47
5635,5,3
5636,10,19
5637,32,13
5638,6,1
5639,13,1
5640,32,1
5641,1,2
5642,1,19
5643,2,15
5644,47,130
5645,1,8
5646,1,7
5647,4,61
5648,43,14
5649,1,7
5650,6,7
5651,1,4
5652,14,5
5653,1,26
5654,2,4
5655,24,1
5656,2,35
5657,5,75
5658,44,6
5659,1,17
5660,32,5
5661,10,1
5662,5,1
5663,108,1
5664,1,2
5665,1,2
5666,1,1
5667,60,12
5668,11,3
5669,14,13
5670,32,52
5671,2,1
5672,2,5
5673,1,8
5674,6,8
5675,1,1
5676,6,18
5677,1,3
5678,1,1
5679,1,3
5680,1,2
5681,12,13
5682,66,2
5683,1,8
5684,2,55
5685,17,10
5686,16,3
5687,55,6
5688,1,3
5689,1,10
5690,3,44
5691,5,6
5692,3,21
5693,4,4
5694,1,32
5695,1,3
5696,12,1
5697,25,5
5698,1,2
5699,43,8
5700,1,3
5701,5,33
5702,1,1
5703,27,8
5704,4,14
5705,1,2
5706,1,2
5707,2,6
5708,3,1
5709,24,7
5710,1,3
5711,1,1
5712,2,1
5713,6,7
5714,1,7
5715,21,1
5716,10,12
5717,1,1
5718,11,13
5719,1,2
5720,11,1
5721,2,4
5722,10,1
5723,6,9
5724,1,1
5725,32,6
5726,6,5
5727,2,14
5728,13,4
5729,1,49
5730,1,7
5731,15,1
5732,2,9
5733,2,5
5734,1,1
5735,109,10
5736,1,2
5737,13,17
5738,1,83
5739,94,45
5740,1,2
5741,6,3
5742,6,3
5743,5,5
5744,1,110
5745,69,8
5746,16,11
5747,3,6
5748,24,1
5749,26,1
5750,6,5
5751,5,1
5752,66,5
5753,1,5
5754,1,7
5755,20,2
5756,22,2
5757,1,8
5758,13,16
5759,11,3
5760,1,1
5761,1,13
5762,1,6
5763,3,3
5764,4,1
5765,12,2
5766,1,15
5767,6,14
5768,33,9
5769,23,23
5770,30,24
5771,5,52
5772,2,1
5773,9,11
5774,1,7
5775,8,1
5776,52,2
5777,18,1
5778,8,13
5779,1,5
5780,10,2
5781,26,111
5782,7,33
5783,1,7
5784,4,1
5785,2,9
5786,1,5
5787,3,3
5788,1,23
5789,1,4
5790,6,3
5791,13,1
5792,6,16
5793,1,3
5794,1,2
5795,3,18
5796,4,2
5797,82,2
5798,9,1
5799,1,3
5800,1,8
5801,16,4
5802,1,16
5803,4,9
5804,38,13
5805,2,19
5806,9,5
5807,2,20
5808,66,1
5809,1,1
5810,28,1
5811,6,5
5812,3,14
5813,25,12
5814,4,4
5815,8,23
5816,40,7
5817,7,86
5818,4,3
5819,2,20
5820,26,19
5821,2,1
5822,11,3
5823,1,1
5824,4,1
5825,20,126
5826,18,6
5827,2,11
5828,1,20
5829,6,6
5830,3,14
5831,7,7
5832,1,2
5833,5,31
5834,3,6
5835,1,8
5836,11,186
5837,2,22
5838,4,4
5839,36,30
5840,17,6
5841,69,4
5842,3,1
5843,4,2
5844,2,1
5845,1,5
5846,8,1
5847,9,16
5848,12,22
5849,2,19
5850,2,2
5851,2,2
5852,4,2
5853,2,15
5854,1,4
5855,8,5
5856,1,2
5857,19,6
5858,3,2
5859,24,6
5860,8,14
5861,2,11
5862,79,5
5863,5,3
5864,2,5
5865,1,1
5866,2,86
5867,2,6
5868,9,73
5869,1,13
5870,1,1
5871,1,1
5872,1,2
5873,11,6
5874,1,112
5875,29,17
5876,1,21
5877,4,43
5878,2,2
5879,1,2
5880,2,10
5881,1,1
5882,17,11
5883,1,8
5884,1,6
5885,3,2
5886,4,1
5887,3,5
5888,21,52
5889,6,1
5890,14,10
5891,14,1
5892,2,5
5893,4,2
5894,5,3
5895,3,4
5896,10,4
5897,1,4
5898,1,14
5899,27,8
5900,3,54
5901,26,7
5902,16,1
5903,1,9
5904,1,3
5905,1,29
5906,3,15
5907,7,35
5908,24,52
5909,2,2
5910,2,6
5911,29,6
5912,1,64
5913,27,2
5914,37,8
5915,39,2
5916,31,5
5917,2,10
5918,14,1
5919,4,8
5920,2,1
5921,1,7
5922,5,1
5923,12,7
5924,10,7
5925,2,5
5926,39,19
5927,1,2
5928,1,14
5929,1,21
5930,1,4
5931,4,5
5932,3,2
5933,1,1
5934,3,21
5935,1,4
5936,1,2
5937,5,1
5938,27,26
5939,10,17
5940,4,93
5941,27,7
5942,100,16
5943,33,1
5944,74,20
5945,3,2
5946,3,2
5947,2,33
5948,2,1
5949,27,212
5950,3,31
5951,1,107
5952,1,7
5953,2,4
5954,1,18
5955,1,9
5956,76,2
5957,1,7
5958,1,22
5959,22,5
5960,3,1
5961,12,94
5962,3,6
5963,2,2
5964,9,19
5965,1,3
5966,31,1
5967,3,2
5968,1,1
5969,2,9
5970,9,14
5971,4,7
5972,1,12
5973,3,8
5974,1,3
5975,59,8
5976,1,1
5977,14,1
5978,2,1
5979,1,4
5980,1,6
5981,21,20
5982,4,24
5983,35,2
5984,20,54
5985,1,1
5986,2,4
5987,37,12
5988,24,3
5989,1,2
5990,1,2
5991,2,5
5992,104,32
5993,1,3
5994,9,54
5995,124,26
5996,1,4
5997,9,12
5998,4,4
5999,1,13
6000,16,2
6001,48,7
6002,1,153
6003,2,4
6004,44,1
6005,62,43
6006,30,1
6007,21,5
6008,28,1
6009,1,5
6010,11,3
6011,16,6
6012,12,12
6013,26,34
6014,18,10
6015,1,1
6016,2,18
6017,1,10
6018,3,9
6019,2,1
6020,9,2
6021,1,6
6022,2,7
6023,1,1
6024,9,19
6025,3,24
6026,13,4
6027,6,2
6028,45,1
6029,1,11
6030,2,3
6031,4,58
6032,38,1
6033,7,104
6034,1,55
6035,8,1
6036,1,6
6037,2,149
6038,9,16
6039,5,15
6040,5,51
6041,7,37
6042,25,16
6043,2,6
6044,2,10
6045,1,5
6046,23,4
6047,2,1
6048,29,13
6049,7,56
6050,8,7
6051,1,1
6052,19,4
6053,2,15
6054,3,1
6055,2,9
6056,5,4
6057,48,3
6058,6,4
6059,36,11
6060,18,31
6061,5,121
6062,2,9
6063,5,16
6064,2,1
6065,1,3
6066,125,39
6067,4,85
6068,99,72
6069,10,3
6070,11,4
6071,19,1
6072,3,63
6073,78,4
6074,17,15
6075,8,2
6076,43,1
6077,66,5
6078,21,19
6079,128,13
6080,1,7
6081,1,4
6082,21,1
6083,36,10
6084,1,6
6085,37,4
6086,57,39
6087,2,3
6088,1,12
6089,1,1
6090,13,1
6091,28,2
6092,1,2
6093,9,9
6094,36,12
6095,37,11
6096,38,85
6097,5,43
6098,18,14
6099,7,14
6100,52,2
6101,14,9
6102,4,104
6103,36,1
6104,29,172
6105,15,16
6106,1,19
6107,13,10
6108,27,11
6109,1,8
6110,5,7
6111,3,2
6112,15,190
6113,8,6
6114,1,5
6115,20,5
6116,12,3
6117,112,5
6118,25,1
6119,1,4
6120,72,3
6121,26,3
6122,6,12
6123,42,40
6124,41,17
6125,2,8
6126,69,1
6127,1,1
6128,11,1
6129,10,7
6130,108,10
6131,5,2
6132,13,2
6133,40,4
6134,20,15
6135,5,1
6136,7,3
6137,31,6
6138,24,1
6139,8,3
6140,68,36
6141,18,4
6142,12,104
6143,7,20
6144,12,5
6145,5,5
6146,7,1
6147,23,3
6148,7,8
6149,53,2
6150,2,57
6151,33,3
6152,115,30
6153,74,2
6154,2,1
6155,1,2
6156,11,3
6157,15,2
6158,16,25
6159,76,43
6160,10,15
6161,25,5
6162,1,5
6163,14,3
6164,28,7
6165,45,21
6166,12,65
6167,35,3
6168,16,4
6169,2,9
6170,1,12
6171,3,16
6172,2,1
6173,11,35
6174,1,45
6175,1,1
6176,1,4
6177,21,2
6178,2,70
6179,7,2
6180,8,22
6181,14,33
6182,67,12
6183,2,1
6184,8,9
6185,9,7
6186,6,9
6187,29,16
6188,45,10
6189,44,4
6190,5,14
6191,13,15
6192,6,1
6193,94,5
6194,11,5
6195,105,11
6196,31,27
6197,5,116
6198,33,9
6199,4,16
6200,1,1
6201,69,20
6202,3,2
6203,17,133
6204,41,65
6205,5,109
6206,92,10
6207,38,18
6208,111,1
6209,74,14
6210,5,10
6211,2,11
6212,1,4
6213,5,2
6214,46,5
6215,11,7
6216,6,15
6217,20,23
6218,1,2
6219,2,2
6220,1,4
6221,2,1
6222,5,2
6223,3,2
6224,2,2
6225,4,20
6226,38,8
6227,4,92
6228,10,2
6229,30,18
6230,14,5
6231,4,1
6232,29,3
6233,49,1
6234,88,2
6235,2,11
6236,2,76
6237,65,3
6238,9,71
6239,2,18
6240,42,1
6241,1,8
6242,22,1
6243,4,2
6244,3,97
6245,8,16
6246,1,7
6247,8,4
6248,2,7
6249,35,1
6250,1,9
6251,58,7
6252,5,5
6253,31,20
6254,7,1
6255,2,1
6256,4,1
6257,5,2
6258,11,2
6259,1,1
6260,34,9
6261,4,47
6262,18,19
6263,18,13
6264,1,1
6265,16,1
6266,1,19
6267,79,130
6268,5,61
6269,90,14
6270,1,7
6271,12,7
6272,3,4
6273,13,5
6274,27,4
6275,55,1
6276,1,75
6277,6,6
6278,61,17
6279,5,5
6280,11,1
6281,33,1
6282,11,1
6283,14,1
6284,7,12
6285,1,3
6286,13,13
6287,10,52
6288,5,8
6289,2,1
6290,3,18
6291,4,1
6292,1,2
6293,1,13
6294,5,2
6295,11,8
6296,5,55
6297,16,3
6298,58,6
6299,1,10
6300,1,44
6301,109,6
6302,1,21
6303,7,4
6304,3,1
6305,4,5
6306,47,8
6307,17,1
6308,17,8
6309,9,14
6310,1,2
6311,21,6
6312,7,1
6313,25,7
6314,2,3
6315,1,1
6316,21,7
6317,1,7
6318,16,1
6319,5,12
6320,3,1
6321,21,13
6322,33,1
6323,2,4
6324,21,1
6325,4,1
6326,16,6
6327,34,14
6328,5,4
6329,4,49
6330,1,7
6331,35,1
6332,3,9
6333,16,10
6334,3,17
6335,3,83
6336,5,45
6337,5,2
6338,4,3
6339,5,3
6340,14,5
6341,2,110
6342,9,8
6343,1,11
6344,5,6
6345,19,1
6346,40,1
6347,15,5
6348,3,1
6349,62,5
6350,1,2
6351,14,2
6352,24,16
6353,46,3
6354,1,1
6355,10,3
6356,1,1
6357,16,2
6358,3,14
6359,3,9
6360,14,23
6361,8,24
6362,9,11
6363,6,7
6364,17,1
6365,13,1
6366,6,13
6367,3,5
6368,26,2
6369,3,111
6370,8,33
6371,9,1
6372,25,9
6373,3,3
6374,4,23
6375,2,4
6376,24,3
6377,2,1
6378,2,16
6379,17,18
6380,8,2
6381,30,2
6382,16,1
6383,56,4
6384,25,16
6385,2,9
6386,4,13
6387,39,19
6388,3,1
6389,7,1
6390,5,5
6391,7,14
6392,83,12
6393,1,4
6394,5,23
6395,13,86
6396,1,3
6397,5,20
6398,5,19
6399,18,1
6400,13,3
6401,3,1
6402,4,1
6403,48,126
6404,10,11
6405,6,20
6406,6,6
6407,2,14
6408,22,2
6409,2,31
6410,90,8
6411,42,186
6412,29,4
6413,79,30
6414,9,6
6415,5,4
6416,2,1
6417,10,2
6418,3,1
6419,6,16
6420,4,22
6421,74,19
6422,1,2
6423,8,2
6424,3,2
6425,23,15
6426,6,5
6427,9,6
6428,3,2
6429,21,6
6430,4,14
6431,33,11
6432,22,5
6433,11,3
6434,1,86
6435,2,73
6436,10,6
6437,1,112
6438,1,17
6439,6,21
6440,4,43
6441,1,2
6442,12,10
6443,2,1
6444,50,11
6445,1,8
6446,5,2
6447,5,1
6448,3,5
6449,8,52
6450,31,10
6451,30,1
6452,3,5
6453,16,2
6454,8,3
6455,3,4
6456,84,4
6457,10,4
6458,104,14
6459,4,8
6460,2,54
6461,7,7
6462,15,1
6463,3,9
6464,68,29
6465,10,35
6466,17,52
6467,6,2
6468,11,6
6469,2,6
6470,4,64
6471,65,2
6472,1,8
6473,1,2
6474,80,5
6475,72,10
6476,21,1
6477,1,8
6478,34,7
6479,1,7
6480,4,5
6481,22,19
6482,2,2
6483,6,5
6484,3,2
6485,7,21
6486,2,2
6487,13,26
6488,9,17
6489,10,93
6490,7,7
6491,26,16
6492,73,1
6493,41,20
6494,1,33
6495,2,1
6496,9,212
6497,4,31
6498,1,4
6499,2,18
6500,29,2
6501,1,22
6502,1,5
6503,15,1
6504,24,94
6505,10,6
6506,8,19
6507,32,1
6508,2,2
6509,1,7
6510,16,8
6511,5,1
6512,6,1
6513,7,4
6514,13,20
6515,66,2
6516,9,54
6517,4,1
6518,26,4
6519,13,12
6520,5,3
6521,1,2
6522,22,32
6523,9,26
6524,1,4
6525,9,12
6526,13,2
6527,31,7
6528,1,153
6529,4,4
6530,6,1
6531,7,1
6532,91,1
6533,4,3
6534,51,6
6535,1,34
6536,24,10
6537,1,1
6538,8,9
6539,1,1
6540,3,7
6541,3,19
6542,4,24
6543,4,4
6544,26,2
6545,68,1
6546,76,1
6547,4,104
6548,7,1
6549,3,149
6550,9,16
6551,39,15
6552,8,51
6553,16,37
6554,24,16
6555,1,6
6556,1,5
6557,4,4
6558,8,13
6559,8,56
6560,24,7
6561,25,4
6562,2,15
6563,28,1
6564,4,9
6565,41,23
6566,2,2
6567,1,11
6568,1,23
6569,1,4
6570,8,2
6571,7,4
6572,3,1
6573,1,2
6574,1,16
6575,7,2
6576,1,1
6577,1,2
6578,1,20
6579,2,8
6580,15,92
6581,4,2
6582,1,1
6583,4,18
6584,112,5
6585,20,1
6586,77,3
6587,15,1
6588,27,2
6589,1,11
6590,3,9
6591,1,76
6592,15,3
6593,4,5
6594,27,71
6595,5,18
6596,1,112
6597,1,19
6598,3,7
6599,3,2
6600,1,4
6601,63,1
6602,1,15
6603,1,8
6604,1,1
6605,14,2
6606,33,97
6607,5,16
6608,2,1
6609,2,7
6610,9,4
6611,1,2
6612,2,7
6613,28,1
6614,4,9
6615,1,2
6616,2,3
6617,45,7
6618,4,5
6619,5,14
6620,1,41
6621,3,28
6622,1,2
6623,44,20
6624,1,4
6625,12,1
6626,6,1
6627,12,1
6628,3,2
6629,1,15
6630,23,2
6631,7,6
6632,3,1
6633,67,9
6634,25,47
6635,5,3
6636,10,19
6637,32,13
6638,6,1
6639,13,1
6640,32,1
6641,1,2
6642,1,19
6643,2,15
6644,47,130
6645,1,8
6646,1,7
6647,4,61
6648,43,14
6649,1,7
6650,6,7
6651,1,4
6652,14,5
6653,1,26
6654,2,4
6655,24,1
6656,2,35
6657,5,75
6658,44,6
6659,1,17
6660,32,5
6661,10,1
6662,5,1
6663,108,1
6664,1,2
6665,1,2
6666,1,1
6667,60,12
6668,11,3
6669,14,13
6670,32,52
6671,2,1
6672,2,5
6673,1,8
6674,6,8
6675,1,1
6676,6,18
6677,1,3
6678,1,1
6679,1,3
6680,1,2
6681,12,13
6682,66,2
6683,1,8
6684,2,55
6685,17,10
6686,16,3
6687,55,6
6688,1,3
6689,1,10
6690,3,44
6691,5,6
6692,3,21
6693,4,4
6694,1,32
6695,1,3
6696,12,1
6697,25,5
6698,1,2
6699,43,8
6700,1,3
6701,5,33
6702,1,1
6703,27,8
6704,4,14
6705,1,2
6706,1,2
6707,2,6
6708,3,1
6709,24,7
6710,1,3
6711,1,1
6712,2,1
6713,6,7
6714,1,7
6715,21,1
6716,10,12
6717,1,1
6718,11,13
6719,1,2
6720,11,1
6721,2,4
6722,10,1
6723,6,9
6724,1,1
6725,32,6
6726,6,5
6727,2,14
6728,13,4
6729,1,49
6730,1,7
6731,15,1
6732,2,9
6733,2,5
6734,1,1
6735,109,10
6736,1,2
6737,13,17
6738,1,83
6739,94,45
6740,1,2
6741,6,3
6742,6,3
6743,5,5
6744,1,110
6745,69,8
6746,16,11
6747,3,6
6748,24,1
6749,26,1
6750,6,5
6751,5,1
6752,66,5
6753,1,5
6754,1,7
6755,20,2
6756,22,2
6757,1,8
6758,13,16
6759,11,3
6760,1,1
6761,1,13
6762,1,6
6763,3,3
6764,4,1
6765,12,2
6766,1,15
6767,6,14
6768,33,9
6769,23,23
6770,30,24
6771,5,52
6772,2,1
6773,9,11
6774,1,7
6775,8,1
6776,52,2
6777,18,1
6778,8,13
6779,1,5
6780,10,2
6781,26,111
6782,7,33
6783,1,7
6784,4,1
6785,2,9
6786,1,5
6787,3,3
6788,1,23
6789,1,4
6790,6,3
6791,13,1
6792,6,16
6793,1,3
6794,1,2
6795,3,18
6796,4,2
6797,82,2
6798,9,1
6799,1,3
6800,1,8
6801,16,4
6802,1,16
6803,4,9
6804,38,13
6805,2,19
6806,9,5
6807,2,20
6808,66,1
6809,1,1
6810,28,1
6811,6,5
6812,3,14
6813,25,12
6814,4,4
6815,8,23
6816,40,7
6817,7,86
6818,4,3
6819,2,20
6820,26,19
6821,2,1
6822,11,3
6823,1,1
6824,4,1
6825,20,126
6826,18,6
6827,2,11
6828,1,20
6829,6,6
6830,3,14
6831,7,7
6832,1,2
6833,5,31
6834,3,6
6835,1,8
6836,11,186
6837,2,22
6838,4,4
6839,36,30
6840,17,6
6841,69,4
6842,3,1
6843,4,2
6844,2,1
6845,1,5
6846,8,1
6847,9,16
6848,12,22
6849,2,19
6850,2,2
6851,2,2
6852,4,2
6853,2,15
6854,1,4
6855,8,5
6856,1,2
6857,19,6
6858,3,2
6859,24,6
6860,8,14
6861,2,11
6862,79,5
6863,5,3
6864,2,5
6865,1,1
6866,2,86
6867,2,6
6868,9,73
6869,1,13
6870,1,1
6871,1,1
6872,1,2
6873,11,6
6874,1,112
6875,29,17
6876,1,21
6877,4,43
6878,2,2
6879,1,2
6880,2,10
6881,1,1
6882,17,11
6883,1,8
6884,1,6
6885,3,2
6886,4,1
6887,3,5
6888,21,52
6889,6,1
6890,14,10
6891,14,1
6892,2,5
6893,4,2
6894,5,3
6895,3,4
6896,10,4
6897,1,4
6898,1,14
6899,27,8
6900,3,54
6901,26,7
6902,16,1
6903,1,9
6904,1,3
6905,1,29
6906,3,15
6907,7,35
6908,24,52
6909,2,2
6910,2,6
6911,29,6
6912,1,64
6913,27,2
6914,37,8
6915,39,2
6916,31,5
6917,2,10
6918,14,1
6919,4,8
6920,2,1
6921,1,7
6922,5,1
6923,12,7
6924,10,7
6925,2,5
6926,39,19
6927,1,2
6928,1,14
6929,1,21
6930,1,4
6931,4,5
6932,3,2
6933,1,1
6934,3,21
6935,1,4
6936,1,2
6937,5,1
6938,27,26
6939,10,17
6940,4,93
6941,27,7
6942,100,16
6943,33,1
6944,74,20
6945,3,2
6946,3,2
6947,2,33
6948,2,1
6949,27,212
6950,3,31
6951,1,107
6952,1,7
6953,2,4
6954,1,18
6955,1,9
6956,76,2
6957,1,7
6958,1,22
6959,22,5
6960,3,1
6961,12,94
6962,3,6
6963,2,2
6964,9,19
6965,1,3
6966,31,1
6967,3,2
6968,1,1
6969,2,9
6970,9,14
6971,4,7
6972,1,12
6973,3,8
6974,1,3
6975,59,8
6976,1,1
6977,14,1
6978,2,1
6979,1,4
6980,1,6
6981,21,20
6982,4,24
6983,35,2
6984,20,54
6985,1,1
6986,2,4
6987,37,12
6988,24,3
6989,1,2
6990,1,2
6991,2,5
6992,104,32
6993,1,3
6994,9,54
6995,124,26
6996,1,4
6997,9,12
6998,4,4
6999,1,13
7000,16,2
7001,48,7
7002,1,153
7003,2,4
7004,44,1
7005,62,43
7006,30,1
7007,21,5
7008,28,1
7009,1,5
7010,11,3
7011,16,6
7012,12,12
7013,26,34
7014,18,10
7015,1,1
7016,2,18
7017,1,10
7018,3,9
7019,2,1
7020,9,2
7021,1,6
7022,2,7
7023,1,1
7024,9,19
7025,3,24
7026,13,4
7027,6,2
7028,45,1
7029,1,11
7030,2,3
7031,4,58
7032,38,1
7033,7,104
7034,1,55
7035,8,1
7036,1,6
7037,2,149
7038,9,16
7039,5,15
7040,5,51
7041,7,37
7042,25,16
7043,2,6
7044,2,10
7045,1,5
7046,23,4
7047,2,1
7048,29,13
7049,7,56
7050,8,7
7051,1,1
7052,19,4
7053,2,15
7054,3,1
7055,2,9
7056,5,4
7057,48,3
7058,6,4
7059,36,11
7060,18,31
7061,5,121
7062,2,9
7063,5,16
7064,2,1
7065,1,3
7066,125,39
7067,4,85
7068,99,72
7069,10,3
7070,11,4
7071,19,1
7072,3,63
7073,78,4
7074,17,15
7075,8,2
7076,43,1
7077,66,5
7078,21,19
7079,128,13
7080,1,7
7081,1,4
7082,21,1
7083,36,10
7084,1,6
7085,37,4
7086,57,39
7087,2,3
7088,1,12
7089,1,1
7090,13,1
7091,28,2
7092,1,2
7093,9,9
7094,36,12
7095,37,11
7096,38,85
7097,5,43
7098,18,14
7099,7,14
7100,52,2
7101,14,9
7102,4,104
7103,36,1
7104,29,172
7105,15,16
7106,1,19
7107,13,10
7108,27,11
7109,1,8
7110,5,7
7111,3,2
7112,15,190
7113,8,6
7114,1,5
7115,20,5
7116,12,3
7117,112,5
7118,25,1
7119,1,4
7120,72,3
7121,26,3
7122,6,12
7123,42,40
7124,41,17
7125,2,8
7126,69,1
7127,1,1
7128,11,1
7129,10,7
7130,108,10
7131,5,2
7132,13,2
7133,40,4
7134,20,15
7135,5,1
7136,7,3
7137,31,6
7138,24,1
7139,8,3
7140,68,36
7141,18,4
7142,12,104
7143,7,20
7144,12,5
7145,5,5
7146,7,1
7147,23,3
7148,7,8
7149,53,2
7150,2,57
7151,33,3
7152,115,30
7153,74,2
7154,2,1
7155,1,2
7156,11,3
7157,15,2
7158,16,25
7159,76,43
7160,10,15
7161,25,5
7162,1,5
7163,14,3
7164,28,7
7165,45,21
7166,12,65
7167,35,3
7168,16,4
7169,2,9
7170,1,12
7171,3,16
7172,2,1
7173,11,35
7174,1,45
7175,1,1
7176,1,4
7177,21,2
7178,2,70
7179,7,2
7180,8,22
7181,14,33
7182,67,12
7183,2,1
7184,8,9
7185,9,7
7186,6,9
7187,29,16
7188,45,10
7189,44,4
7190,5,14
7191,13,15
7192,6,1
7193,94,5
7194,11,5
7195,105,11
7196,31,27
7197,5,116
7198,33,9
7199,4,16
7200,1,1
7201,69,20
7202,3,2
7203,17,133
7204,41,65
7205,5,109
7206,92,10
7207,38,18
7208,111,1
7209,74,14
7210,5,10
7211,2,11
7212,1,4
7213,5,2
7214,46,5
7215,11,7
7216,6,15
7217,20,23
7218,1,2
7219,2,2
7220,1,4
7221,2,1
7222,5,2
7223,3,2
7224,2,2
7225,4,20
7226,38,8
7227,4,92
7228,10,2
7229,30,18
7230,14,5
7231,4,1
7232,29,3
7233,49,1
7234,88,2
7235,2,11
7236,2,76
7237,65,3
7238,9,71
7239,2,18
7240,42,1
7241,1,8
7242,22,1
7243,4,2
7244,3,97
7245,8,16
7246,1,7
7247,8,4
7248,2,7
7249,35,1
7250,1,9
7251,58,7
7252,5,5
7253,31,20
7254,7,1
7255,2,1
7256,4,1
7257,5,2
7258,11,2
7259,1,1
7260,34,9
7261,4,47
7262,18,19
7263,18,13
7264,1,1
7265,16,1
7266,1,19
7267,79,130
7268,5,61
7269,90,14
7270,1,7
7271,12,7
7272,3,4
7273,13,5
7274,27,4
7275,55,1
7276,1,75
7277,6,6
7278,61,17
7279,5,5
7280,11,1
7281,33,1
7282,11,1
7283,14,1
7284,7,12
7285,1,3
7286,13,13
7287,10,52
7288,5,8
7289,2,1
7290,3,18
7291,4,1
7292,1,2
7293,1,13
7294,5,2
7295,11,8
7296,5,55
7297,16,3
7298,58,6
7299,1,10
7300,1,44
7301,109,6
7302,1,21
7303,7,4
7304,3,1
7305,4,5
7306,47,8
7307,17,1
7308,17,8
7309,9,14
7310,1,2
7311,21,6
7312,7,1
7313,25,7
7314,2,3
7315,1,1
7316,21,7
7317,1,7
7318,16,1
7319,5,12
7320,3,1
7321,21,13
7322,33,1
7323,2,4
7324,21,1
7325,4,1
7326,16,6
7327,34,14
7328,5,4
7329,4,49
7330,1,7
7331,35,1
7332,3,9
7333,16,10
7334,3,17
7335,3,83
7336,5,45
7337,5,2
7338,4,3
7339,5,3
7340,14,5
7341,2,110
7342,9,8
7343,1,11
7344,5,6
7345,19,1
7346,40,1
7347,15,5
7348,3,1
7349,62,5
7350,1,2
7351,14,2
7352,24,16
7353,46,3
7354,1,1
7355,10,3
7356,1,1
7357,16,2
7358,3,14
7359,3,9
7360,14,23
7361,8,24
7362,9,11
7363,6,7
7364,17,1
7365,13,1
7366,6,13
7367,3,5
7368,26,2
7369,3,111
7370,8,33
7371,9,1
7372,25,9
7373,3,3
7374,4,23
7375,2,4
7376,24,3
7377,2,1
7378,2,16
7379,17,18
7380,8,2
7381,30,2
7382,16,1
7383,56,4
7384,25,16
7385,2,9
7386,4,13
7387,39,19
7388,3,1
7389,7,1
7390,5,5
7391,7,14
7392,83,12
7393,1,4
7394,5,23
7395,13,86
7396,1,3
7397,5,20
7398,5,19
7399,18,1
7400,13,3
7401,3,1
7402,4,1
7403,48,126
7404,10,11
7405,6,20
7406,6,6
7407,2,14
7408,22,2
7409,2,31
7410,90,8
7411,42,186
7412,29,4
7413,79,30
7414,9,6
7415,5,4
7416,2,1
7417,10,2
7418,3,1
7419,6,16
7420,4,22
7421,74,19
7422,1,2
7423,8,2
7424,3,2
7425,23,15
7426,6,5
7427,9,6
7428,3,2
7429,21,6
7430,4,14
7431,33,11
7432,22,5
7433,11,3
7434,1,86
7435,2,73
7436,10,6
7437,1,112
7438,1,17
7439,6,21
7440,4,43
7441,1,2
7442,12,10
7443,2,1
7444,50,11
7445,1,8
7446,5,2
7447,5,1
7448,3,5
7449,8,52
7450,31,10
7451,30,1
7452,3,5
7453,16,2
7454,8,3
7455,3,4
7456,84,4
7457,10,4
7458,104,14
7459,4,8
7460,2,54
7461,7,7
7462,15,1
7463,3,9
7464,68,29
7465,10,35
7466,17,52
7467,6,2
7468,11,6
7469,2,6
7470,4,64
7471,65,2
7472,1,8
7473,1,2
7474,80,5
7475,72,10
7476,21,1
7477,1,8
7478,34,7
7479,1,7
7480,4,5
7481,22,19
7482,2,2
7483,6,5
7484,3,2
7485,7,21
7486,2,2
7487,13,26
7488,9,17
7489,10,93
7490,7,7
7491,26,16
7492,73,1
7493,41,20
7494,1,33
7495,2,1
7496,9,212
7497,4,31
7498,1,4
7499,2,18
7500,29,2
7501,1,22
7502,1,5
7503,15,1
7504,24,94
7505,10,6
7506,8,19
7507,32,1
7508,2,2
7509,1,7
7510,16,8
7511,5,1
7512,6,1
7513,7,4
7514,13,20
7515,66,2
7516,9,54
7517,4,1
7518,26,4
7519,13,12
7520,5,3
7521,1,2
7522,22,32
7523,9,26
7524,1,4
7525,9,12
7526,13,2
7527,31,7
7528,1,153
7529,4,4
7530,6,1
7531,7,1
7532,91,1
7533,4,3
7534,51,6
7535,1,34
7536,24,10
7537,1,1
7538,8,9
7539,1,1
7540,3,7
7541,3,19
7542,4,24
7543,4,4
7544,26,2
7545,68,1
7546,76,1
7547,4,104
7548,7,1
7549,3,149
7550,9,16
7551,39,15
7552,8,51
7553,16,37
7554,24,16
7555,1,6
7556,1,5
7557,4,4
7558,8,13
7559,8,56
7560,24,7
7561,25,4
7562,2,15
7563,28,1
7564,4,9
