100,,
1,10,25
2,8,74
3,19,27
4,34,64
5,6,74
6,6,39
7,7,48
8,10,11
9,10,8
10,6,14
11,10,6
12,6,26
13,6,27
14,10,6
15,10,8
16,10,31
17,6,23
18,10,7
19,10,6
20,10,11
21,7,53
22,6,20
23,10,46
24,6,18
25,6,10
26,10,10
27,6,9
28,6,7
29,6,11
30,6,7
31,8,6
32,7,9
33,7,47
34,7,10
35,6,7
36,10,25
37,8,26
38,6,36
39,6,6
40,7,6
41,6,20
42,22,16
43,14,20
44,6,10
45,8,14
46,6,8
47,6,7
48,6,16
49,6,8
50,6,15
