40,,
1,8,6
2,11,4
3,10,3
4,4,7
5,12,6
6,11,6
7,12,8
8,3,6
9,4,3
10,3,8
11,9,1
12,1,3
13,8,6
14,11,3
15,11,1
16,9,8
17,9,1
18,11,5
19,1,7
20,7,8
21,10,3
22,2,8
23,8,3
24,7,3
25,8,4
26,2,7
27,12,7
28,1,2
29,3,8
30,1,1
31,12,7
32,3,4
33,8,4
34,11,5
35,5,6
36,8,8
37,4,1
38,10,3
39,12,7
40,12,3
