25,,
1,8,6
2,11,4
3,10,3
4,4,7
5,12,6
6,11,6
7,12,8
8,3,6
9,4,3
10,3,8
11,9,1
12,1,3
13,8,6
14,11,3
15,11,1
16,9,8
17,9,1
18,11,5
19,1,7
20,7,8
21,10,3
22,2,8
23,8,3
24,7,3
25,8,4
26,2,7
27,12,7
28,1,2
29,3,8
30,1,1
31,12,7
32,3,4
33,8,4
34,11,5
35,5,6
36,8,8
37,4,1
38,10,3
39,12,7
40,12,3
41,10,7
42,5,4
43,3,2
44,7,7
45,11,8
46,10,5
47,4,7
48,5,4
49,2,3
50,3,3
51,8,3
52,11,4
53,8,1
54,8,7
55,6,5
56,8,5
57,4,8
58,8,8
59,7,2
60,6,2
61,9,2
62,7,6
63,1,5
64,5,2
65,11,4
66,11,3
67,3,1
68,9,2
69,11,7
70,10,4
71,5,4
72,11,2
73,7,3
74,12,6
75,11,5
76,2,6
77,10,4
78,10,4
79,1,3
80,2,4
81,5,6
82,11,1
83,1,1
84,7,7
85,3,8
86,10,8
87,4,7
88,7,6
89,9,5
90,5,2
91,7,3
92,11,6
93,9,7
94,7,6
95,9,6
96,4,2
97,4,6
98,3,1
99,12,4
100,4,2
