70,,
1,21,22
2,31,13
3,9,35
4,9,35
5,9,35
6,9,24
7,9,24
8,9,24
9,30,7
10,30,7
11,11,13
12,11,13
13,11,13
14,10,14
15,14,8
16,14,8
17,14,8
18,12,8
19,12,8
20,12,8
21,13,7
22,13,7
23,13,7
