60,,
1,9,24
2,9,8
3,9,11
4,9,17
5,4,24
6,4,8
7,1,6
8,1,5
9,4,17
10,3,6
11,3,5
12,12,5
13,12,13
14,14,14
15,2,14
16,2,2
17,8,3
18,8,9
19,12,14
20,12,2
21,6,3
22,6,9
23,2,5
24,2,13
25,3,18
26,3,14
27,3,16
28,3,12
