60,,
1,5,7
2,5,14
3,8,14
4,8,4
5,13,21
6,11,7
7,11,14
8,5,14
9,5,4
10,3,18
11,3,21
12,11,17
13,11,4
14,4,7
15,4,5
16,7,6
17,5,18
18,5,3
19,3,7
20,3,5
21,4,18
22,4,3
23,2,12
24,2,6
25,5,18
26,5,21
27,3,17
28,3,4
