60,,
1,10,14
2,3,13
3,28,5
4,5,8
5,14,9
6,12,14
7,13,10
8,3,17
9,1,5
10,4,1
11,18,4
12,1,1
13,2,6
14,4,14
15,3,18
16,4,14
17,8,17
18,11,5
19,9,12
20,4,7
21,25,8
22,7,5
23,24,9
24,9,14
25,12,19
26,2,4
27,2,7
28,3,4
29,5,30
30,5,3
31,10,26
32,6,5
33,4,9
34,1,4
35,9,2
36,4,17
37,5,2
38,4,4
39,6,2
40,4,10
41,2,4
42,3,12
43,6,5
44,3,9
45,7,18
46,6,6
47,18,7
48,13,9
49,25,7
