# ngcut09
set ITEMS :=
1
2
3
4
5
6
7
8
9
10
;
param w :=
1   2
2   3
3   4
4   5
5   5
6   6
7   7
8   8
9   9
10  14
;
param h :=
1   14
2   12
3   20
4   1
5   17
6   11
7   1
8   11
9   7
10  7
;
param q :=
1   1
2   3
3   2
4   1
5   1
6   2
7   3
8   2
9   1
10  2
;
param necessary_items :=
1   1
2   3
3   2
4   0
5   1
6   2
7   1
8   2
9   1
10  2
;
param cW := 20;
param cH := 49;
param waste_bound := 20;
