200,,
1,54,27
2,109,16
3,37,102
4,33,11
5,76,35
6,46,15
7,41,6
8,14,9
9,27,18
10,60,9
11,35,46
12,56,18
13,22,92
14,45,19
15,5,30
16,20,28
17,36,56
18,15,32
19,30,11
20,17,13
21,18,11
22,5,2
23,13,10
24,22,8
25,55,28
26,16,51
27,71,38
28,51,75
29,40,18
30,32,13
31,7,42
32,27,23
33,5,26
34,50,37
35,12,45
36,11,37
37,37,32
38,10,8
39,17,3
40,22,5
41,25,11
42,7,29
43,31,20
44,19,8
45,32,18
46,25,5
47,12,15
48,31,12
49,36,10
