200,,
1,110,32
2,12,33
3,78,15
4,62,18
5,16,53
6,37,76
7,14,97
8,28,43
9,16,9
10,15,22
11,64,19
12,10,13
13,4,27
14,12,13
15,3,6
16,7,22
17,67,16
18,27,14
19,13,41
20,78,35
21,30,115
22,8,54
23,20,91
24,6,6
25,72,12
26,15,92
27,22,58
28,19,6
29,38,48
30,21,61
31,10,38
32,22,47
33,22,37
34,5,30
35,5,9
36,3,15
37,24,10
38,20,37
39,18,13
40,23,19
41,41,27
42,18,5
43,6,11
44,39,24
45,21,6
46,62,17
47,20,15
48,3,8
49,44,7
